<?xml version="1.0" encoding="utf-8"?>
  <gpx xmlns="http://www.topografix.com/GPX/1/1" xmlns:xsi="http://www.w3.org/2001/XMLSchema-instance" version="1.1" xsi:schemaLocation="http://www.topografix.com/GPX/1/1 http://www.topografix.com/GPX/1/1/gpx.xsd" creator="Ride On Wisconsin">
    <metadata>
        <name>CAMBA Flow Trail</name>
        <author>
            <name>Dave Schlabowske</name>
        </author>
        <copyright>
            <year>2013</year>
            <author>Ride On Wisconsin</author>
        </copyright>
    </metadata>
    <trk>
        <name>CAMBA Flow Trail</name>
        <link>
            <href>http://www.rideonwisconsin.com/#!/routes/view/67</href>
        </link>
        <trkseg>			
			<trkpt lon="-91.260723" lat="46.158206">
                <ele>0</ele>
            </trkpt>			
			<trkpt lon="-91.260723" lat="46.158206">
                <ele>0</ele>
            </trkpt>			
			<trkpt lon="-91.260823" lat="46.157962">
                <ele>0</ele>
            </trkpt>			
			<trkpt lon="-91.260827" lat="46.157889">
                <ele>0</ele>
            </trkpt>			
			<trkpt lon="-91.260774" lat="46.157724">
                <ele>0</ele>
            </trkpt>			
			<trkpt lon="-91.260726" lat="46.157596">
                <ele>0</ele>
            </trkpt>			
			<trkpt lon="-91.260845" lat="46.157473">
                <ele>0</ele>
            </trkpt>			
			<trkpt lon="-91.260905" lat="46.157375">
                <ele>0</ele>
            </trkpt>			
			<trkpt lon="-91.260915" lat="46.157271">
                <ele>0</ele>
            </trkpt>			
			<trkpt lon="-91.260946" lat="46.157165">
                <ele>0</ele>
            </trkpt>			
			<trkpt lon="-91.261064" lat="46.157089">
                <ele>0</ele>
            </trkpt>			
			<trkpt lon="-91.261230" lat="46.157212">
                <ele>0</ele>
            </trkpt>			
			<trkpt lon="-91.261343" lat="46.157162">
                <ele>0</ele>
            </trkpt>			
			<trkpt lon="-91.261455" lat="46.157107">
                <ele>0</ele>
            </trkpt>			
			<trkpt lon="-91.261594" lat="46.157156">
                <ele>0</ele>
            </trkpt>			
			<trkpt lon="-91.261755" lat="46.157140">
                <ele>0</ele>
            </trkpt>			
			<trkpt lon="-91.261872" lat="46.157087">
                <ele>0</ele>
            </trkpt>			
			<trkpt lon="-91.261973" lat="46.157022">
                <ele>0</ele>
            </trkpt>			
			<trkpt lon="-91.262065" lat="46.156945">
                <ele>0</ele>
            </trkpt>			
			<trkpt lon="-91.262185" lat="46.156883">
                <ele>0</ele>
            </trkpt>			
			<trkpt lon="-91.262239" lat="46.156794">
                <ele>0</ele>
            </trkpt>			
			<trkpt lon="-91.262270" lat="46.156702">
                <ele>0</ele>
            </trkpt>			
			<trkpt lon="-91.262375" lat="46.156636">
                <ele>0</ele>
            </trkpt>			
			<trkpt lon="-91.262498" lat="46.156668">
                <ele>0</ele>
            </trkpt>			
			<trkpt lon="-91.262556" lat="46.156773">
                <ele>0</ele>
            </trkpt>			
			<trkpt lon="-91.262694" lat="46.156766">
                <ele>0</ele>
            </trkpt>			
			<trkpt lon="-91.262847" lat="46.156722">
                <ele>0</ele>
            </trkpt>			
			<trkpt lon="-91.262974" lat="46.156676">
                <ele>0</ele>
            </trkpt>			
			<trkpt lon="-91.263095" lat="46.156615">
                <ele>0</ele>
            </trkpt>			
			<trkpt lon="-91.263251" lat="46.156629">
                <ele>0</ele>
            </trkpt>			
			<trkpt lon="-91.263383" lat="46.156672">
                <ele>0</ele>
            </trkpt>			
			<trkpt lon="-91.263522" lat="46.156709">
                <ele>0</ele>
            </trkpt>			
			<trkpt lon="-91.263666" lat="46.156730">
                <ele>0</ele>
            </trkpt>			
			<trkpt lon="-91.263811" lat="46.156771">
                <ele>0</ele>
            </trkpt>			
			<trkpt lon="-91.263943" lat="46.156767">
                <ele>0</ele>
            </trkpt>			
			<trkpt lon="-91.264104" lat="46.156754">
                <ele>0</ele>
            </trkpt>			
			<trkpt lon="-91.264182" lat="46.156667">
                <ele>0</ele>
            </trkpt>			
			<trkpt lon="-91.264137" lat="46.156571">
                <ele>0</ele>
            </trkpt>			
			<trkpt lon="-91.264043" lat="46.156492">
                <ele>0</ele>
            </trkpt>			
			<trkpt lon="-91.263963" lat="46.156419">
                <ele>0</ele>
            </trkpt>			
			<trkpt lon="-91.263901" lat="46.156317">
                <ele>0</ele>
            </trkpt>			
			<trkpt lon="-91.263865" lat="46.156228">
                <ele>0</ele>
            </trkpt>			
			<trkpt lon="-91.263831" lat="46.156138">
                <ele>0</ele>
            </trkpt>			
			<trkpt lon="-91.263889" lat="46.156045">
                <ele>0</ele>
            </trkpt>			
			<trkpt lon="-91.263993" lat="46.155979">
                <ele>0</ele>
            </trkpt>			
			<trkpt lon="-91.264063" lat="46.155879">
                <ele>0</ele>
            </trkpt>			
			<trkpt lon="-91.264103" lat="46.155766">
                <ele>0</ele>
            </trkpt>			
			<trkpt lon="-91.264196" lat="46.155681">
                <ele>0</ele>
            </trkpt>			
			<trkpt lon="-91.264291" lat="46.155603">
                <ele>0</ele>
            </trkpt>			
			<trkpt lon="-91.264399" lat="46.155532">
                <ele>0</ele>
            </trkpt>			
			<trkpt lon="-91.264494" lat="46.155448">
                <ele>0</ele>
            </trkpt>			
			<trkpt lon="-91.264550" lat="46.155358">
                <ele>0</ele>
            </trkpt>			
			<trkpt lon="-91.264591" lat="46.155260">
                <ele>0</ele>
            </trkpt>			
			<trkpt lon="-91.264500" lat="46.155166">
                <ele>0</ele>
            </trkpt>			
			<trkpt lon="-91.264469" lat="46.155075">
                <ele>0</ele>
            </trkpt>			
			<trkpt lon="-91.264578" lat="46.155021">
                <ele>0</ele>
            </trkpt>			
			<trkpt lon="-91.264794" lat="46.154932">
                <ele>0</ele>
            </trkpt>			
			<trkpt lon="-91.264939" lat="46.154874">
                <ele>0</ele>
            </trkpt>			
			<trkpt lon="-91.265113" lat="46.154835">
                <ele>0</ele>
            </trkpt>			
			<trkpt lon="-91.265188" lat="46.154720">
                <ele>0</ele>
            </trkpt>			
			<trkpt lon="-91.265370" lat="46.154647">
                <ele>0</ele>
            </trkpt>			
			<trkpt lon="-91.265533" lat="46.154676">
                <ele>0</ele>
            </trkpt>			
			<trkpt lon="-91.265662" lat="46.154710">
                <ele>0</ele>
            </trkpt>			
			<trkpt lon="-91.265827" lat="46.154757">
                <ele>0</ele>
            </trkpt>			
			<trkpt lon="-91.265958" lat="46.154729">
                <ele>0</ele>
            </trkpt>			
			<trkpt lon="-91.266087" lat="46.154672">
                <ele>0</ele>
            </trkpt>			
			<trkpt lon="-91.266168" lat="46.154590">
                <ele>0</ele>
            </trkpt>			
			<trkpt lon="-91.266175" lat="46.154469">
                <ele>0</ele>
            </trkpt>			
			<trkpt lon="-91.266269" lat="46.154536">
                <ele>0</ele>
            </trkpt>			
			<trkpt lon="-91.266380" lat="46.154635">
                <ele>0</ele>
            </trkpt>			
			<trkpt lon="-91.266529" lat="46.154648">
                <ele>0</ele>
            </trkpt>			
			<trkpt lon="-91.266624" lat="46.154578">
                <ele>0</ele>
            </trkpt>			
			<trkpt lon="-91.266564" lat="46.154475">
                <ele>0</ele>
            </trkpt>			
			<trkpt lon="-91.266514" lat="46.154378">
                <ele>0</ele>
            </trkpt>			
			<trkpt lon="-91.266465" lat="46.154276">
                <ele>0</ele>
            </trkpt>			
			<trkpt lon="-91.266425" lat="46.154170">
                <ele>0</ele>
            </trkpt>			
			<trkpt lon="-91.266374" lat="46.154064">
                <ele>0</ele>
            </trkpt>			
			<trkpt lon="-91.266291" lat="46.153969">
                <ele>0</ele>
            </trkpt>			
			<trkpt lon="-91.266291" lat="46.153969">
                <ele>0</ele>
            </trkpt>			
			<trkpt lon="-91.266291" lat="46.153969">
                <ele>0</ele>
            </trkpt>			
			<trkpt lon="-91.266277" lat="46.153851">
                <ele>0</ele>
            </trkpt>			
			<trkpt lon="-91.266413" lat="46.153876">
                <ele>0</ele>
            </trkpt>			
			<trkpt lon="-91.266590" lat="46.153917">
                <ele>0</ele>
            </trkpt>			
			<trkpt lon="-91.266762" lat="46.153904">
                <ele>0</ele>
            </trkpt>			
			<trkpt lon="-91.266943" lat="46.153845">
                <ele>0</ele>
            </trkpt>			
			<trkpt lon="-91.267057" lat="46.153801">
                <ele>0</ele>
            </trkpt>			
			<trkpt lon="-91.267190" lat="46.153716">
                <ele>0</ele>
            </trkpt>			
			<trkpt lon="-91.267222" lat="46.153615">
                <ele>0</ele>
            </trkpt>			
			<trkpt lon="-91.267204" lat="46.153517">
                <ele>0</ele>
            </trkpt>			
			<trkpt lon="-91.267204" lat="46.153517">
                <ele>0</ele>
            </trkpt>			
			<trkpt lon="-91.267204" lat="46.153517">
                <ele>0</ele>
            </trkpt>			
			<trkpt lon="-91.267397" lat="46.153433">
                <ele>0</ele>
            </trkpt>			
			<trkpt lon="-91.267537" lat="46.153457">
                <ele>0</ele>
            </trkpt>			
			<trkpt lon="-91.267703" lat="46.153479">
                <ele>0</ele>
            </trkpt>			
			<trkpt lon="-91.267865" lat="46.153476">
                <ele>0</ele>
            </trkpt>			
			<trkpt lon="-91.268029" lat="46.153515">
                <ele>0</ele>
            </trkpt>			
			<trkpt lon="-91.268151" lat="46.153560">
                <ele>0</ele>
            </trkpt>			
			<trkpt lon="-91.268278" lat="46.153599">
                <ele>0</ele>
            </trkpt>			
			<trkpt lon="-91.268310" lat="46.153509">
                <ele>0</ele>
            </trkpt>			
			<trkpt lon="-91.268241" lat="46.153372">
                <ele>0</ele>
            </trkpt>			
			<trkpt lon="-91.268184" lat="46.153270">
                <ele>0</ele>
            </trkpt>			
			<trkpt lon="-91.268162" lat="46.153058">
                <ele>0</ele>
            </trkpt>			
			<trkpt lon="-91.268178" lat="46.152967">
                <ele>0</ele>
            </trkpt>			
			<trkpt lon="-91.268021" lat="46.153039">
                <ele>0</ele>
            </trkpt>			
			<trkpt lon="-91.267848" lat="46.153066">
                <ele>0</ele>
            </trkpt>			
			<trkpt lon="-91.267705" lat="46.152910">
                <ele>0</ele>
            </trkpt>			
			<trkpt lon="-91.267617" lat="46.152840">
                <ele>0</ele>
            </trkpt>			
			<trkpt lon="-91.267404" lat="46.152808">
                <ele>0</ele>
            </trkpt>			
			<trkpt lon="-91.267248" lat="46.152783">
                <ele>0</ele>
            </trkpt>			
			<trkpt lon="-91.267084" lat="46.152802">
                <ele>0</ele>
            </trkpt>			
			<trkpt lon="-91.266959" lat="46.152892">
                <ele>0</ele>
            </trkpt>			
			<trkpt lon="-91.266845" lat="46.152979">
                <ele>0</ele>
            </trkpt>			
			<trkpt lon="-91.266713" lat="46.153079">
                <ele>0</ele>
            </trkpt>			
			<trkpt lon="-91.266443" lat="46.153209">
                <ele>0</ele>
            </trkpt>			
			<trkpt lon="-91.266281" lat="46.153222">
                <ele>0</ele>
            </trkpt>			
			<trkpt lon="-91.266281" lat="46.153222">
                <ele>0</ele>
            </trkpt>			
			<trkpt lon="-91.266281" lat="46.153222">
                <ele>0</ele>
            </trkpt>			
			<trkpt lon="-91.266135" lat="46.153150">
                <ele>0</ele>
            </trkpt>			
			<trkpt lon="-91.266142" lat="46.153020">
                <ele>0</ele>
            </trkpt>			
			<trkpt lon="-91.266033" lat="46.152951">
                <ele>0</ele>
            </trkpt>			
			<trkpt lon="-91.265874" lat="46.152952">
                <ele>0</ele>
            </trkpt>			
			<trkpt lon="-91.265868" lat="46.152853">
                <ele>0</ele>
            </trkpt>			
			<trkpt lon="-91.265842" lat="46.152755">
                <ele>0</ele>
            </trkpt>			
			<trkpt lon="-91.265842" lat="46.152755">
                <ele>0</ele>
            </trkpt>			
			<trkpt lon="-91.265842" lat="46.152755">
                <ele>0</ele>
            </trkpt>			
			<trkpt lon="-91.266162" lat="46.152667">
                <ele>0</ele>
            </trkpt>			
			<trkpt lon="-91.266306" lat="46.152610">
                <ele>0</ele>
            </trkpt>			
			<trkpt lon="-91.266399" lat="46.152500">
                <ele>0</ele>
            </trkpt>			
			<trkpt lon="-91.266544" lat="46.152288">
                <ele>0</ele>
            </trkpt>			
			<trkpt lon="-91.266673" lat="46.152224">
                <ele>0</ele>
            </trkpt>			
			<trkpt lon="-91.266819" lat="46.152245">
                <ele>0</ele>
            </trkpt>			
			<trkpt lon="-91.266977" lat="46.152176">
                <ele>0</ele>
            </trkpt>			
			<trkpt lon="-91.267153" lat="46.152160">
                <ele>0</ele>
            </trkpt>			
			<trkpt lon="-91.267300" lat="46.152156">
                <ele>0</ele>
            </trkpt>			
			<trkpt lon="-91.267421" lat="46.152112">
                <ele>0</ele>
            </trkpt>			
			<trkpt lon="-91.267538" lat="46.152042">
                <ele>0</ele>
            </trkpt>			
			<trkpt lon="-91.267549" lat="46.152135">
                <ele>0</ele>
            </trkpt>			
			<trkpt lon="-91.267426" lat="46.152246">
                <ele>0</ele>
            </trkpt>			
			<trkpt lon="-91.267561" lat="46.152272">
                <ele>0</ele>
            </trkpt>			
			<trkpt lon="-91.267694" lat="46.152254">
                <ele>0</ele>
            </trkpt>			
			<trkpt lon="-91.267843" lat="46.152250">
                <ele>0</ele>
            </trkpt>			
			<trkpt lon="-91.267991" lat="46.152287">
                <ele>0</ele>
            </trkpt>			
			<trkpt lon="-91.268094" lat="46.152368">
                <ele>0</ele>
            </trkpt>			
			<trkpt lon="-91.268175" lat="46.152464">
                <ele>0</ele>
            </trkpt>			
			<trkpt lon="-91.268282" lat="46.152539">
                <ele>0</ele>
            </trkpt>			
			<trkpt lon="-91.268375" lat="46.152605">
                <ele>0</ele>
            </trkpt>			
			<trkpt lon="-91.268443" lat="46.152685">
                <ele>0</ele>
            </trkpt>			
			<trkpt lon="-91.268553" lat="46.152627">
                <ele>0</ele>
            </trkpt>			
			<trkpt lon="-91.268682" lat="46.152570">
                <ele>0</ele>
            </trkpt>			
			<trkpt lon="-91.268796" lat="46.152628">
                <ele>0</ele>
            </trkpt>			
			<trkpt lon="-91.268730" lat="46.152710">
                <ele>0</ele>
            </trkpt>			
			<trkpt lon="-91.268652" lat="46.152785">
                <ele>0</ele>
            </trkpt>			
			<trkpt lon="-91.268759" lat="46.152865">
                <ele>0</ele>
            </trkpt>			
			<trkpt lon="-91.268895" lat="46.152914">
                <ele>0</ele>
            </trkpt>			
			<trkpt lon="-91.269053" lat="46.152877">
                <ele>0</ele>
            </trkpt>			
			<trkpt lon="-91.269280" lat="46.152849">
                <ele>0</ele>
            </trkpt>			
			<trkpt lon="-91.269421" lat="46.152871">
                <ele>0</ele>
            </trkpt>			
			<trkpt lon="-91.269591" lat="46.152883">
                <ele>0</ele>
            </trkpt>			
			<trkpt lon="-91.269757" lat="46.152875">
                <ele>0</ele>
            </trkpt>			
			<trkpt lon="-91.269757" lat="46.152875">
                <ele>0</ele>
            </trkpt>			
			<trkpt lon="-91.269898" lat="46.152891">
                <ele>0</ele>
            </trkpt>			
			<trkpt lon="-91.269928" lat="46.152983">
                <ele>0</ele>
            </trkpt>			
			<trkpt lon="-91.270016" lat="46.153083">
                <ele>0</ele>
            </trkpt>			
			<trkpt lon="-91.270141" lat="46.153126">
                <ele>0</ele>
            </trkpt>			
			<trkpt lon="-91.270141" lat="46.153126">
                <ele>0</ele>
            </trkpt>			
			<trkpt lon="-91.270412" lat="46.153246">
                <ele>0</ele>
            </trkpt>			
			<trkpt lon="-91.270521" lat="46.153338">
                <ele>0</ele>
            </trkpt>			
			<trkpt lon="-91.270527" lat="46.153428">
                <ele>0</ele>
            </trkpt>			
			<trkpt lon="-91.270642" lat="46.153523">
                <ele>0</ele>
            </trkpt>			
			<trkpt lon="-91.270802" lat="46.153558">
                <ele>0</ele>
            </trkpt>			
			<trkpt lon="-91.270906" lat="46.153383">
                <ele>0</ele>
            </trkpt>			
			<trkpt lon="-91.271010" lat="46.153254">
                <ele>0</ele>
            </trkpt>			
			<trkpt lon="-91.271015" lat="46.153154">
                <ele>0</ele>
            </trkpt>			
			<trkpt lon="-91.270879" lat="46.153128">
                <ele>0</ele>
            </trkpt>			
			<trkpt lon="-91.270893" lat="46.152983">
                <ele>0</ele>
            </trkpt>			
			<trkpt lon="-91.270851" lat="46.152861">
                <ele>0</ele>
            </trkpt>			
			<trkpt lon="-91.270863" lat="46.152759">
                <ele>0</ele>
            </trkpt>			
			<trkpt lon="-91.270989" lat="46.152693">
                <ele>0</ele>
            </trkpt>			
			<trkpt lon="-91.271094" lat="46.152766">
                <ele>0</ele>
            </trkpt>			
			<trkpt lon="-91.271198" lat="46.152834">
                <ele>0</ele>
            </trkpt>			
			<trkpt lon="-91.271296" lat="46.152743">
                <ele>0</ele>
            </trkpt>			
			<trkpt lon="-91.271433" lat="46.152713">
                <ele>0</ele>
            </trkpt>			
			<trkpt lon="-91.271598" lat="46.152736">
                <ele>0</ele>
            </trkpt>			
			<trkpt lon="-91.271439" lat="46.152731">
                <ele>0</ele>
            </trkpt>			
			<trkpt lon="-91.271305" lat="46.152676">
                <ele>0</ele>
            </trkpt>			
			<trkpt lon="-91.271220" lat="46.152573">
                <ele>0</ele>
            </trkpt>			
			<trkpt lon="-91.271124" lat="46.152508">
                <ele>0</ele>
            </trkpt>			
			<trkpt lon="-91.270958" lat="46.152511">
                <ele>0</ele>
            </trkpt>			
			<trkpt lon="-91.271093" lat="46.152456">
                <ele>0</ele>
            </trkpt>			
			<trkpt lon="-91.271242" lat="46.152431">
                <ele>0</ele>
            </trkpt>			
			<trkpt lon="-91.271367" lat="46.152474">
                <ele>0</ele>
            </trkpt>			
			<trkpt lon="-91.271490" lat="46.152530">
                <ele>0</ele>
            </trkpt>			
			<trkpt lon="-91.271623" lat="46.152574">
                <ele>0</ele>
            </trkpt>			
			<trkpt lon="-91.271747" lat="46.152602">
                <ele>0</ele>
            </trkpt>			
			<trkpt lon="-91.271868" lat="46.152636">
                <ele>0</ele>
            </trkpt>			
			<trkpt lon="-91.271989" lat="46.152669">
                <ele>0</ele>
            </trkpt>			
			<trkpt lon="-91.272121" lat="46.152725">
                <ele>0</ele>
            </trkpt>			
			<trkpt lon="-91.272261" lat="46.152789">
                <ele>0</ele>
            </trkpt>			
			<trkpt lon="-91.272356" lat="46.152906">
                <ele>0</ele>
            </trkpt>			
			<trkpt lon="-91.272491" lat="46.152920">
                <ele>0</ele>
            </trkpt>			
			<trkpt lon="-91.272585" lat="46.152820">
                <ele>0</ele>
            </trkpt>			
			<trkpt lon="-91.272644" lat="46.152726">
                <ele>0</ele>
            </trkpt>			
			<trkpt lon="-91.272771" lat="46.152682">
                <ele>0</ele>
            </trkpt>			
			<trkpt lon="-91.272920" lat="46.152659">
                <ele>0</ele>
            </trkpt>			
			<trkpt lon="-91.272996" lat="46.152568">
                <ele>0</ele>
            </trkpt>			
			<trkpt lon="-91.272906" lat="46.152476">
                <ele>0</ele>
            </trkpt>			
			<trkpt lon="-91.272800" lat="46.152396">
                <ele>0</ele>
            </trkpt>			
			<trkpt lon="-91.272700" lat="46.152332">
                <ele>0</ele>
            </trkpt>			
			<trkpt lon="-91.272712" lat="46.152234">
                <ele>0</ele>
            </trkpt>			
			<trkpt lon="-91.272789" lat="46.152160">
                <ele>0</ele>
            </trkpt>			
			<trkpt lon="-91.272967" lat="46.152145">
                <ele>0</ele>
            </trkpt>			
			<trkpt lon="-91.273101" lat="46.152160">
                <ele>0</ele>
            </trkpt>			
			<trkpt lon="-91.273246" lat="46.152133">
                <ele>0</ele>
            </trkpt>			
			<trkpt lon="-91.273258" lat="46.152041">
                <ele>0</ele>
            </trkpt>			
			<trkpt lon="-91.273183" lat="46.151948">
                <ele>0</ele>
            </trkpt>			
			<trkpt lon="-91.273085" lat="46.151885">
                <ele>0</ele>
            </trkpt>			
			<trkpt lon="-91.273016" lat="46.151792">
                <ele>0</ele>
            </trkpt>			
			<trkpt lon="-91.272944" lat="46.151697">
                <ele>0</ele>
            </trkpt>			
			<trkpt lon="-91.272918" lat="46.151598">
                <ele>0</ele>
            </trkpt>			
			<trkpt lon="-91.272882" lat="46.151505">
                <ele>0</ele>
            </trkpt>			
			<trkpt lon="-91.272774" lat="46.151432">
                <ele>0</ele>
            </trkpt>			
			<trkpt lon="-91.272729" lat="46.151551">
                <ele>0</ele>
            </trkpt>			
			<trkpt lon="-91.272763" lat="46.151660">
                <ele>0</ele>
            </trkpt>			
			<trkpt lon="-91.272831" lat="46.151748">
                <ele>0</ele>
            </trkpt>			
			<trkpt lon="-91.272745" lat="46.151831">
                <ele>0</ele>
            </trkpt>			
			<trkpt lon="-91.272594" lat="46.151797">
                <ele>0</ele>
            </trkpt>			
			<trkpt lon="-91.272463" lat="46.151765">
                <ele>0</ele>
            </trkpt>			
			<trkpt lon="-91.272308" lat="46.151700">
                <ele>0</ele>
            </trkpt>			
			<trkpt lon="-91.272289" lat="46.151604">
                <ele>0</ele>
            </trkpt>			
			<trkpt lon="-91.272342" lat="46.151497">
                <ele>0</ele>
            </trkpt>			
			<trkpt lon="-91.272278" lat="46.151373">
                <ele>0</ele>
            </trkpt>			
			<trkpt lon="-91.272259" lat="46.151279">
                <ele>0</ele>
            </trkpt>			
			<trkpt lon="-91.272324" lat="46.151175">
                <ele>0</ele>
            </trkpt>			
			<trkpt lon="-91.272465" lat="46.151074">
                <ele>0</ele>
            </trkpt>			
			<trkpt lon="-91.272599" lat="46.151067">
                <ele>0</ele>
            </trkpt>			
			<trkpt lon="-91.272739" lat="46.150981">
                <ele>0</ele>
            </trkpt>			
			<trkpt lon="-91.272716" lat="46.150816">
                <ele>0</ele>
            </trkpt>			
			<trkpt lon="-91.272779" lat="46.150701">
                <ele>0</ele>
            </trkpt>			
			<trkpt lon="-91.272877" lat="46.150618">
                <ele>0</ele>
            </trkpt>			
			<trkpt lon="-91.273004" lat="46.150577">
                <ele>0</ele>
            </trkpt>			
			<trkpt lon="-91.273167" lat="46.150495">
                <ele>0</ele>
            </trkpt>			
			<trkpt lon="-91.273341" lat="46.150487">
                <ele>0</ele>
            </trkpt>			
			<trkpt lon="-91.273516" lat="46.150497">
                <ele>0</ele>
            </trkpt>			
			<trkpt lon="-91.273630" lat="46.150429">
                <ele>0</ele>
            </trkpt>			
			<trkpt lon="-91.273707" lat="46.150323">
                <ele>0</ele>
            </trkpt>			
			<trkpt lon="-91.273696" lat="46.150202">
                <ele>0</ele>
            </trkpt>			
			<trkpt lon="-91.273744" lat="46.150095">
                <ele>0</ele>
            </trkpt>			
			<trkpt lon="-91.273833" lat="46.149989">
                <ele>0</ele>
            </trkpt>			
			<trkpt lon="-91.273962" lat="46.149900">
                <ele>0</ele>
            </trkpt>			
			<trkpt lon="-91.274108" lat="46.149854">
                <ele>0</ele>
            </trkpt>			
			<trkpt lon="-91.274255" lat="46.149886">
                <ele>0</ele>
            </trkpt>			
			<trkpt lon="-91.274367" lat="46.149946">
                <ele>0</ele>
            </trkpt>			
			<trkpt lon="-91.274487" lat="46.149876">
                <ele>0</ele>
            </trkpt>			
			<trkpt lon="-91.274634" lat="46.149696">
                <ele>0</ele>
            </trkpt>			
			<trkpt lon="-91.274740" lat="46.149767">
                <ele>0</ele>
            </trkpt>			
			<trkpt lon="-91.274759" lat="46.149900">
                <ele>0</ele>
            </trkpt>			
			<trkpt lon="-91.274879" lat="46.149983">
                <ele>0</ele>
            </trkpt>			
			<trkpt lon="-91.274978" lat="46.150047">
                <ele>0</ele>
            </trkpt>			
			<trkpt lon="-91.275068" lat="46.150119">
                <ele>0</ele>
            </trkpt>			
			<trkpt lon="-91.275208" lat="46.150107">
                <ele>0</ele>
            </trkpt>			
			<trkpt lon="-91.275394" lat="46.150123">
                <ele>0</ele>
            </trkpt>			
			<trkpt lon="-91.275576" lat="46.150122">
                <ele>0</ele>
            </trkpt>			
			<trkpt lon="-91.275737" lat="46.150068">
                <ele>0</ele>
            </trkpt>			
			<trkpt lon="-91.275853" lat="46.150008">
                <ele>0</ele>
            </trkpt>			
			<trkpt lon="-91.275957" lat="46.149940">
                <ele>0</ele>
            </trkpt>			
			<trkpt lon="-91.276074" lat="46.149885">
                <ele>0</ele>
            </trkpt>			
			<trkpt lon="-91.276215" lat="46.149874">
                <ele>0</ele>
            </trkpt>			
			<trkpt lon="-91.276382" lat="46.149907">
                <ele>0</ele>
            </trkpt>			
			<trkpt lon="-91.276532" lat="46.149879">
                <ele>0</ele>
            </trkpt>			
			<trkpt lon="-91.276660" lat="46.149857">
                <ele>0</ele>
            </trkpt>			
			<trkpt lon="-91.276840" lat="46.149867">
                <ele>0</ele>
            </trkpt>			
			<trkpt lon="-91.277036" lat="46.149847">
                <ele>0</ele>
            </trkpt>			
			<trkpt lon="-91.277203" lat="46.149792">
                <ele>0</ele>
            </trkpt>			
			<trkpt lon="-91.277329" lat="46.149708">
                <ele>0</ele>
            </trkpt>			
			<trkpt lon="-91.277495" lat="46.149704">
                <ele>0</ele>
            </trkpt>			
			<trkpt lon="-91.277679" lat="46.149711">
                <ele>0</ele>
            </trkpt>			
			<trkpt lon="-91.277813" lat="46.149702">
                <ele>0</ele>
            </trkpt>			
			<trkpt lon="-91.277946" lat="46.149768">
                <ele>0</ele>
            </trkpt>			
			<trkpt lon="-91.278087" lat="46.149796">
                <ele>0</ele>
            </trkpt>			
			<trkpt lon="-91.278171" lat="46.149715">
                <ele>0</ele>
            </trkpt>			
			<trkpt lon="-91.278283" lat="46.149810">
                <ele>0</ele>
            </trkpt>			
			<trkpt lon="-91.278307" lat="46.149931">
                <ele>0</ele>
            </trkpt>			
			<trkpt lon="-91.278316" lat="46.150038">
                <ele>0</ele>
            </trkpt>			
			<trkpt lon="-91.278380" lat="46.149936">
                <ele>0</ele>
            </trkpt>			
			<trkpt lon="-91.278360" lat="46.149837">
                <ele>0</ele>
            </trkpt>			
			<trkpt lon="-91.278308" lat="46.149735">
                <ele>0</ele>
            </trkpt>			
			<trkpt lon="-91.278275" lat="46.149637">
                <ele>0</ele>
            </trkpt>			
			<trkpt lon="-91.278388" lat="46.149696">
                <ele>0</ele>
            </trkpt>			
			<trkpt lon="-91.278490" lat="46.149805">
                <ele>0</ele>
            </trkpt>			
			<trkpt lon="-91.278573" lat="46.149915">
                <ele>0</ele>
            </trkpt>			
			<trkpt lon="-91.278680" lat="46.150000">
                <ele>0</ele>
            </trkpt>			
			<trkpt lon="-91.278800" lat="46.150046">
                <ele>0</ele>
            </trkpt>			
			<trkpt lon="-91.278933" lat="46.150078">
                <ele>0</ele>
            </trkpt>			
			<trkpt lon="-91.279132" lat="46.150084">
                <ele>0</ele>
            </trkpt>			
			<trkpt lon="-91.279272" lat="46.150083">
                <ele>0</ele>
            </trkpt>			
			<trkpt lon="-91.279250" lat="46.149985">
                <ele>0</ele>
            </trkpt>			
			<trkpt lon="-91.279352" lat="46.149921">
                <ele>0</ele>
            </trkpt>			
			<trkpt lon="-91.279347" lat="46.149814">
                <ele>0</ele>
            </trkpt>			
			<trkpt lon="-91.279389" lat="46.149723">
                <ele>0</ele>
            </trkpt>			
			<trkpt lon="-91.279521" lat="46.149697">
                <ele>0</ele>
            </trkpt>			
			<trkpt lon="-91.279683" lat="46.149706">
                <ele>0</ele>
            </trkpt>			
			<trkpt lon="-91.279819" lat="46.149708">
                <ele>0</ele>
            </trkpt>			
			<trkpt lon="-91.279797" lat="46.149608">
                <ele>0</ele>
            </trkpt>			
			<trkpt lon="-91.279667" lat="46.149512">
                <ele>0</ele>
            </trkpt>			
			<trkpt lon="-91.279581" lat="46.149425">
                <ele>0</ele>
            </trkpt>			
			<trkpt lon="-91.279745" lat="46.149409">
                <ele>0</ele>
            </trkpt>			
			<trkpt lon="-91.279885" lat="46.149457">
                <ele>0</ele>
            </trkpt>			
			<trkpt lon="-91.280023" lat="46.149487">
                <ele>0</ele>
            </trkpt>			
			<trkpt lon="-91.280142" lat="46.149450">
                <ele>0</ele>
            </trkpt>			
			<trkpt lon="-91.280226" lat="46.149374">
                <ele>0</ele>
            </trkpt>			
			<trkpt lon="-91.280223" lat="46.149279">
                <ele>0</ele>
            </trkpt>			
			<trkpt lon="-91.280357" lat="46.149217">
                <ele>0</ele>
            </trkpt>			
			<trkpt lon="-91.280503" lat="46.149234">
                <ele>0</ele>
            </trkpt>			
			<trkpt lon="-91.280658" lat="46.149229">
                <ele>0</ele>
            </trkpt>			
			<trkpt lon="-91.280811" lat="46.149229">
                <ele>0</ele>
            </trkpt>			
			<trkpt lon="-91.280969" lat="46.149254">
                <ele>0</ele>
            </trkpt>			
			<trkpt lon="-91.281145" lat="46.149342">
                <ele>0</ele>
            </trkpt>			
			<trkpt lon="-91.281307" lat="46.149368">
                <ele>0</ele>
            </trkpt>			
			<trkpt lon="-91.281475" lat="46.149365">
                <ele>0</ele>
            </trkpt>			
			<trkpt lon="-91.281636" lat="46.149390">
                <ele>0</ele>
            </trkpt>			
			<trkpt lon="-91.281784" lat="46.149409">
                <ele>0</ele>
            </trkpt>			
			<trkpt lon="-91.281935" lat="46.149453">
                <ele>0</ele>
            </trkpt>			
			<trkpt lon="-91.282037" lat="46.149515">
                <ele>0</ele>
            </trkpt>			
			<trkpt lon="-91.282195" lat="46.149537">
                <ele>0</ele>
            </trkpt>			
			<trkpt lon="-91.282306" lat="46.149443">
                <ele>0</ele>
            </trkpt>			
			<trkpt lon="-91.282423" lat="46.149363">
                <ele>0</ele>
            </trkpt>			
			<trkpt lon="-91.282488" lat="46.149281">
                <ele>0</ele>
            </trkpt>			
			<trkpt lon="-91.282532" lat="46.149171">
                <ele>0</ele>
            </trkpt>			
			<trkpt lon="-91.282676" lat="46.149206">
                <ele>0</ele>
            </trkpt>			
			<trkpt lon="-91.282825" lat="46.149244">
                <ele>0</ele>
            </trkpt>			
			<trkpt lon="-91.282957" lat="46.149221">
                <ele>0</ele>
            </trkpt>			
			<trkpt lon="-91.282955" lat="46.149115">
                <ele>0</ele>
            </trkpt>			
			<trkpt lon="-91.282821" lat="46.149040">
                <ele>0</ele>
            </trkpt>			
			<trkpt lon="-91.282700" lat="46.148970">
                <ele>0</ele>
            </trkpt>			
			<trkpt lon="-91.282652" lat="46.148880">
                <ele>0</ele>
            </trkpt>			
			<trkpt lon="-91.282618" lat="46.148791">
                <ele>0</ele>
            </trkpt>			
			<trkpt lon="-91.282618" lat="46.148791">
                <ele>0</ele>
            </trkpt>			
			<trkpt lon="-91.282618" lat="46.148791">
                <ele>0</ele>
            </trkpt>			
			<trkpt lon="-91.282936" lat="46.148730">
                <ele>0</ele>
            </trkpt>			
			<trkpt lon="-91.283102" lat="46.148714">
                <ele>0</ele>
            </trkpt>			
			<trkpt lon="-91.283255" lat="46.148682">
                <ele>0</ele>
            </trkpt>			
			<trkpt lon="-91.283404" lat="46.148624">
                <ele>0</ele>
            </trkpt>			
			<trkpt lon="-91.283466" lat="46.148520">
                <ele>0</ele>
            </trkpt>			
			<trkpt lon="-91.283431" lat="46.148429">
                <ele>0</ele>
            </trkpt>			
			<trkpt lon="-91.283393" lat="46.148304">
                <ele>0</ele>
            </trkpt>			
			<trkpt lon="-91.283437" lat="46.148212">
                <ele>0</ele>
            </trkpt>			
			<trkpt lon="-91.283283" lat="46.148158">
                <ele>0</ele>
            </trkpt>			
			<trkpt lon="-91.283105" lat="46.148129">
                <ele>0</ele>
            </trkpt>			
			<trkpt lon="-91.282931" lat="46.148103">
                <ele>0</ele>
            </trkpt>			
			<trkpt lon="-91.282726" lat="46.148114">
                <ele>0</ele>
            </trkpt>			
			<trkpt lon="-91.282589" lat="46.148168">
                <ele>0</ele>
            </trkpt>			
			<trkpt lon="-91.282681" lat="46.148036">
                <ele>0</ele>
            </trkpt>			
			<trkpt lon="-91.282787" lat="46.147970">
                <ele>0</ele>
            </trkpt>			
			<trkpt lon="-91.282946" lat="46.147919">
                <ele>0</ele>
            </trkpt>			
			<trkpt lon="-91.282813" lat="46.147957">
                <ele>0</ele>
            </trkpt>			
			<trkpt lon="-91.282669" lat="46.148020">
                <ele>0</ele>
            </trkpt>			
			<trkpt lon="-91.282450" lat="46.148082">
                <ele>0</ele>
            </trkpt>			
			<trkpt lon="-91.282411" lat="46.148186">
                <ele>0</ele>
            </trkpt>			
			<trkpt lon="-91.282505" lat="46.148290">
                <ele>0</ele>
            </trkpt>			
			<trkpt lon="-91.282514" lat="46.148403">
                <ele>0</ele>
            </trkpt>			
			<trkpt lon="-91.282373" lat="46.148462">
                <ele>0</ele>
            </trkpt>			
			<trkpt lon="-91.282205" lat="46.148421">
                <ele>0</ele>
            </trkpt>			
			<trkpt lon="-91.282082" lat="46.148362">
                <ele>0</ele>
            </trkpt>			
			<trkpt lon="-91.281891" lat="46.148300">
                <ele>0</ele>
            </trkpt>			
			<trkpt lon="-91.281744" lat="46.148283">
                <ele>0</ele>
            </trkpt>			
			<trkpt lon="-91.281682" lat="46.148401">
                <ele>0</ele>
            </trkpt>			
			<trkpt lon="-91.281621" lat="46.148314">
                <ele>0</ele>
            </trkpt>			
			<trkpt lon="-91.281709" lat="46.147962">
                <ele>0</ele>
            </trkpt>			
			<trkpt lon="-91.281729" lat="46.147761">
                <ele>0</ele>
            </trkpt>			
			<trkpt lon="-91.281731" lat="46.147642">
                <ele>0</ele>
            </trkpt>			
			<trkpt lon="-91.281602" lat="46.147714">
                <ele>0</ele>
            </trkpt>			
			<trkpt lon="-91.281524" lat="46.147785">
                <ele>0</ele>
            </trkpt>			
			<trkpt lon="-91.281487" lat="46.147872">
                <ele>0</ele>
            </trkpt>			
			<trkpt lon="-91.281295" lat="46.147981">
                <ele>0</ele>
            </trkpt>			
			<trkpt lon="-91.281237" lat="46.147870">
                <ele>0</ele>
            </trkpt>			
			<trkpt lon="-91.281199" lat="46.147768">
                <ele>0</ele>
            </trkpt>			
			<trkpt lon="-91.281100" lat="46.147668">
                <ele>0</ele>
            </trkpt>			
			<trkpt lon="-91.280982" lat="46.147570">
                <ele>0</ele>
            </trkpt>			
			<trkpt lon="-91.280792" lat="46.147557">
                <ele>0</ele>
            </trkpt>			
			<trkpt lon="-91.280638" lat="46.147556">
                <ele>0</ele>
            </trkpt>			
			<trkpt lon="-91.280452" lat="46.147536">
                <ele>0</ele>
            </trkpt>			
			<trkpt lon="-91.280320" lat="46.147590">
                <ele>0</ele>
            </trkpt>			
			<trkpt lon="-91.280333" lat="46.147791">
                <ele>0</ele>
            </trkpt>			
			<trkpt lon="-91.280142" lat="46.147850">
                <ele>0</ele>
            </trkpt>			
			<trkpt lon="-91.279948" lat="46.147845">
                <ele>0</ele>
            </trkpt>			
			<trkpt lon="-91.279785" lat="46.147862">
                <ele>0</ele>
            </trkpt>			
			<trkpt lon="-91.279684" lat="46.147948">
                <ele>0</ele>
            </trkpt>			
			<trkpt lon="-91.279571" lat="46.148012">
                <ele>0</ele>
            </trkpt>			
			<trkpt lon="-91.279679" lat="46.148152">
                <ele>0</ele>
            </trkpt>			
			<trkpt lon="-91.279747" lat="46.148270">
                <ele>0</ele>
            </trkpt>			
			<trkpt lon="-91.279830" lat="46.148359">
                <ele>0</ele>
            </trkpt>			
			<trkpt lon="-91.279957" lat="46.148402">
                <ele>0</ele>
            </trkpt>			
			<trkpt lon="-91.280073" lat="46.148470">
                <ele>0</ele>
            </trkpt>			
			<trkpt lon="-91.280103" lat="46.148570">
                <ele>0</ele>
            </trkpt>			
			<trkpt lon="-91.279971" lat="46.148649">
                <ele>0</ele>
            </trkpt>			
			<trkpt lon="-91.279728" lat="46.148679">
                <ele>0</ele>
            </trkpt>			
			<trkpt lon="-91.279554" lat="46.148693">
                <ele>0</ele>
            </trkpt>			
			<trkpt lon="-91.279311" lat="46.148736">
                <ele>0</ele>
            </trkpt>			
			<trkpt lon="-91.279031" lat="46.148842">
                <ele>0</ele>
            </trkpt>			
			<trkpt lon="-91.278884" lat="46.148903">
                <ele>0</ele>
            </trkpt>			
			<trkpt lon="-91.278726" lat="46.148936">
                <ele>0</ele>
            </trkpt>			
			<trkpt lon="-91.278572" lat="46.148998">
                <ele>0</ele>
            </trkpt>			
			<trkpt lon="-91.278468" lat="46.149074">
                <ele>0</ele>
            </trkpt>			
			<trkpt lon="-91.278325" lat="46.149112">
                <ele>0</ele>
            </trkpt>			
			<trkpt lon="-91.278270" lat="46.149202">
                <ele>0</ele>
            </trkpt>			
			<trkpt lon="-91.278244" lat="46.149385">
                <ele>0</ele>
            </trkpt>			
			<trkpt lon="-91.278166" lat="46.149462">
                <ele>0</ele>
            </trkpt>			
			<trkpt lon="-91.278025" lat="46.149489">
                <ele>0</ele>
            </trkpt>			
			<trkpt lon="-91.277854" lat="46.149502">
                <ele>0</ele>
            </trkpt>			
			<trkpt lon="-91.277754" lat="46.149421">
                <ele>0</ele>
            </trkpt>			
			<trkpt lon="-91.277803" lat="46.149312">
                <ele>0</ele>
            </trkpt>			
			<trkpt lon="-91.277799" lat="46.149221">
                <ele>0</ele>
            </trkpt>			
			<trkpt lon="-91.277724" lat="46.149143">
                <ele>0</ele>
            </trkpt>			
			<trkpt lon="-91.277670" lat="46.149046">
                <ele>0</ele>
            </trkpt>			
			<trkpt lon="-91.277577" lat="46.148941">
                <ele>0</ele>
            </trkpt>			
			<trkpt lon="-91.277454" lat="46.148902">
                <ele>0</ele>
            </trkpt>			
			<trkpt lon="-91.277320" lat="46.148908">
                <ele>0</ele>
            </trkpt>			
			<trkpt lon="-91.277186" lat="46.148893">
                <ele>0</ele>
            </trkpt>			
			<trkpt lon="-91.277060" lat="46.148816">
                <ele>0</ele>
            </trkpt>			
			<trkpt lon="-91.276971" lat="46.148736">
                <ele>0</ele>
            </trkpt>			
			<trkpt lon="-91.276911" lat="46.148629">
                <ele>0</ele>
            </trkpt>			
			<trkpt lon="-91.277018" lat="46.148412">
                <ele>0</ele>
            </trkpt>			
			<trkpt lon="-91.277119" lat="46.148335">
                <ele>0</ele>
            </trkpt>			
			<trkpt lon="-91.277179" lat="46.148244">
                <ele>0</ele>
            </trkpt>			
			<trkpt lon="-91.277247" lat="46.148155">
                <ele>0</ele>
            </trkpt>			
			<trkpt lon="-91.277350" lat="46.148094">
                <ele>0</ele>
            </trkpt>			
			<trkpt lon="-91.277466" lat="46.148016">
                <ele>0</ele>
            </trkpt>			
			<trkpt lon="-91.277370" lat="46.147919">
                <ele>0</ele>
            </trkpt>			
			<trkpt lon="-91.277206" lat="46.147817">
                <ele>0</ele>
            </trkpt>			
			<trkpt lon="-91.277150" lat="46.147728">
                <ele>0</ele>
            </trkpt>			
			<trkpt lon="-91.277183" lat="46.147640">
                <ele>0</ele>
            </trkpt>			
			<trkpt lon="-91.277280" lat="46.147564">
                <ele>0</ele>
            </trkpt>			
			<trkpt lon="-91.277417" lat="46.147502">
                <ele>0</ele>
            </trkpt>			
			<trkpt lon="-91.277563" lat="46.147448">
                <ele>0</ele>
            </trkpt>			
			<trkpt lon="-91.277667" lat="46.147368">
                <ele>0</ele>
            </trkpt>			
			<trkpt lon="-91.277617" lat="46.147273">
                <ele>0</ele>
            </trkpt>			
			<trkpt lon="-91.277563" lat="46.147188">
                <ele>0</ele>
            </trkpt>			
			<trkpt lon="-91.277499" lat="46.147101">
                <ele>0</ele>
            </trkpt>			
			<trkpt lon="-91.277442" lat="46.146987">
                <ele>0</ele>
            </trkpt>			
			<trkpt lon="-91.277394" lat="46.146865">
                <ele>0</ele>
            </trkpt>			
			<trkpt lon="-91.277316" lat="46.146783">
                <ele>0</ele>
            </trkpt>			
			<trkpt lon="-91.277305" lat="46.146660">
                <ele>0</ele>
            </trkpt>			
			<trkpt lon="-91.277323" lat="46.146549">
                <ele>0</ele>
            </trkpt>			
			<trkpt lon="-91.277292" lat="46.146447">
                <ele>0</ele>
            </trkpt>			
			<trkpt lon="-91.277428" lat="46.146375">
                <ele>0</ele>
            </trkpt>			
			<trkpt lon="-91.277567" lat="46.146361">
                <ele>0</ele>
            </trkpt>			
			<trkpt lon="-91.277702" lat="46.146348">
                <ele>0</ele>
            </trkpt>			
			<trkpt lon="-91.277766" lat="46.146259">
                <ele>0</ele>
            </trkpt>			
			<trkpt lon="-91.277638" lat="46.146175">
                <ele>0</ele>
            </trkpt>			
			<trkpt lon="-91.277510" lat="46.146041">
                <ele>0</ele>
            </trkpt>			
			<trkpt lon="-91.277555" lat="46.145919">
                <ele>0</ele>
            </trkpt>			
			<trkpt lon="-91.277699" lat="46.145874">
                <ele>0</ele>
            </trkpt>			
			<trkpt lon="-91.277867" lat="46.145925">
                <ele>0</ele>
            </trkpt>			
			<trkpt lon="-91.277997" lat="46.146001">
                <ele>0</ele>
            </trkpt>			
			<trkpt lon="-91.277997" lat="46.146001">
                <ele>0</ele>
            </trkpt>			
			<trkpt lon="-91.277997" lat="46.146001">
                <ele>0</ele>
            </trkpt>			
			<trkpt lon="-91.277863" lat="46.145909">
                <ele>0</ele>
            </trkpt>			
			<trkpt lon="-91.277756" lat="46.145844">
                <ele>0</ele>
            </trkpt>			
			<trkpt lon="-91.277623" lat="46.145797">
                <ele>0</ele>
            </trkpt>			
			<trkpt lon="-91.277554" lat="46.145637">
                <ele>0</ele>
            </trkpt>			
			<trkpt lon="-91.277695" lat="46.145598">
                <ele>0</ele>
            </trkpt>			
			<trkpt lon="-91.277874" lat="46.145568">
                <ele>0</ele>
            </trkpt>			
			<trkpt lon="-91.277998" lat="46.145510">
                <ele>0</ele>
            </trkpt>			
			<trkpt lon="-91.278168" lat="46.145439">
                <ele>0</ele>
            </trkpt>			
			<trkpt lon="-91.278377" lat="46.145418">
                <ele>0</ele>
            </trkpt>			
			<trkpt lon="-91.278547" lat="46.145387">
                <ele>0</ele>
            </trkpt>			
			<trkpt lon="-91.278751" lat="46.145431">
                <ele>0</ele>
            </trkpt>			
			<trkpt lon="-91.278902" lat="46.145423">
                <ele>0</ele>
            </trkpt>			
			<trkpt lon="-91.278799" lat="46.145358">
                <ele>0</ele>
            </trkpt>			
			<trkpt lon="-91.278711" lat="46.145288">
                <ele>0</ele>
            </trkpt>			
			<trkpt lon="-91.278616" lat="46.145117">
                <ele>0</ele>
            </trkpt>			
			<trkpt lon="-91.278720" lat="46.144998">
                <ele>0</ele>
            </trkpt>			
			<trkpt lon="-91.278620" lat="46.144906">
                <ele>0</ele>
            </trkpt>			
			<trkpt lon="-91.278482" lat="46.144833">
                <ele>0</ele>
            </trkpt>			
			<trkpt lon="-91.278378" lat="46.144760">
                <ele>0</ele>
            </trkpt>			
			<trkpt lon="-91.278248" lat="46.144705">
                <ele>0</ele>
            </trkpt>			
			<trkpt lon="-91.278137" lat="46.144632">
                <ele>0</ele>
            </trkpt>			
			<trkpt lon="-91.278001" lat="46.144557">
                <ele>0</ele>
            </trkpt>			
			<trkpt lon="-91.277874" lat="46.144480">
                <ele>0</ele>
            </trkpt>			
			<trkpt lon="-91.277749" lat="46.144455">
                <ele>0</ele>
            </trkpt>			
			<trkpt lon="-91.277634" lat="46.144532">
                <ele>0</ele>
            </trkpt>			
			<trkpt lon="-91.277536" lat="46.144620">
                <ele>0</ele>
            </trkpt>			
			<trkpt lon="-91.277407" lat="46.144678">
                <ele>0</ele>
            </trkpt>			
			<trkpt lon="-91.277245" lat="46.144709">
                <ele>0</ele>
            </trkpt>			
			<trkpt lon="-91.277092" lat="46.144729">
                <ele>0</ele>
            </trkpt>			
			<trkpt lon="-91.276967" lat="46.144667">
                <ele>0</ele>
            </trkpt>			
			<trkpt lon="-91.276915" lat="46.144526">
                <ele>0</ele>
            </trkpt>			
			<trkpt lon="-91.276923" lat="46.144399">
                <ele>0</ele>
            </trkpt>			
			<trkpt lon="-91.277034" lat="46.144293">
                <ele>0</ele>
            </trkpt>			
			<trkpt lon="-91.277212" lat="46.144243">
                <ele>0</ele>
            </trkpt>			
			<trkpt lon="-91.277378" lat="46.144289">
                <ele>0</ele>
            </trkpt>			
			<trkpt lon="-91.277462" lat="46.144221">
                <ele>0</ele>
            </trkpt>			
			<trkpt lon="-91.277358" lat="46.144150">
                <ele>0</ele>
            </trkpt>			
			<trkpt lon="-91.277191" lat="46.144151">
                <ele>0</ele>
            </trkpt>			
			<trkpt lon="-91.277013" lat="46.144137">
                <ele>0</ele>
            </trkpt>			
			<trkpt lon="-91.276857" lat="46.144078">
                <ele>0</ele>
            </trkpt>			
			<trkpt lon="-91.276669" lat="46.144038">
                <ele>0</ele>
            </trkpt>			
			<trkpt lon="-91.276526" lat="46.144032">
                <ele>0</ele>
            </trkpt>			
			<trkpt lon="-91.276344" lat="46.143998">
                <ele>0</ele>
            </trkpt>			
			<trkpt lon="-91.276456" lat="46.143898">
                <ele>0</ele>
            </trkpt>			
			<trkpt lon="-91.276511" lat="46.143794">
                <ele>0</ele>
            </trkpt>			
			<trkpt lon="-91.276430" lat="46.143655">
                <ele>0</ele>
            </trkpt>			
			<trkpt lon="-91.276370" lat="46.143569">
                <ele>0</ele>
            </trkpt>			
			<trkpt lon="-91.276272" lat="46.143450">
                <ele>0</ele>
            </trkpt>			
			<trkpt lon="-91.276420" lat="46.143353">
                <ele>0</ele>
            </trkpt>			
			<trkpt lon="-91.276599" lat="46.143325">
                <ele>0</ele>
            </trkpt>			
			<trkpt lon="-91.276746" lat="46.143384">
                <ele>0</ele>
            </trkpt>			
			<trkpt lon="-91.276914" lat="46.143347">
                <ele>0</ele>
            </trkpt>			
			<trkpt lon="-91.277064" lat="46.143328">
                <ele>0</ele>
            </trkpt>			
			<trkpt lon="-91.277215" lat="46.143253">
                <ele>0</ele>
            </trkpt>			
			<trkpt lon="-91.277346" lat="46.143172">
                <ele>0</ele>
            </trkpt>			
			<trkpt lon="-91.277270" lat="46.143086">
                <ele>0</ele>
            </trkpt>			
			<trkpt lon="-91.277145" lat="46.143036">
                <ele>0</ele>
            </trkpt>			
			<trkpt lon="-91.277014" lat="46.142907">
                <ele>0</ele>
            </trkpt>			
			<trkpt lon="-91.276960" lat="46.142816">
                <ele>0</ele>
            </trkpt>			
			<trkpt lon="-91.276940" lat="46.142689">
                <ele>0</ele>
            </trkpt>			
			<trkpt lon="-91.276960" lat="46.142556">
                <ele>0</ele>
            </trkpt>			
			<trkpt lon="-91.276898" lat="46.142466">
                <ele>0</ele>
            </trkpt>			
			<trkpt lon="-91.276762" lat="46.142433">
                <ele>0</ele>
            </trkpt>			
			<trkpt lon="-91.276591" lat="46.142453">
                <ele>0</ele>
            </trkpt>			
			<trkpt lon="-91.276429" lat="46.142480">
                <ele>0</ele>
            </trkpt>			
			<trkpt lon="-91.276257" lat="46.142464">
                <ele>0</ele>
            </trkpt>			
			<trkpt lon="-91.276182" lat="46.142337">
                <ele>0</ele>
            </trkpt>			
			<trkpt lon="-91.276203" lat="46.142216">
                <ele>0</ele>
            </trkpt>			
			<trkpt lon="-91.276271" lat="46.142053">
                <ele>0</ele>
            </trkpt>			
			<trkpt lon="-91.276331" lat="46.141919">
                <ele>0</ele>
            </trkpt>			
			<trkpt lon="-91.276306" lat="46.141812">
                <ele>0</ele>
            </trkpt>			
			<trkpt lon="-91.276252" lat="46.141703">
                <ele>0</ele>
            </trkpt>			
			<trkpt lon="-91.276116" lat="46.141653">
                <ele>0</ele>
            </trkpt>			
			<trkpt lon="-91.275970" lat="46.141639">
                <ele>0</ele>
            </trkpt>			
			<trkpt lon="-91.275950" lat="46.141517">
                <ele>0</ele>
            </trkpt>			
			<trkpt lon="-91.275945" lat="46.141400">
                <ele>0</ele>
            </trkpt>			
			<trkpt lon="-91.275914" lat="46.141284">
                <ele>0</ele>
            </trkpt>			
			<trkpt lon="-91.275860" lat="46.141135">
                <ele>0</ele>
            </trkpt>			
			<trkpt lon="-91.276226" lat="46.141114">
                <ele>0</ele>
            </trkpt>			
			<trkpt lon="-91.276401" lat="46.141071">
                <ele>0</ele>
            </trkpt>			
			<trkpt lon="-91.276561" lat="46.140979">
                <ele>0</ele>
            </trkpt>			
			<trkpt lon="-91.276669" lat="46.140929">
                <ele>0</ele>
            </trkpt>			
			<trkpt lon="-91.276788" lat="46.140867">
                <ele>0</ele>
            </trkpt>			
			<trkpt lon="-91.276918" lat="46.140788">
                <ele>0</ele>
            </trkpt>			
			<trkpt lon="-91.277103" lat="46.140760">
                <ele>0</ele>
            </trkpt>			
			<trkpt lon="-91.277313" lat="46.140769">
                <ele>0</ele>
            </trkpt>			
			<trkpt lon="-91.277493" lat="46.140728">
                <ele>0</ele>
            </trkpt>			
			<trkpt lon="-91.277651" lat="46.140785">
                <ele>0</ele>
            </trkpt>			
			<trkpt lon="-91.277783" lat="46.140841">
                <ele>0</ele>
            </trkpt>			
			<trkpt lon="-91.277903" lat="46.140792">
                <ele>0</ele>
            </trkpt>			
			<trkpt lon="-91.278145" lat="46.140795">
                <ele>0</ele>
            </trkpt>			
			<trkpt lon="-91.278401" lat="46.140833">
                <ele>0</ele>
            </trkpt>			
			<trkpt lon="-91.278577" lat="46.140853">
                <ele>0</ele>
            </trkpt>			
			<trkpt lon="-91.278805" lat="46.140838">
                <ele>0</ele>
            </trkpt>			
			<trkpt lon="-91.278889" lat="46.140709">
                <ele>0</ele>
            </trkpt>			
			<trkpt lon="-91.278867" lat="46.140596">
                <ele>0</ele>
            </trkpt>			
			<trkpt lon="-91.278867" lat="46.140596">
                <ele>0</ele>
            </trkpt>			
			<trkpt lon="-91.278867" lat="46.140596">
                <ele>0</ele>
            </trkpt>			
			<trkpt lon="-91.279140" lat="46.140545">
                <ele>0</ele>
            </trkpt>			
			<trkpt lon="-91.279251" lat="46.140463">
                <ele>0</ele>
            </trkpt>			
			<trkpt lon="-91.279338" lat="46.140389">
                <ele>0</ele>
            </trkpt>			
			<trkpt lon="-91.279431" lat="46.140319">
                <ele>0</ele>
            </trkpt>			
			<trkpt lon="-91.279269" lat="46.140253">
                <ele>0</ele>
            </trkpt>			
			<trkpt lon="-91.279063" lat="46.140231">
                <ele>0</ele>
            </trkpt>			
			<trkpt lon="-91.278861" lat="46.140199">
                <ele>0</ele>
            </trkpt>			
			<trkpt lon="-91.278688" lat="46.140153">
                <ele>0</ele>
            </trkpt>			
			<trkpt lon="-91.278555" lat="46.140090">
                <ele>0</ele>
            </trkpt>			
			<trkpt lon="-91.278527" lat="46.139991">
                <ele>0</ele>
            </trkpt>			
			<trkpt lon="-91.278614" lat="46.139903">
                <ele>0</ele>
            </trkpt>			
			<trkpt lon="-91.278725" lat="46.139837">
                <ele>0</ele>
            </trkpt>			
			<trkpt lon="-91.279032" lat="46.139803">
                <ele>0</ele>
            </trkpt>			
			<trkpt lon="-91.279210" lat="46.139769">
                <ele>0</ele>
            </trkpt>			
			<trkpt lon="-91.279364" lat="46.139765">
                <ele>0</ele>
            </trkpt>			
			<trkpt lon="-91.279489" lat="46.139839">
                <ele>0</ele>
            </trkpt>			
			<trkpt lon="-91.279619" lat="46.139906">
                <ele>0</ele>
            </trkpt>			
			<trkpt lon="-91.279681" lat="46.139997">
                <ele>0</ele>
            </trkpt>			
			<trkpt lon="-91.279816" lat="46.140061">
                <ele>0</ele>
            </trkpt>			
			<trkpt lon="-91.279965" lat="46.140064">
                <ele>0</ele>
            </trkpt>			
			<trkpt lon="-91.280103" lat="46.140085">
                <ele>0</ele>
            </trkpt>			
			<trkpt lon="-91.280262" lat="46.140117">
                <ele>0</ele>
            </trkpt>			
			<trkpt lon="-91.280398" lat="46.140081">
                <ele>0</ele>
            </trkpt>			
			<trkpt lon="-91.280532" lat="46.140060">
                <ele>0</ele>
            </trkpt>			
			<trkpt lon="-91.280675" lat="46.140057">
                <ele>0</ele>
            </trkpt>			
			<trkpt lon="-91.280816" lat="46.140062">
                <ele>0</ele>
            </trkpt>			
			<trkpt lon="-91.280945" lat="46.140077">
                <ele>0</ele>
            </trkpt>			
			<trkpt lon="-91.281094" lat="46.140082">
                <ele>0</ele>
            </trkpt>			
			<trkpt lon="-91.281240" lat="46.140082">
                <ele>0</ele>
            </trkpt>			
			<trkpt lon="-91.281364" lat="46.140037">
                <ele>0</ele>
            </trkpt>			
			<trkpt lon="-91.281533" lat="46.139968">
                <ele>0</ele>
            </trkpt>			
			<trkpt lon="-91.281645" lat="46.139912">
                <ele>0</ele>
            </trkpt>			
			<trkpt lon="-91.281804" lat="46.139828">
                <ele>0</ele>
            </trkpt>			
			<trkpt lon="-91.281972" lat="46.139801">
                <ele>0</ele>
            </trkpt>			
			<trkpt lon="-91.282095" lat="46.139837">
                <ele>0</ele>
            </trkpt>			
			<trkpt lon="-91.282235" lat="46.139859">
                <ele>0</ele>
            </trkpt>			
			<trkpt lon="-91.282364" lat="46.139842">
                <ele>0</ele>
            </trkpt>			
			<trkpt lon="-91.282514" lat="46.139769">
                <ele>0</ele>
            </trkpt>			
			<trkpt lon="-91.282667" lat="46.139696">
                <ele>0</ele>
            </trkpt>			
			<trkpt lon="-91.282795" lat="46.139607">
                <ele>0</ele>
            </trkpt>			
			<trkpt lon="-91.282885" lat="46.139537">
                <ele>0</ele>
            </trkpt>			
			<trkpt lon="-91.282932" lat="46.139431">
                <ele>0</ele>
            </trkpt>			
			<trkpt lon="-91.282932" lat="46.139341">
                <ele>0</ele>
            </trkpt>			
			<trkpt lon="-91.283065" lat="46.139276">
                <ele>0</ele>
            </trkpt>			
			<trkpt lon="-91.283223" lat="46.139266">
                <ele>0</ele>
            </trkpt>			
			<trkpt lon="-91.283396" lat="46.139262">
                <ele>0</ele>
            </trkpt>			
			<trkpt lon="-91.283550" lat="46.139298">
                <ele>0</ele>
            </trkpt>			
			<trkpt lon="-91.283669" lat="46.139345">
                <ele>0</ele>
            </trkpt>			
			<trkpt lon="-91.283843" lat="46.139388">
                <ele>0</ele>
            </trkpt>			
			<trkpt lon="-91.283978" lat="46.139358">
                <ele>0</ele>
            </trkpt>			
			<trkpt lon="-91.284075" lat="46.139287">
                <ele>0</ele>
            </trkpt>			
			<trkpt lon="-91.284115" lat="46.139186">
                <ele>0</ele>
            </trkpt>			
			<trkpt lon="-91.284082" lat="46.139078">
                <ele>0</ele>
            </trkpt>			
			<trkpt lon="-91.284069" lat="46.138988">
                <ele>0</ele>
            </trkpt>			
			<trkpt lon="-91.284093" lat="46.138881">
                <ele>0</ele>
            </trkpt>			
			<trkpt lon="-91.284192" lat="46.138818">
                <ele>0</ele>
            </trkpt>			
			<trkpt lon="-91.284272" lat="46.138739">
                <ele>0</ele>
            </trkpt>			
			<trkpt lon="-91.284397" lat="46.138689">
                <ele>0</ele>
            </trkpt>			
			<trkpt lon="-91.284572" lat="46.138657">
                <ele>0</ele>
            </trkpt>			
			<trkpt lon="-91.284685" lat="46.138591">
                <ele>0</ele>
            </trkpt>			
			<trkpt lon="-91.284799" lat="46.138491">
                <ele>0</ele>
            </trkpt>			
			<trkpt lon="-91.284914" lat="46.138411">
                <ele>0</ele>
            </trkpt>			
			<trkpt lon="-91.285029" lat="46.138344">
                <ele>0</ele>
            </trkpt>			
			<trkpt lon="-91.285126" lat="46.138283">
                <ele>0</ele>
            </trkpt>			
			<trkpt lon="-91.285221" lat="46.138095">
                <ele>0</ele>
            </trkpt>			
			<trkpt lon="-91.285378" lat="46.138006">
                <ele>0</ele>
            </trkpt>			
			<trkpt lon="-91.285571" lat="46.137982">
                <ele>0</ele>
            </trkpt>			
			<trkpt lon="-91.285710" lat="46.138007">
                <ele>0</ele>
            </trkpt>			
			<trkpt lon="-91.285854" lat="46.138039">
                <ele>0</ele>
            </trkpt>			
			<trkpt lon="-91.285972" lat="46.138078">
                <ele>0</ele>
            </trkpt>			
			<trkpt lon="-91.286129" lat="46.138126">
                <ele>0</ele>
            </trkpt>			
			<trkpt lon="-91.286260" lat="46.138125">
                <ele>0</ele>
            </trkpt>			
			<trkpt lon="-91.286328" lat="46.138042">
                <ele>0</ele>
            </trkpt>			
			<trkpt lon="-91.286395" lat="46.137921">
                <ele>0</ele>
            </trkpt>			
			<trkpt lon="-91.286480" lat="46.137833">
                <ele>0</ele>
            </trkpt>			
			<trkpt lon="-91.286464" lat="46.137744">
                <ele>0</ele>
            </trkpt>			
			<trkpt lon="-91.286397" lat="46.137646">
                <ele>0</ele>
            </trkpt>			
			<trkpt lon="-91.286329" lat="46.137545">
                <ele>0</ele>
            </trkpt>			
			<trkpt lon="-91.286215" lat="46.137486">
                <ele>0</ele>
            </trkpt>			
			<trkpt lon="-91.286125" lat="46.137409">
                <ele>0</ele>
            </trkpt>			
			<trkpt lon="-91.286216" lat="46.137334">
                <ele>0</ele>
            </trkpt>			
			<trkpt lon="-91.286361" lat="46.137301">
                <ele>0</ele>
            </trkpt>			
			<trkpt lon="-91.286506" lat="46.137354">
                <ele>0</ele>
            </trkpt>			
			<trkpt lon="-91.286605" lat="46.137413">
                <ele>0</ele>
            </trkpt>			
			<trkpt lon="-91.286700" lat="46.137476">
                <ele>0</ele>
            </trkpt>			
			<trkpt lon="-91.286845" lat="46.137504">
                <ele>0</ele>
            </trkpt>			
			<trkpt lon="-91.286985" lat="46.137471">
                <ele>0</ele>
            </trkpt>			
			<trkpt lon="-91.287083" lat="46.137389">
                <ele>0</ele>
            </trkpt>			
			<trkpt lon="-91.287109" lat="46.137283">
                <ele>0</ele>
            </trkpt>			
			<trkpt lon="-91.287173" lat="46.137193">
                <ele>0</ele>
            </trkpt>			
			<trkpt lon="-91.287294" lat="46.137152">
                <ele>0</ele>
            </trkpt>			
			<trkpt lon="-91.287448" lat="46.137130">
                <ele>0</ele>
            </trkpt>			
			<trkpt lon="-91.287628" lat="46.137132">
                <ele>0</ele>
            </trkpt>			
			<trkpt lon="-91.287760" lat="46.137135">
                <ele>0</ele>
            </trkpt>			
			<trkpt lon="-91.287923" lat="46.137143">
                <ele>0</ele>
            </trkpt>			
			<trkpt lon="-91.288080" lat="46.137139">
                <ele>0</ele>
            </trkpt>			
			<trkpt lon="-91.288225" lat="46.137150">
                <ele>0</ele>
            </trkpt>			
			<trkpt lon="-91.288369" lat="46.137163">
                <ele>0</ele>
            </trkpt>			
			<trkpt lon="-91.288497" lat="46.137144">
                <ele>0</ele>
            </trkpt>			
			<trkpt lon="-91.288657" lat="46.137147">
                <ele>0</ele>
            </trkpt>			
			<trkpt lon="-91.288835" lat="46.137159">
                <ele>0</ele>
            </trkpt>			
			<trkpt lon="-91.289002" lat="46.137237">
                <ele>0</ele>
            </trkpt>			
			<trkpt lon="-91.289127" lat="46.137328">
                <ele>0</ele>
            </trkpt>			
			<trkpt lon="-91.289231" lat="46.137409">
                <ele>0</ele>
            </trkpt>			
			<trkpt lon="-91.289342" lat="46.137458">
                <ele>0</ele>
            </trkpt>			
			<trkpt lon="-91.289493" lat="46.137472">
                <ele>0</ele>
            </trkpt>			
			<trkpt lon="-91.289623" lat="46.137407">
                <ele>0</ele>
            </trkpt>			
			<trkpt lon="-91.289785" lat="46.137412">
                <ele>0</ele>
            </trkpt>			
			<trkpt lon="-91.289935" lat="46.137477">
                <ele>0</ele>
            </trkpt>			
			<trkpt lon="-91.290100" lat="46.137533">
                <ele>0</ele>
            </trkpt>			
			<trkpt lon="-91.290236" lat="46.137537">
                <ele>0</ele>
            </trkpt>			
			<trkpt lon="-91.290360" lat="46.137452">
                <ele>0</ele>
            </trkpt>			
			<trkpt lon="-91.290405" lat="46.137336">
                <ele>0</ele>
            </trkpt>			
			<trkpt lon="-91.290363" lat="46.137198">
                <ele>0</ele>
            </trkpt>			
			<trkpt lon="-91.290327" lat="46.137100">
                <ele>0</ele>
            </trkpt>			
			<trkpt lon="-91.290297" lat="46.136917">
                <ele>0</ele>
            </trkpt>			
			<trkpt lon="-91.290436" lat="46.136895">
                <ele>0</ele>
            </trkpt>			
			<trkpt lon="-91.290609" lat="46.136883">
                <ele>0</ele>
            </trkpt>			
			<trkpt lon="-91.290751" lat="46.136857">
                <ele>0</ele>
            </trkpt>			
			<trkpt lon="-91.290940" lat="46.136891">
                <ele>0</ele>
            </trkpt>			
			<trkpt lon="-91.291073" lat="46.136940">
                <ele>0</ele>
            </trkpt>			
			<trkpt lon="-91.291146" lat="46.137025">
                <ele>0</ele>
            </trkpt>			
			<trkpt lon="-91.291263" lat="46.137068">
                <ele>0</ele>
            </trkpt>			
			<trkpt lon="-91.291397" lat="46.137101">
                <ele>0</ele>
            </trkpt>			
			<trkpt lon="-91.291526" lat="46.137153">
                <ele>0</ele>
            </trkpt>			
			<trkpt lon="-91.291659" lat="46.137135">
                <ele>0</ele>
            </trkpt>			
			<trkpt lon="-91.291814" lat="46.137109">
                <ele>0</ele>
            </trkpt>			
			<trkpt lon="-91.291963" lat="46.137092">
                <ele>0</ele>
            </trkpt>			
			<trkpt lon="-91.292044" lat="46.137009">
                <ele>0</ele>
            </trkpt>			
			<trkpt lon="-91.292091" lat="46.136908">
                <ele>0</ele>
            </trkpt>			
			<trkpt lon="-91.292147" lat="46.136823">
                <ele>0</ele>
            </trkpt>			
			<trkpt lon="-91.292265" lat="46.136873">
                <ele>0</ele>
            </trkpt>			
			<trkpt lon="-91.292426" lat="46.136902">
                <ele>0</ele>
            </trkpt>			
			<trkpt lon="-91.292587" lat="46.136943">
                <ele>0</ele>
            </trkpt>			
			<trkpt lon="-91.292699" lat="46.137004">
                <ele>0</ele>
            </trkpt>			
			<trkpt lon="-91.292784" lat="46.137074">
                <ele>0</ele>
            </trkpt>			
			<trkpt lon="-91.292803" lat="46.137191">
                <ele>0</ele>
            </trkpt>			
			<trkpt lon="-91.292797" lat="46.137302">
                <ele>0</ele>
            </trkpt>			
			<trkpt lon="-91.292803" lat="46.137408">
                <ele>0</ele>
            </trkpt>			
			<trkpt lon="-91.292762" lat="46.137499">
                <ele>0</ele>
            </trkpt>			
			<trkpt lon="-91.292705" lat="46.137590">
                <ele>0</ele>
            </trkpt>			
			<trkpt lon="-91.292710" lat="46.137701">
                <ele>0</ele>
            </trkpt>			
			<trkpt lon="-91.292731" lat="46.137805">
                <ele>0</ele>
            </trkpt>			
			<trkpt lon="-91.292726" lat="46.137936">
                <ele>0</ele>
            </trkpt>			
			<trkpt lon="-91.292715" lat="46.138040">
                <ele>0</ele>
            </trkpt>			
			<trkpt lon="-91.292713" lat="46.138142">
                <ele>0</ele>
            </trkpt>			
			<trkpt lon="-91.292798" lat="46.138255">
                <ele>0</ele>
            </trkpt>			
			<trkpt lon="-91.292966" lat="46.138287">
                <ele>0</ele>
            </trkpt>			
			<trkpt lon="-91.293121" lat="46.138236">
                <ele>0</ele>
            </trkpt>			
			<trkpt lon="-91.293215" lat="46.138171">
                <ele>0</ele>
            </trkpt>			
			<trkpt lon="-91.293372" lat="46.138195">
                <ele>0</ele>
            </trkpt>			
			<trkpt lon="-91.293474" lat="46.138256">
                <ele>0</ele>
            </trkpt>			
			<trkpt lon="-91.293604" lat="46.138317">
                <ele>0</ele>
            </trkpt>			
			<trkpt lon="-91.293703" lat="46.138383">
                <ele>0</ele>
            </trkpt>			
			<trkpt lon="-91.293795" lat="46.138455">
                <ele>0</ele>
            </trkpt>			
			<trkpt lon="-91.293894" lat="46.138516">
                <ele>0</ele>
            </trkpt>			
			<trkpt lon="-91.294024" lat="46.138502">
                <ele>0</ele>
            </trkpt>			
			<trkpt lon="-91.294153" lat="46.138457">
                <ele>0</ele>
            </trkpt>			
			<trkpt lon="-91.294279" lat="46.138416">
                <ele>0</ele>
            </trkpt>			
			<trkpt lon="-91.294395" lat="46.138376">
                <ele>0</ele>
            </trkpt>			
			<trkpt lon="-91.294561" lat="46.138355">
                <ele>0</ele>
            </trkpt>			
			<trkpt lon="-91.294719" lat="46.138355">
                <ele>0</ele>
            </trkpt>			
			<trkpt lon="-91.294863" lat="46.138366">
                <ele>0</ele>
            </trkpt>			
			<trkpt lon="-91.295011" lat="46.138372">
                <ele>0</ele>
            </trkpt>			
			<trkpt lon="-91.295192" lat="46.138387">
                <ele>0</ele>
            </trkpt>			
			<trkpt lon="-91.295340" lat="46.138412">
                <ele>0</ele>
            </trkpt>			
			<trkpt lon="-91.295459" lat="46.138463">
                <ele>0</ele>
            </trkpt>			
			<trkpt lon="-91.295566" lat="46.138569">
                <ele>0</ele>
            </trkpt>			
			<trkpt lon="-91.295776" lat="46.138703">
                <ele>0</ele>
            </trkpt>			
			<trkpt lon="-91.295884" lat="46.138792">
                <ele>0</ele>
            </trkpt>			
			<trkpt lon="-91.295944" lat="46.138880">
                <ele>0</ele>
            </trkpt>			
			<trkpt lon="-91.296087" lat="46.138911">
                <ele>0</ele>
            </trkpt>			
			<trkpt lon="-91.296198" lat="46.138857">
                <ele>0</ele>
            </trkpt>			
			<trkpt lon="-91.296226" lat="46.138754">
                <ele>0</ele>
            </trkpt>			
			<trkpt lon="-91.296251" lat="46.138637">
                <ele>0</ele>
            </trkpt>			
			<trkpt lon="-91.296318" lat="46.138547">
                <ele>0</ele>
            </trkpt>			
			<trkpt lon="-91.296448" lat="46.138505">
                <ele>0</ele>
            </trkpt>			
			<trkpt lon="-91.296609" lat="46.138460">
                <ele>0</ele>
            </trkpt>			
			<trkpt lon="-91.296762" lat="46.138457">
                <ele>0</ele>
            </trkpt>			
			<trkpt lon="-91.296889" lat="46.138485">
                <ele>0</ele>
            </trkpt>			
			<trkpt lon="-91.296971" lat="46.138413">
                <ele>0</ele>
            </trkpt>			
			<trkpt lon="-91.297115" lat="46.138353">
                <ele>0</ele>
            </trkpt>			
			<trkpt lon="-91.297272" lat="46.138360">
                <ele>0</ele>
            </trkpt>			
			<trkpt lon="-91.297344" lat="46.138278">
                <ele>0</ele>
            </trkpt>			
			<trkpt lon="-91.297384" lat="46.138157">
                <ele>0</ele>
            </trkpt>			
			<trkpt lon="-91.297418" lat="46.138029">
                <ele>0</ele>
            </trkpt>			
			<trkpt lon="-91.297459" lat="46.137934">
                <ele>0</ele>
            </trkpt>			
			<trkpt lon="-91.297591" lat="46.137906">
                <ele>0</ele>
            </trkpt>			
			<trkpt lon="-91.297756" lat="46.137904">
                <ele>0</ele>
            </trkpt>			
			<trkpt lon="-91.297905" lat="46.137902">
                <ele>0</ele>
            </trkpt>			
			<trkpt lon="-91.298044" lat="46.137891">
                <ele>0</ele>
            </trkpt>			
			<trkpt lon="-91.298181" lat="46.137894">
                <ele>0</ele>
            </trkpt>			
			<trkpt lon="-91.298309" lat="46.137953">
                <ele>0</ele>
            </trkpt>			
			<trkpt lon="-91.298329" lat="46.138069">
                <ele>0</ele>
            </trkpt>			
			<trkpt lon="-91.298440" lat="46.138128">
                <ele>0</ele>
            </trkpt>			
			<trkpt lon="-91.298589" lat="46.138093">
                <ele>0</ele>
            </trkpt>			
			<trkpt lon="-91.298692" lat="46.138036">
                <ele>0</ele>
            </trkpt>			
			<trkpt lon="-91.298801" lat="46.137955">
                <ele>0</ele>
            </trkpt>			
			<trkpt lon="-91.298953" lat="46.137877">
                <ele>0</ele>
            </trkpt>			
			<trkpt lon="-91.299091" lat="46.137873">
                <ele>0</ele>
            </trkpt>			
			<trkpt lon="-91.299241" lat="46.137928">
                <ele>0</ele>
            </trkpt>			
			<trkpt lon="-91.299422" lat="46.137988">
                <ele>0</ele>
            </trkpt>			
			<trkpt lon="-91.299569" lat="46.138064">
                <ele>0</ele>
            </trkpt>			
			<trkpt lon="-91.299692" lat="46.138134">
                <ele>0</ele>
            </trkpt>			
			<trkpt lon="-91.299831" lat="46.138099">
                <ele>0</ele>
            </trkpt>			
			<trkpt lon="-91.299956" lat="46.138046">
                <ele>0</ele>
            </trkpt>			
			<trkpt lon="-91.300078" lat="46.138014">
                <ele>0</ele>
            </trkpt>			
			<trkpt lon="-91.300234" lat="46.138016">
                <ele>0</ele>
            </trkpt>			
			<trkpt lon="-91.300366" lat="46.138049">
                <ele>0</ele>
            </trkpt>			
			<trkpt lon="-91.300511" lat="46.138092">
                <ele>0</ele>
            </trkpt>			
			<trkpt lon="-91.300657" lat="46.138123">
                <ele>0</ele>
            </trkpt>			
			<trkpt lon="-91.300816" lat="46.138146">
                <ele>0</ele>
            </trkpt>			
			<trkpt lon="-91.300964" lat="46.138186">
                <ele>0</ele>
            </trkpt>			
			<trkpt lon="-91.301087" lat="46.138236">
                <ele>0</ele>
            </trkpt>			
			<trkpt lon="-91.301147" lat="46.138325">
                <ele>0</ele>
            </trkpt>			
			<trkpt lon="-91.301039" lat="46.138413">
                <ele>0</ele>
            </trkpt>			
			<trkpt lon="-91.300958" lat="46.138492">
                <ele>0</ele>
            </trkpt>			
			<trkpt lon="-91.301014" lat="46.138598">
                <ele>0</ele>
            </trkpt>			
			<trkpt lon="-91.301143" lat="46.138682">
                <ele>0</ele>
            </trkpt>			
			<trkpt lon="-91.301229" lat="46.138787">
                <ele>0</ele>
            </trkpt>			
			<trkpt lon="-91.301241" lat="46.138879">
                <ele>0</ele>
            </trkpt>			
			<trkpt lon="-91.301231" lat="46.138970">
                <ele>0</ele>
            </trkpt>			
			<trkpt lon="-91.301193" lat="46.139083">
                <ele>0</ele>
            </trkpt>			
			<trkpt lon="-91.301141" lat="46.139189">
                <ele>0</ele>
            </trkpt>			
			<trkpt lon="-91.301181" lat="46.139308">
                <ele>0</ele>
            </trkpt>			
			<trkpt lon="-91.301298" lat="46.139401">
                <ele>0</ele>
            </trkpt>			
			<trkpt lon="-91.301478" lat="46.139485">
                <ele>0</ele>
            </trkpt>			
			<trkpt lon="-91.301618" lat="46.139533">
                <ele>0</ele>
            </trkpt>			
			<trkpt lon="-91.301804" lat="46.139563">
                <ele>0</ele>
            </trkpt>			
			<trkpt lon="-91.301966" lat="46.139588">
                <ele>0</ele>
            </trkpt>			
			<trkpt lon="-91.302091" lat="46.139649">
                <ele>0</ele>
            </trkpt>			
			<trkpt lon="-91.302173" lat="46.139739">
                <ele>0</ele>
            </trkpt>			
			<trkpt lon="-91.302214" lat="46.139830">
                <ele>0</ele>
            </trkpt>			
			<trkpt lon="-91.302303" lat="46.139923">
                <ele>0</ele>
            </trkpt>			
			<trkpt lon="-91.302407" lat="46.140007">
                <ele>0</ele>
            </trkpt>			
			<trkpt lon="-91.302537" lat="46.140053">
                <ele>0</ele>
            </trkpt>			
			<trkpt lon="-91.302688" lat="46.140097">
                <ele>0</ele>
            </trkpt>			
			<trkpt lon="-91.302846" lat="46.140139">
                <ele>0</ele>
            </trkpt>			
			<trkpt lon="-91.302997" lat="46.140162">
                <ele>0</ele>
            </trkpt>			
			<trkpt lon="-91.303146" lat="46.140164">
                <ele>0</ele>
            </trkpt>			
			<trkpt lon="-91.303285" lat="46.140192">
                <ele>0</ele>
            </trkpt>			
			<trkpt lon="-91.303422" lat="46.140251">
                <ele>0</ele>
            </trkpt>			
			<trkpt lon="-91.303560" lat="46.140281">
                <ele>0</ele>
            </trkpt>			
			<trkpt lon="-91.303646" lat="46.140375">
                <ele>0</ele>
            </trkpt>			
			<trkpt lon="-91.303749" lat="46.140458">
                <ele>0</ele>
            </trkpt>			
			<trkpt lon="-91.303869" lat="46.140500">
                <ele>0</ele>
            </trkpt>			
			<trkpt lon="-91.304068" lat="46.140558">
                <ele>0</ele>
            </trkpt>			
			<trkpt lon="-91.304259" lat="46.140563">
                <ele>0</ele>
            </trkpt>			
			<trkpt lon="-91.304406" lat="46.140586">
                <ele>0</ele>
            </trkpt>			
			<trkpt lon="-91.304540" lat="46.140614">
                <ele>0</ele>
            </trkpt>			
			<trkpt lon="-91.304700" lat="46.140608">
                <ele>0</ele>
            </trkpt>			
			<trkpt lon="-91.304832" lat="46.140554">
                <ele>0</ele>
            </trkpt>			
			<trkpt lon="-91.304974" lat="46.140534">
                <ele>0</ele>
            </trkpt>			
			<trkpt lon="-91.305125" lat="46.140502">
                <ele>0</ele>
            </trkpt>			
			<trkpt lon="-91.305246" lat="46.140440">
                <ele>0</ele>
            </trkpt>			
			<trkpt lon="-91.305428" lat="46.140420">
                <ele>0</ele>
            </trkpt>			
			<trkpt lon="-91.305569" lat="46.140443">
                <ele>0</ele>
            </trkpt>			
			<trkpt lon="-91.305678" lat="46.140496">
                <ele>0</ele>
            </trkpt>			
			<trkpt lon="-91.305773" lat="46.140559">
                <ele>0</ele>
            </trkpt>			
			<trkpt lon="-91.305888" lat="46.140634">
                <ele>0</ele>
            </trkpt>			
			<trkpt lon="-91.306031" lat="46.140637">
                <ele>0</ele>
            </trkpt>			
			<trkpt lon="-91.306190" lat="46.140586">
                <ele>0</ele>
            </trkpt>			
			<trkpt lon="-91.306293" lat="46.140499">
                <ele>0</ele>
            </trkpt>			
			<trkpt lon="-91.306366" lat="46.140393">
                <ele>0</ele>
            </trkpt>			
			<trkpt lon="-91.306401" lat="46.140307">
                <ele>0</ele>
            </trkpt>			
			<trkpt lon="-91.306466" lat="46.140193">
                <ele>0</ele>
            </trkpt>			
			<trkpt lon="-91.306530" lat="46.140093">
                <ele>0</ele>
            </trkpt>			
			<trkpt lon="-91.306562" lat="46.140002">
                <ele>0</ele>
            </trkpt>			
			<trkpt lon="-91.306679" lat="46.139945">
                <ele>0</ele>
            </trkpt>			
			<trkpt lon="-91.306876" lat="46.139945">
                <ele>0</ele>
            </trkpt>			
			<trkpt lon="-91.307062" lat="46.139984">
                <ele>0</ele>
            </trkpt>			
			<trkpt lon="-91.307322" lat="46.140030">
                <ele>0</ele>
            </trkpt>			
			<trkpt lon="-91.307465" lat="46.140043">
                <ele>0</ele>
            </trkpt>			
			<trkpt lon="-91.307640" lat="46.140074">
                <ele>0</ele>
            </trkpt>			
			<trkpt lon="-91.307801" lat="46.140035">
                <ele>0</ele>
            </trkpt>			
			<trkpt lon="-91.307959" lat="46.140061">
                <ele>0</ele>
            </trkpt>			
			<trkpt lon="-91.308136" lat="46.140184">
                <ele>0</ele>
            </trkpt>			
			<trkpt lon="-91.308243" lat="46.140262">
                <ele>0</ele>
            </trkpt>			
			<trkpt lon="-91.308406" lat="46.140292">
                <ele>0</ele>
            </trkpt>			
			<trkpt lon="-91.308600" lat="46.140305">
                <ele>0</ele>
            </trkpt>			
			<trkpt lon="-91.308716" lat="46.140355">
                <ele>0</ele>
            </trkpt>			
			<trkpt lon="-91.308786" lat="46.140430">
                <ele>0</ele>
            </trkpt>			
			<trkpt lon="-91.308900" lat="46.140525">
                <ele>0</ele>
            </trkpt>			
			<trkpt lon="-91.309202" lat="46.140453">
                <ele>0</ele>
            </trkpt>			
			<trkpt lon="-91.309404" lat="46.140404">
                <ele>0</ele>
            </trkpt>			
			<trkpt lon="-91.309583" lat="46.140356">
                <ele>0</ele>
            </trkpt>			
			<trkpt lon="-91.309734" lat="46.140261">
                <ele>0</ele>
            </trkpt>			
			<trkpt lon="-91.309781" lat="46.140168">
                <ele>0</ele>
            </trkpt>			
			<trkpt lon="-91.309877" lat="46.140046">
                <ele>0</ele>
            </trkpt>			
			<trkpt lon="-91.309943" lat="46.139940">
                <ele>0</ele>
            </trkpt>			
			<trkpt lon="-91.310028" lat="46.139835">
                <ele>0</ele>
            </trkpt>			
			<trkpt lon="-91.310104" lat="46.139745">
                <ele>0</ele>
            </trkpt>			
			<trkpt lon="-91.310158" lat="46.139660">
                <ele>0</ele>
            </trkpt>			
			<trkpt lon="-91.310243" lat="46.139580">
                <ele>0</ele>
            </trkpt>			
			<trkpt lon="-91.310344" lat="46.139509">
                <ele>0</ele>
            </trkpt>			
			<trkpt lon="-91.310500" lat="46.139493">
                <ele>0</ele>
            </trkpt>			
			<trkpt lon="-91.310631" lat="46.139453">
                <ele>0</ele>
            </trkpt>			
			<trkpt lon="-91.310712" lat="46.139382">
                <ele>0</ele>
            </trkpt>			
			<trkpt lon="-91.310716" lat="46.139281">
                <ele>0</ele>
            </trkpt>			
			<trkpt lon="-91.310749" lat="46.139189">
                <ele>0</ele>
            </trkpt>			
			<trkpt lon="-91.310815" lat="46.139089">
                <ele>0</ele>
            </trkpt>			
			<trkpt lon="-91.310876" lat="46.138996">
                <ele>0</ele>
            </trkpt>			
			<trkpt lon="-91.310960" lat="46.138907">
                <ele>0</ele>
            </trkpt>			
			<trkpt lon="-91.311026" lat="46.138815">
                <ele>0</ele>
            </trkpt>			
			<trkpt lon="-91.311124" lat="46.138724">
                <ele>0</ele>
            </trkpt>			
			<trkpt lon="-91.311284" lat="46.138694">
                <ele>0</ele>
            </trkpt>			
			<trkpt lon="-91.311455" lat="46.138700">
                <ele>0</ele>
            </trkpt>			
			<trkpt lon="-91.311613" lat="46.138738">
                <ele>0</ele>
            </trkpt>			
			<trkpt lon="-91.311748" lat="46.138759">
                <ele>0</ele>
            </trkpt>			
			<trkpt lon="-91.311893" lat="46.138751">
                <ele>0</ele>
            </trkpt>			
			<trkpt lon="-91.312042" lat="46.138723">
                <ele>0</ele>
            </trkpt>			
			<trkpt lon="-91.312165" lat="46.138673">
                <ele>0</ele>
            </trkpt>			
			<trkpt lon="-91.312274" lat="46.138604">
                <ele>0</ele>
            </trkpt>			
			<trkpt lon="-91.312382" lat="46.138529">
                <ele>0</ele>
            </trkpt>			
			<trkpt lon="-91.312474" lat="46.138447">
                <ele>0</ele>
            </trkpt>			
			<trkpt lon="-91.312544" lat="46.138365">
                <ele>0</ele>
            </trkpt>			
			<trkpt lon="-91.312672" lat="46.138329">
                <ele>0</ele>
            </trkpt>			
			<trkpt lon="-91.312830" lat="46.138326">
                <ele>0</ele>
            </trkpt>			
			<trkpt lon="-91.312982" lat="46.138298">
                <ele>0</ele>
            </trkpt>			
			<trkpt lon="-91.313078" lat="46.138215">
                <ele>0</ele>
            </trkpt>			
			<trkpt lon="-91.313091" lat="46.138101">
                <ele>0</ele>
            </trkpt>			
			<trkpt lon="-91.313114" lat="46.137935">
                <ele>0</ele>
            </trkpt>			
			<trkpt lon="-91.313133" lat="46.137843">
                <ele>0</ele>
            </trkpt>			
			<trkpt lon="-91.313114" lat="46.137694">
                <ele>0</ele>
            </trkpt>			
			<trkpt lon="-91.313096" lat="46.137585">
                <ele>0</ele>
            </trkpt>			
			<trkpt lon="-91.313049" lat="46.137487">
                <ele>0</ele>
            </trkpt>			
			<trkpt lon="-91.313007" lat="46.137394">
                <ele>0</ele>
            </trkpt>			
			<trkpt lon="-91.313045" lat="46.137305">
                <ele>0</ele>
            </trkpt>			
			<trkpt lon="-91.313045" lat="46.137305">
                <ele>0</ele>
            </trkpt>			
			<trkpt lon="-91.313045" lat="46.137305">
                <ele>0</ele>
            </trkpt>			
			<trkpt lon="-91.313111" lat="46.137181">
                <ele>0</ele>
            </trkpt>			
			<trkpt lon="-91.313111" lat="46.137181">
                <ele>0</ele>
            </trkpt>			
			<trkpt lon="-91.313111" lat="46.137181">
                <ele>0</ele>
            </trkpt>			
			<trkpt lon="-91.313111" lat="46.137181">
                <ele>0</ele>
            </trkpt>			
			<trkpt lon="-91.313111" lat="46.137181">
                <ele>0</ele>
            </trkpt>            
        </trkseg>
    </trk>
</gpx>