<?xml version="1.0" encoding="UTF-8"?>
<kml xmlns="http://www.opengis.net/kml/2.2">
  <Document>
	<name>Short Seeley South Loop 25</name>
	<description>About as flat as possible in this area, yet still with the swoop down 00 into Seeley from the highlands.   The 3 miles on 77 are uncomfortable, but not treacherous as there is a 3' bikelane. </description>
	<Style id="style1">
	  <LineStyle>
		<color>BF0000FF</color>
		<width>3</width>
	  </LineStyle>
	</Style>
	<Style id="yellowLineGreenPoly">
	  <LineStyle>
		<color>7f0000ff</color>
		<width>4</width>
	  </LineStyle>
	  <PolyStyle>
		<color>7f00ff00</color>
	  </PolyStyle>
	</Style>
	<Placemark>
	  <name>Short Seeley South Loop 25</name>
	  <description>About as flat as possible in this area, yet still with the swoop down 00 into Seeley from the highlands.   The 3 miles on 77 are uncomfortable, but not treacherous as there is a 3' bikelane. </description>
	  <styleUrl>#style1</styleUrl>
	  <LineString>
		<tessellate>1</tessellate>
		<coordinates>
		  -91.361341,46.121604,0
-91.361341,46.121604,0
-91.361188,46.121482,0
-91.360966,46.121400,0
-91.360966,46.121400,0
-91.360966,46.121400,0
-91.360966,46.121400,0
-91.360726,46.121439,0
-91.360511,46.121662,0
-91.360246,46.121890,0
-91.360076,46.122201,0
-91.359851,46.122472,0
-91.359700,46.122758,0
-91.359656,46.122893,0
-91.359763,46.123162,0
-91.360025,46.123268,0
-91.360340,46.123554,0
-91.360461,46.123929,0
-91.360549,46.124240,0
-91.360590,46.124541,0
-91.360680,46.124965,0
-91.360778,46.125309,0
-91.360836,46.125687,0
-91.360831,46.126027,0
-91.360827,46.126211,0
-91.360814,46.126376,0
-91.360766,46.126705,0
-91.360740,46.126873,0
-91.360672,46.127240,0
-91.360492,46.127555,0
-91.360348,46.127788,0
-91.360128,46.128129,0
-91.360444,46.128176,0
-91.360819,46.128173,0
-91.361121,46.128171,0
-91.361615,46.128149,0
-91.362006,46.128136,0
-91.362247,46.128156,0
-91.362555,46.128158,0
-91.362959,46.128167,0
-91.363482,46.128147,0
-91.363961,46.128165,0
-91.364385,46.128169,0
-91.364676,46.128166,0
-91.365153,46.128161,0
-91.365504,46.128175,0
-91.365802,46.128167,0
-91.366133,46.128177,0
-91.366774,46.128182,0
-91.367054,46.128195,0
-91.367342,46.128194,0
-91.367604,46.128176,0
-91.367876,46.128174,0
-91.368255,46.128181,0
-91.368480,46.128185,0
-91.368894,46.128209,0
-91.369301,46.128205,0
-91.369835,46.128184,0
-91.370138,46.128188,0
-91.370504,46.128179,0
-91.370838,46.128216,0
-91.371290,46.128205,0
-91.371682,46.128205,0
-91.372102,46.128209,0
-91.372593,46.128191,0
-91.372853,46.128198,0
-91.373099,46.128203,0
-91.373638,46.128208,0
-91.374175,46.128215,0
-91.374441,46.128206,0
-91.374992,46.128184,0
-91.375616,46.128178,0
-91.375885,46.128196,0
-91.376408,46.128210,0
-91.376978,46.128216,0
-91.377557,46.128193,0
-91.377844,46.128176,0
-91.378123,46.128179,0
-91.378402,46.128187,0
-91.378674,46.128186,0
-91.379127,46.128171,0
-91.379717,46.128181,0
-91.380229,46.128137,0
-91.380786,46.128120,0
-91.381215,46.128115,0
-91.381690,46.128102,0
-91.382059,46.128138,0
-91.382566,46.128106,0
-91.382820,46.128093,0
-91.383234,46.128076,0
-91.383677,46.128067,0
-91.384102,46.128060,0
-91.384321,46.128071,0
-91.384687,46.128063,0
-91.384971,46.128009,0
-91.385374,46.127939,0
-91.385580,46.127908,0
-91.385828,46.127768,0
-91.385830,46.127598,0
-91.385835,46.127333,0
-91.385839,46.127037,0
-91.385832,46.126730,0
-91.385832,46.126312,0
-91.385826,46.125927,0
-91.385805,46.125435,0
-91.385829,46.125116,0
-91.385870,46.124741,0
-91.385880,46.124421,0
-91.385853,46.123891,0
-91.385899,46.123595,0
-91.385842,46.123238,0
-91.385849,46.122884,0
-91.385849,46.122552,0
-91.385871,46.122361,0
-91.385950,46.122176,0
-91.386002,46.121859,0
-91.385968,46.121383,0
-91.385896,46.120859,0
-91.385854,46.120427,0
-91.385818,46.119926,0
-91.385836,46.119471,0
-91.385840,46.118978,0
-91.385837,46.118619,0
-91.385821,46.118162,0
-91.385836,46.117823,0
-91.385816,46.117376,0
-91.385814,46.116931,0
-91.385835,46.116576,0
-91.385832,46.116153,0
-91.385828,46.115801,0
-91.385827,46.115364,0
-91.385883,46.115015,0
-91.385871,46.114703,0
-91.385835,46.114284,0
-91.385793,46.114068,0
-91.385773,46.113605,0
-91.385814,46.113229,0
-91.385768,46.112800,0
-91.385805,46.112393,0
-91.385863,46.112029,0
-91.385836,46.111849,0
-91.385804,46.111527,0
-91.385786,46.111083,0
-91.385755,46.110689,0
-91.385752,46.110478,0
-91.385760,46.110286,0
-91.385777,46.109875,0
-91.385764,46.109508,0
-91.385740,46.109071,0
-91.385741,46.108656,0
-91.385732,46.108186,0
-91.385709,46.107715,0
-91.385761,46.107276,0
-91.385742,46.106969,0
-91.385756,46.106552,0
-91.385750,46.106185,0
-91.385730,46.105844,0
-91.385720,46.105585,0
-91.385725,46.105267,0
-91.385724,46.104800,0
-91.385722,46.104399,0
-91.385728,46.103999,0
-91.385712,46.103585,0
-91.385710,46.103195,0
-91.385704,46.102757,0
-91.385704,46.102360,0
-91.385697,46.102073,0
-91.385675,46.101735,0
-91.385670,46.101498,0
-91.385696,46.101307,0
-91.385683,46.100892,0
-91.385674,46.100682,0
-91.385671,46.100274,0
-91.385686,46.099906,0
-91.385670,46.099559,0
-91.385683,46.099253,0
-91.386038,46.099169,0
-91.386399,46.099162,0
-91.386833,46.099142,0
-91.387218,46.099119,0
-91.387460,46.099113,0
-91.387874,46.099101,0
-91.388118,46.099093,0
-91.388624,46.099108,0
-91.389115,46.099116,0
-91.389529,46.099126,0
-91.389990,46.099139,0
-91.390480,46.099150,0
-91.390732,46.099154,0
-91.391161,46.099165,0
-91.391676,46.099176,0
-91.391941,46.099181,0
-91.392459,46.099202,0
-91.392892,46.099210,0
-91.393146,46.099215,0
-91.393405,46.099229,0
-91.393961,46.099241,0
-91.394511,46.099254,0
-91.394785,46.099268,0
-91.395232,46.099278,0
-91.395699,46.099169,0
-91.395918,46.098928,0
-91.395949,46.098567,0
-91.395952,46.098384,0
-91.395948,46.098014,0
-91.395943,46.097709,0
-91.395934,46.097343,0
-91.395938,46.097044,0
-91.395938,46.096807,0
-91.395945,46.096521,0
-91.395947,46.096166,0
-91.395956,46.095786,0
-91.395951,46.095594,0
-91.395946,46.095222,0
-91.395939,46.094919,0
-91.395951,46.094608,0
-91.395937,46.094235,0
-91.395949,46.093937,0
-91.395965,46.093705,0
-91.395963,46.093298,0
-91.395933,46.092918,0
-91.395944,46.092534,0
-91.395939,46.092223,0
-91.395932,46.091853,0
-91.395920,46.091663,0
-91.395909,46.091339,0
-91.395912,46.091156,0
-91.395913,46.090835,0
-91.395916,46.090457,0
-91.395894,46.090063,0
-91.395896,46.089876,0
-91.395902,46.089686,0
-91.395942,46.089301,0
-91.395953,46.089107,0
-91.395937,46.088774,0
-91.395924,46.088407,0
-91.395903,46.088034,0
-91.395901,46.087650,0
-91.395903,46.087249,0
-91.395919,46.086921,0
-91.395951,46.086714,0
-91.396087,46.086470,0
-91.396242,46.086116,0
-91.396234,46.085957,0
-91.396166,46.085799,0
-91.396052,46.085644,0
-91.396001,46.085566,0
-91.396001,46.085566,0
-91.396001,46.085566,0
-91.395970,46.085538,0
-91.395728,46.085260,0
-91.395663,46.085133,0
-91.395618,46.084925,0
-91.395657,46.084749,0
-91.395780,46.084479,0
-91.395863,46.084220,0
-91.395830,46.083822,0
-91.395859,46.083443,0
-91.395838,46.083122,0
-91.395836,46.082731,0
-91.395849,46.082518,0
-91.395975,46.082253,0
-91.396231,46.081885,0
-91.396356,46.081685,0
-91.396644,46.081326,0
-91.396865,46.081001,0
-91.397158,46.080641,0
-91.397382,46.080289,0
-91.397674,46.079880,0
-91.397981,46.079520,0
-91.398250,46.079156,0
-91.398535,46.078809,0
-91.398677,46.078650,0
-91.398974,46.078277,0
-91.399220,46.078068,0
-91.399526,46.077797,0
-91.399731,46.077567,0
-91.400048,46.077309,0
-91.400345,46.077053,0
-91.400638,46.076848,0
-91.400996,46.076540,0
-91.401157,46.076260,0
-91.401402,46.076005,0
-91.401532,46.075861,0
-91.401794,46.075586,0
-91.402078,46.075250,0
-91.402423,46.074850,0
-91.402704,46.074494,0
-91.403021,46.074110,0
-91.403320,46.073775,0
-91.403578,46.073482,0
-91.403818,46.073180,0
-91.404034,46.072907,0
-91.404305,46.072597,0
-91.404478,46.072384,0
-91.404733,46.072092,0
-91.405145,46.071690,0
-91.405528,46.071232,0
-91.405724,46.070980,0
-91.406095,46.070524,0
-91.406297,46.070282,0
-91.406698,46.069827,0
-91.406852,46.069617,0
-91.406983,46.069178,0
-91.407033,46.068755,0
-91.407019,46.068358,0
-91.407043,46.068189,0
-91.406995,46.068017,0
-91.406861,46.067752,0
-91.406584,46.067505,0
-91.406311,46.067271,0
-91.406158,46.067162,0
-91.405972,46.067035,0
-91.405634,46.066776,0
-91.405378,46.066532,0
-91.405148,46.066274,0
-91.405048,46.066084,0
-91.405037,46.065881,0
-91.405038,46.065440,0
-91.405051,46.065139,0
-91.405050,46.064791,0
-91.405062,46.064586,0
-91.405034,46.064173,0
-91.405064,46.063788,0
-91.405076,46.063587,0
-91.405141,46.063202,0
-91.405139,46.062669,0
-91.405126,46.062212,0
-91.405129,46.062000,0
-91.405188,46.061802,0
-91.405212,46.061457,0
-91.405209,46.060977,0
-91.405152,46.060579,0
-91.405172,46.060100,0
-91.405193,46.059620,0
-91.405224,46.059271,0
-91.405258,46.058899,0
-91.405252,46.058699,0
-91.405253,46.058484,0
-91.405275,46.058126,0
-91.405267,46.057875,0
-91.405257,46.057463,0
-91.405289,46.057031,0
-91.405291,46.056833,0
-91.405277,46.056603,0
-91.405269,46.056385,0
-91.405281,46.056052,0
-91.405282,46.055836,0
-91.405313,46.055401,0
-91.405300,46.055163,0
-91.405285,46.054776,0
-91.405312,46.054544,0
-91.405328,46.054311,0
-91.405319,46.054100,0
-91.405315,46.053875,0
-91.405303,46.053494,0
-91.405306,46.053059,0
-91.405316,46.052628,0
-91.405286,46.052189,0
-91.405344,46.051998,0
-91.405332,46.051645,0
-91.405319,46.051355,0
-91.405261,46.051160,0
-91.405050,46.050826,0
-91.404726,46.050641,0
-91.404528,46.050356,0
-91.404391,46.050194,0
-91.404207,46.049986,0
-91.404060,46.049769,0
-91.403906,46.049598,0
-91.403668,46.049362,0
-91.403390,46.049122,0
-91.403243,46.048999,0
-91.402958,46.048773,0
-91.402698,46.048570,0
-91.402348,46.048384,0
-91.402038,46.048242,0
-91.401846,46.048168,0
-91.401608,46.048085,0
-91.401266,46.047968,0
-91.400947,46.047909,0
-91.400697,46.047871,0
-91.400331,46.047778,0
-91.400114,46.047734,0
-91.399655,46.047635,0
-91.399193,46.047529,0
-91.398957,46.047457,0
-91.398578,46.047378,0
-91.398393,46.047307,0
-91.398180,46.047270,0
-91.397880,46.047168,0
-91.397445,46.047036,0
-91.397228,46.046969,0
-91.396997,46.046900,0
-91.396536,46.046739,0
-91.396113,46.046606,0
-91.395610,46.046491,0
-91.395150,46.046310,0
-91.394632,46.046163,0
-91.394182,46.046022,0
-91.393591,46.045848,0
-91.393088,46.045753,0
-91.392674,46.045732,0
-91.392370,46.045713,0
-91.391828,46.045726,0
-91.391395,46.045774,0
-91.391104,46.045817,0
-91.390702,46.045851,0
-91.390290,46.045837,0
-91.389905,46.045775,0
-91.389453,46.045624,0
-91.388993,46.045476,0
-91.388678,46.045328,0
-91.388348,46.045134,0
-91.388056,46.044946,0
-91.387804,46.044783,0
-91.387582,46.044615,0
-91.387364,46.044414,0
-91.387137,46.044240,0
-91.386925,46.044000,0
-91.386737,46.043759,0
-91.386585,46.043553,0
-91.386405,46.043358,0
-91.386270,46.043048,0
-91.386148,46.042833,0
-91.386026,46.042615,0
-91.385900,46.042393,0
-91.385782,46.042191,0
-91.385642,46.041989,0
-91.385585,46.041876,0
-91.385500,46.041654,0
-91.385408,46.041459,0
-91.385307,46.041293,0
-91.385188,46.041089,0
-91.385096,46.040894,0
-91.384936,46.040681,0
-91.384820,46.040486,0
-91.384754,46.040373,0
-91.384687,46.040271,0
-91.384602,46.040106,0
-91.384522,46.039874,0
-91.384510,46.039589,0
-91.384521,46.039265,0
-91.384530,46.039064,0
-91.384529,46.038945,0
-91.384531,46.038825,0
-91.384533,46.038714,0
-91.384527,46.038492,0
-91.384539,46.038221,0
-91.384496,46.037996,0
-91.384513,46.037757,0
-91.384509,46.037587,0
-91.384513,46.037169,0
-91.384493,46.036841,0
-91.384497,46.036508,0
-91.384496,46.036127,0
-91.384491,46.035931,0
-91.384470,46.035609,0
-91.384466,46.035206,0
-91.384444,46.034770,0
-91.384440,46.034238,0
-91.384390,46.033648,0
-91.384402,46.033029,0
-91.384404,46.032775,0
-91.384416,46.032414,0
-91.384413,46.032102,0
-91.384407,46.031925,0
-91.384387,46.031601,0
-91.384388,46.031322,0
-91.384370,46.031007,0
-91.384365,46.030663,0
-91.384367,46.030488,0
-91.384364,46.030110,0
-91.384299,46.029670,0
-91.384276,46.029082,0
-91.384301,46.028570,0
-91.384296,46.028124,0
-91.384267,46.027751,0
-91.384238,46.027342,0
-91.384235,46.026950,0
-91.384226,46.026578,0
-91.384228,46.026105,0
-91.384189,46.025703,0
-91.384187,46.025268,0
-91.384138,46.024860,0
-91.384207,46.024574,0
-91.384183,46.024411,0
-91.384055,46.024385,0
-91.384055,46.024385,0
-91.384055,46.024385,0
-91.384055,46.024385,0
-91.384164,46.024119,0
-91.384158,46.023763,0
-91.384143,46.023544,0
-91.384130,46.023151,0
-91.384120,46.022722,0
-91.384066,46.022271,0
-91.384068,46.021881,0
-91.384037,46.021527,0
-91.384046,46.021300,0
-91.384058,46.020898,0
-91.384035,46.020468,0
-91.384063,46.020117,0
-91.384082,46.019892,0
-91.384071,46.019426,0
-91.384083,46.019026,0
-91.384090,46.018729,0
-91.384076,46.018404,0
-91.384027,46.018012,0
-91.384008,46.017644,0
-91.384014,46.017464,0
-91.383998,46.017228,0
-91.384000,46.016905,0
-91.383996,46.016609,0
-91.384006,46.016215,0
-91.383980,46.016014,0
-91.384001,46.015627,0
-91.383944,46.015219,0
-91.383934,46.014984,0
-91.383928,46.014596,0
-91.383900,46.014382,0
-91.383891,46.013985,0
-91.383886,46.013631,0
-91.383884,46.013190,0
-91.383884,46.012760,0
-91.383874,46.012538,0
-91.383845,46.012205,0
-91.383831,46.011871,0
-91.383701,46.011648,0
-91.383221,46.011632,0
-91.382945,46.011629,0
-91.382413,46.011630,0
-91.382009,46.011639,0
-91.381488,46.011645,0
-91.381234,46.011649,0
-91.380946,46.011635,0
-91.380363,46.011625,0
-91.380075,46.011624,0
-91.379785,46.011636,0
-91.379380,46.011638,0
-91.378786,46.011651,0
-91.378317,46.011640,0
-91.377752,46.011652,0
-91.377263,46.011631,0
-91.376663,46.011626,0
-91.376041,46.011635,0
-91.375450,46.011633,0
-91.374993,46.011644,0
-91.374457,46.011651,0
-91.374164,46.011644,0
-91.373646,46.011646,0
-91.373135,46.011650,0
-91.372531,46.011638,0
-91.372077,46.011631,0
-91.371792,46.011635,0
-91.371249,46.011633,0
-91.370970,46.011626,0
-91.370403,46.011646,0
-91.370155,46.011646,0
-91.369699,46.011659,0
-91.369156,46.011658,0
-91.368867,46.011663,0
-91.368304,46.011656,0
-91.368029,46.011652,0
-91.367575,46.011648,0
-91.367023,46.011657,0
-91.366529,46.011673,0
-91.366243,46.011665,0
-91.365660,46.011668,0
-91.365178,46.011669,0
-91.364712,46.011671,0
-91.364243,46.011674,0
-91.363725,46.011645,0
-91.363338,46.011646,0
-91.363107,46.011647,0
-91.362869,46.011655,0
-91.362333,46.011683,0
-91.361796,46.011675,0
-91.361339,46.011666,0
-91.361084,46.011654,0
-91.360795,46.011666,0
-91.360521,46.011664,0
-91.360257,46.011656,0
-91.359788,46.011655,0
-91.359218,46.011659,0
-91.358928,46.011665,0
-91.358628,46.011674,0
-91.358152,46.011674,0
-91.357659,46.011676,0
-91.357076,46.011678,0
-91.356789,46.011683,0
-91.356202,46.011688,0
-91.355696,46.011679,0
-91.355122,46.011686,0
-91.354540,46.011687,0
-91.353967,46.011697,0
-91.353411,46.011721,0
-91.353154,46.011754,0
-91.352804,46.012077,0
-91.352762,46.012609,0
-91.352774,46.012997,0
-91.352768,46.013378,0
-91.352758,46.013736,0
-91.352761,46.014099,0
-91.352749,46.014463,0
-91.352725,46.014829,0
-91.352713,46.015016,0
-91.352647,46.015224,0
-91.352259,46.015436,0
-91.352039,46.015480,0
-91.351745,46.015476,0
-91.351192,46.015495,0
-91.350596,46.015530,0
-91.350030,46.015544,0
-91.349387,46.015562,0
-91.349042,46.015581,0
-91.348220,46.015591,0
-91.347387,46.015605,0
-91.346632,46.015665,0
-91.345878,46.015707,0
-91.345217,46.015750,0
-91.344741,46.015755,0
-91.344124,46.015671,0
-91.343704,46.015477,0
-91.343121,46.015211,0
-91.342656,46.015149,0
-91.342423,46.015204,0
-91.341773,46.015397,0
-91.341384,46.015621,0
-91.341571,46.015975,0
-91.342034,46.016259,0
-91.342317,46.016586,0
-91.342407,46.016864,0
-91.342430,46.017173,0
-91.342438,46.017464,0
-91.342350,46.017791,0
-91.342255,46.017939,0
-91.341992,46.018281,0
-91.341671,46.018539,0
-91.341295,46.018733,0
-91.340797,46.018927,0
-91.340521,46.019020,0
-91.340184,46.019091,0
-91.339865,46.019179,0
-91.339558,46.019250,0
-91.339210,46.019331,0
-91.338761,46.019464,0
-91.338369,46.019547,0
-91.338171,46.019676,0
-91.337964,46.020069,0
-91.337849,46.020267,0
-91.337558,46.020672,0
-91.337196,46.021073,0
-91.336631,46.021405,0
-91.336034,46.021591,0
-91.335509,46.021679,0
-91.335083,46.021769,0
-91.334677,46.021864,0
-91.334326,46.021906,0
-91.333789,46.022120,0
-91.333357,46.022312,0
-91.333039,46.022484,0
-91.332423,46.022653,0
-91.331970,46.022696,0
-91.331456,46.022807,0
-91.331107,46.023003,0
-91.330990,46.023284,0
-91.330957,46.023783,0
-91.331104,46.024337,0
-91.331208,46.024844,0
-91.331222,46.025273,0
-91.331245,46.025637,0
-91.331261,46.025940,0
-91.331282,46.026168,0
-91.331299,46.026387,0
-91.331026,46.026726,0
-91.330836,46.026962,0
-91.330576,46.027206,0
-91.330472,46.027357,0
-91.330358,46.027511,0
-91.330248,46.027665,0
-91.329976,46.027951,0
-91.329662,46.028237,0
-91.329354,46.028522,0
-91.329009,46.028858,0
-91.328820,46.029027,0
-91.328446,46.029288,0
-91.328125,46.029566,0
-91.327928,46.029804,0
-91.327924,46.030110,0
-91.328056,46.030359,0
-91.328344,46.030721,0
-91.328659,46.031177,0
-91.328715,46.031601,0
-91.328578,46.032507,0
-91.328783,46.032974,0
-91.329246,46.033204,0
-91.329817,46.033434,0
-91.330257,46.033659,0
-91.330500,46.033766,0
-91.330740,46.033849,0
-91.331147,46.033954,0
-91.331701,46.033985,0
-91.332151,46.033983,0
-91.332708,46.033965,0
-91.333207,46.033952,0
-91.333520,46.033951,0
-91.333832,46.033965,0
-91.334127,46.033981,0
-91.334606,46.033975,0
-91.334860,46.034013,0
-91.335108,46.034256,0
-91.335223,46.034596,0
-91.335368,46.035019,0
-91.335492,46.035461,0
-91.335644,46.035769,0
-91.335896,46.036009,0
-91.336108,46.036138,0
-91.336329,46.036235,0
-91.336784,46.036434,0
-91.337268,46.036629,0
-91.337623,46.036768,0
-91.338115,46.036924,0
-91.338322,46.036965,0
-91.338662,46.037063,0
-91.338933,46.037122,0
-91.339222,46.037223,0
-91.339360,46.037358,0
-91.338984,46.037484,0
-91.338524,46.037634,0
-91.338066,46.037790,0
-91.337653,46.037926,0
-91.337403,46.038011,0
-91.337163,46.038095,0
-91.336820,46.038235,0
-91.336344,46.038401,0
-91.335885,46.038551,0
-91.335397,46.038703,0
-91.334895,46.038857,0
-91.334483,46.038998,0
-91.333955,46.039177,0
-91.333415,46.039362,0
-91.332981,46.039526,0
-91.332544,46.039683,0
-91.331959,46.039872,0
-91.331505,46.040034,0
-91.330942,46.040210,0
-91.330487,46.040365,0
-91.329959,46.040547,0
-91.329427,46.040722,0
-91.328896,46.040889,0
-91.328407,46.041073,0
-91.327917,46.041279,0
-91.327476,46.041438,0
-91.327299,46.041514,0
-91.327068,46.041548,0
-91.326926,46.041508,0
-91.326684,46.041599,0
-91.326496,46.041752,0
-91.326496,46.041752,0
-91.326496,46.041752,0
-91.326496,46.041752,0
-91.326371,46.041903,0
-91.326371,46.041903,0
-91.326371,46.041903,0
-91.326371,46.041903,0
-91.326602,46.041943,0
-91.326808,46.042023,0
-91.327089,46.042273,0
-91.327215,46.042368,0
-91.327334,46.042511,0
-91.327334,46.042511,0
-91.327334,46.042511,0
-91.327334,46.042511,0
-91.327345,46.042391,0
-91.327030,46.042179,0
-91.326803,46.041986,0
-91.326712,46.041757,0
-91.326476,46.041689,0
-91.326476,46.041689,0
-91.326476,46.041689,0
-91.326618,46.041620,0
-91.326689,46.041507,0
-91.326470,46.041441,0
-91.326130,46.041467,0
-91.325965,46.041543,0
-91.325816,46.041538,0
-91.325816,46.041538,0
-91.325816,46.041538,0
-91.325816,46.041538,0
-91.326020,46.041456,0
-91.326386,46.041500,0
-91.326767,46.041555,0
-91.326915,46.041632,0
-91.326766,46.041790,0
-91.326439,46.041923,0
-91.326284,46.041996,0
-91.325958,46.042154,0
-91.325638,46.042330,0
-91.325324,46.042522,0
-91.325072,46.042686,0
-91.324805,46.042878,0
-91.324652,46.042984,0
-91.324500,46.043096,0
-91.324347,46.043207,0
-91.324125,46.043388,0
-91.323884,46.043578,0
-91.323755,46.043689,0
-91.323498,46.043903,0
-91.323251,46.044144,0
-91.323116,46.044272,0
-91.322854,46.044519,0
-91.322751,46.044642,0
-91.322522,46.044893,0
-91.322341,46.045106,0
-91.322093,46.045388,0
-91.321965,46.045540,0
-91.321768,46.045835,0
-91.321615,46.046035,0
-91.321398,46.046362,0
-91.321221,46.046689,0
-91.321046,46.047008,0
-91.320876,46.047316,0
-91.320703,46.047633,0
-91.320531,46.047944,0
-91.320335,46.048258,0
-91.320190,46.048521,0
-91.320097,46.048690,0
-91.320011,46.048840,0
-91.319920,46.049006,0
-91.319822,46.049162,0
-91.319651,46.049474,0
-91.319510,46.049743,0
-91.319324,46.050064,0
-91.319133,46.050379,0
-91.318932,46.050728,0
-91.318779,46.051018,0
-91.318676,46.051192,0
-91.318508,46.051480,0
-91.318300,46.051835,0
-91.318190,46.052018,0
-91.318001,46.052395,0
-91.317780,46.052775,0
-91.317672,46.052957,0
-91.317425,46.053401,0
-91.317231,46.053723,0
-91.317067,46.053973,0
-91.316956,46.054152,0
-91.316834,46.054376,0
-91.316624,46.054707,0
-91.316412,46.055108,0
-91.316160,46.055521,0
-91.315903,46.055951,0
-91.315779,46.056171,0
-91.315652,46.056397,0
-91.315522,46.056620,0
-91.315258,46.057074,0
-91.315138,46.057290,0
-91.314931,46.057643,0
-91.314681,46.058089,0
-91.314458,46.058453,0
-91.314191,46.058892,0
-91.313939,46.059323,0
-91.313777,46.059608,0
-91.313589,46.059950,0
-91.313381,46.060315,0
-91.313121,46.060752,0
-91.312796,46.061198,0
-91.312608,46.061432,0
-91.312407,46.061682,0
-91.311957,46.062205,0
-91.311540,46.062639,0
-91.311031,46.063145,0
-91.310789,46.063382,0
-91.310557,46.063628,0
-91.310030,46.064078,0
-91.309592,46.064445,0
-91.309074,46.064867,0
-91.308844,46.065059,0
-91.308387,46.065418,0
-91.307991,46.065752,0
-91.307649,46.066041,0
-91.307308,46.066328,0
-91.307139,46.066457,0
-91.306807,46.066734,0
-91.306553,46.066947,0
-91.306243,46.067209,0
-91.305932,46.067471,0
-91.305688,46.067691,0
-91.305527,46.067825,0
-91.305394,46.067950,0
-91.305242,46.068075,0
-91.304984,46.068286,0
-91.304638,46.068553,0
-91.304318,46.068820,0
-91.304169,46.068945,0
-91.303843,46.069223,0
-91.303525,46.069494,0
-91.303349,46.069638,0
-91.303060,46.069845,0
-91.302736,46.070104,0
-91.302563,46.070256,0
-91.302397,46.070397,0
-91.302036,46.070694,0
-91.301641,46.071000,0
-91.301285,46.071304,0
-91.300814,46.071639,0
-91.300299,46.071963,0
-91.299714,46.072275,0
-91.299121,46.072556,0
-91.298558,46.072808,0
-91.298260,46.072921,0
-91.297643,46.073124,0
-91.297110,46.073277,0
-91.296503,46.073428,0
-91.296113,46.073511,0
-91.295756,46.073577,0
-91.295291,46.073640,0
-91.294652,46.073720,0
-91.294215,46.073774,0
-91.293690,46.073805,0
-91.293193,46.073815,0
-91.292640,46.073821,0
-91.292219,46.073776,0
-91.291897,46.073855,0
-91.291810,46.073974,0
-91.291715,46.074134,0
-91.291623,46.074364,0
-91.291502,46.074514,0
-91.291342,46.074659,0
-91.291168,46.074779,0
-91.290789,46.075083,0
-91.290588,46.075221,0
-91.290317,46.075463,0
-91.290210,46.075659,0
-91.290158,46.075921,0
-91.290165,46.076095,0
-91.290175,46.076295,0
-91.290160,46.076551,0
-91.290170,46.076766,0
-91.290120,46.077040,0
-91.290005,46.077224,0
-91.289890,46.077382,0
-91.289706,46.077559,0
-91.289272,46.077865,0
-91.288990,46.078050,0
-91.288770,46.078197,0
-91.288568,46.078691,0
-91.288960,46.079101,0
-91.289447,46.079340,0
-91.289650,46.079474,0
-91.289817,46.079605,0
-91.290022,46.079895,0
-91.289999,46.080083,0
-91.289988,46.080227,0
-91.289994,46.080369,0
-91.289973,46.080649,0
-91.289968,46.080911,0
-91.289952,46.081210,0
-91.289961,46.081455,0
-91.289966,46.081733,0
-91.289976,46.081969,0
-91.289926,46.082276,0
-91.289929,46.082591,0
-91.289903,46.082938,0
-91.289900,46.083232,0
-91.289917,46.083508,0
-91.289862,46.083820,0
-91.289909,46.084140,0
-91.289868,46.084423,0
-91.289837,46.084843,0
-91.289785,46.085147,0
-91.289834,46.085420,0
-91.289820,46.085841,0
-91.289787,46.086293,0
-91.289700,46.086610,0
-91.289698,46.086875,0
-91.289755,46.087285,0
-91.289756,46.087671,0
-91.289725,46.087857,0
-91.289700,46.088092,0
-91.289695,46.088417,0
-91.289728,46.088738,0
-91.289706,46.089074,0
-91.289723,46.089454,0
-91.289720,46.089844,0
-91.289731,46.090070,0
-91.289743,46.090388,0
-91.289675,46.090762,0
-91.289664,46.091082,0
-91.289662,46.091402,0
-91.289671,46.091787,0
-91.289635,46.091968,0
-91.289652,46.092255,0
-91.289633,46.092566,0
-91.289651,46.092745,0
-91.289648,46.093086,0
-91.289608,46.093467,0
-91.289618,46.093812,0
-91.289606,46.094176,0
-91.289622,46.094408,0
-91.289623,46.094589,0
-91.289664,46.095023,0
-91.289690,46.095428,0
-91.289643,46.095679,0
-91.289589,46.095997,0
-91.289630,46.096422,0
-91.289637,46.096716,0
-91.289581,46.097019,0
-91.289607,46.097333,0
-91.289622,46.097661,0
-91.289675,46.098033,0
-91.289708,46.098207,0
-91.289708,46.098207,0
-91.289708,46.098207,0
-91.289708,46.098207,0
-91.289688,46.098381,0
-91.289640,46.098564,0
-91.289609,46.098817,0
-91.289630,46.099103,0
-91.289586,46.099401,0
-91.289633,46.099746,0
-91.289658,46.100214,0
-91.289655,46.100575,0
-91.289677,46.100923,0
-91.289673,46.101131,0
-91.289665,46.101326,0
-91.289702,46.101531,0
-91.289689,46.101751,0
-91.289672,46.102132,0
-91.289687,46.102549,0
-91.289690,46.102955,0
-91.289694,46.103285,0
-91.289652,46.103660,0
-91.289689,46.103850,0
-91.289697,46.104046,0
-91.289720,46.104239,0
-91.289699,46.104610,0
-91.289705,46.104904,0
-91.289724,46.105273,0
-91.289736,46.105673,0
-91.289745,46.106063,0
-91.289861,46.106439,0
-91.290040,46.106593,0
-91.290262,46.106712,0
-91.290675,46.106813,0
-91.291130,46.106815,0
-91.291715,46.106787,0
-91.291982,46.106794,0
-91.292245,46.106801,0
-91.292527,46.106796,0
-91.292790,46.106791,0
-91.293070,46.106823,0
-91.293314,46.106891,0
-91.293548,46.106996,0
-91.293898,46.107248,0
-91.294037,46.107366,0
-91.294268,46.107533,0
-91.294514,46.107729,0
-91.294751,46.107906,0
-91.295039,46.108141,0
-91.295332,46.108384,0
-91.295510,46.108536,0
-91.295964,46.108786,0
-91.296532,46.108953,0
-91.296933,46.108991,0
-91.297192,46.109024,0
-91.297480,46.109045,0
-91.298126,46.109156,0
-91.298735,46.109262,0
-91.299162,46.109320,0
-91.300185,46.109233,0
-91.301454,46.108905,0
-91.302359,46.109171,0
-91.303267,46.109669,0
-91.304053,46.110087,0
-91.304648,46.110386,0
-91.305180,46.110697,0
-91.305557,46.110880,0
-91.305927,46.111091,0
-91.306228,46.111210,0
-91.306689,46.111411,0
-91.307278,46.111548,0
-91.307590,46.111572,0
-91.308269,46.111565,0
-91.308745,46.111550,0
-91.309212,46.111553,0
-91.309570,46.111525,0
-91.310060,46.111492,0
-91.310453,46.111469,0
-91.310808,46.111424,0
-91.311317,46.111423,0
-91.311811,46.111423,0
-91.312445,46.111499,0
-91.313075,46.111599,0
-91.313409,46.111667,0
-91.314115,46.111811,0
-91.314776,46.112015,0
-91.315255,46.112255,0
-91.315606,46.112546,0
-91.315975,46.112818,0
-91.316291,46.113045,0
-91.316649,46.113266,0
-91.316948,46.113382,0
-91.317183,46.113476,0
-91.317500,46.113564,0
-91.317791,46.113628,0
-91.318089,46.113656,0
-91.318274,46.113653,0
-91.318578,46.113649,0
-91.318950,46.113645,0
-91.319337,46.113659,0
-91.319708,46.113645,0
-91.320095,46.113645,0
-91.320433,46.113645,0
-91.320623,46.113648,0
-91.321043,46.113655,0
-91.321486,46.113647,0
-91.321911,46.113646,0
-91.322336,46.113639,0
-91.322591,46.113644,0
-91.323003,46.113684,0
-91.323327,46.113727,0
-91.323781,46.113798,0
-91.324074,46.113855,0
-91.324403,46.113916,0
-91.324617,46.113964,0
-91.325036,46.114041,0
-91.325400,46.114129,0
-91.325789,46.114208,0
-91.326028,46.114245,0
-91.326268,46.114289,0
-91.326746,46.114381,0
-91.326989,46.114427,0
-91.327325,46.114512,0
-91.327824,46.114603,0
-91.328087,46.114675,0
-91.328552,46.114745,0
-91.329083,46.114868,0
-91.329671,46.114977,0
-91.330247,46.115097,0
-91.331099,46.115265,0
-91.332124,46.115458,0
-91.333078,46.115665,0
-91.334343,46.115942,0
-91.335213,46.116108,0
-91.335736,46.116204,0
-91.335988,46.116255,0
-91.336245,46.116292,0
-91.336699,46.116384,0
-91.336962,46.116437,0
-91.337483,46.116572,0
-91.338064,46.116741,0
-91.338686,46.116981,0
-91.339249,46.117214,0
-91.339586,46.117352,0
-91.340260,46.117736,0
-91.340614,46.117946,0
-91.341173,46.118422,0
-91.341481,46.118756,0
-91.341795,46.119036,0
-91.342381,46.119494,0
-91.342748,46.119797,0
-91.343469,46.120250,0
-91.344580,46.120633,0
-91.345756,46.120733,0
-91.346596,46.120738,0
-91.347530,46.120758,0
-91.347879,46.120820,0
-91.348836,46.120795,0
-91.349592,46.120754,0
-91.350301,46.120751,0
-91.350985,46.120754,0
-91.351676,46.120761,0
-91.352229,46.120763,0
-91.352889,46.120781,0
-91.353218,46.120796,0
-91.353794,46.120800,0
-91.354375,46.120793,0
-91.354918,46.120799,0
-91.355547,46.120798,0
-91.355872,46.120767,0
-91.356533,46.120796,0
-91.356834,46.120801,0
-91.357347,46.120807,0
-91.358062,46.120825,0
-91.358561,46.120833,0
-91.359148,46.120837,0
-91.359625,46.120814,0
-91.360095,46.120821,0
-91.360357,46.120812,0
-91.360620,46.120810,0
-91.361074,46.120872,0
-91.361052,46.121105,0
-91.361009,46.121323,0
-91.361251,46.121455,0
-91.361359,46.121523,0
-91.361359,46.121523,0
-91.361359,46.121523,0
		</coordinates>
	  </LineString>
	</Placemark>
  </Document>
</kml>