<?xml version="1.0" encoding="UTF-8"?>
<kml xmlns="http://www.opengis.net/kml/2.2">
  <Document>
	<name>Scenic Shore Day 1</name>
	<description>My favorite charity ride-this includes the century loop</description>
	<Style id="style1">
	  <LineStyle>
		<color>BF0000FF</color>
		<width>3</width>
	  </LineStyle>
	</Style>
	<Style id="yellowLineGreenPoly">
	  <LineStyle>
		<color>7f0000ff</color>
		<width>4</width>
	  </LineStyle>
	  <PolyStyle>
		<color>7f00ff00</color>
	  </PolyStyle>
	</Style>
	<Placemark>
	  <name>Scenic Shore Day 1</name>
	  <description>My favorite charity ride-this includes the century loop</description>
	  <styleUrl>#style1</styleUrl>
	  <LineString>
		<tessellate>1</tessellate>
		<coordinates>
		  -87.978388,43.250642,0
-87.978178,43.250642,0
-87.977776,43.250642,0
-87.977250,43.250642,0
-87.976645,43.250642,0
-87.975767,43.250642,0
-87.975270,43.250642,0
-87.975186,43.250642,0
-87.974590,43.250636,0
-87.974237,43.250633,0
-87.973420,43.250624,0
-87.971946,43.250609,0
-87.971075,43.250599,0
-87.970266,43.250591,0
-87.969104,43.250579,0
-87.967926,43.250566,0
-87.966776,43.250556,0
-87.965915,43.250556,0
-87.965082,43.250556,0
-87.963908,43.250556,0
-87.962553,43.250556,0
-87.961386,43.250568,0
-87.960521,43.250580,0
-87.959720,43.250591,0
-87.958705,43.250601,0
-87.957805,43.250615,0
-87.957003,43.250627,0
-87.956034,43.250642,0
-87.955607,43.250648,0
-87.954856,43.250660,0
-87.953616,43.250679,0
-87.952327,43.250685,0
-87.950990,43.250685,0
-87.949821,43.250685,0
-87.948441,43.250685,0
-87.947560,43.250685,0
-87.946423,43.250685,0
-87.945197,43.250685,0
-87.944123,43.250685,0
-87.943487,43.250694,0
-87.942210,43.250705,0
-87.941271,43.250685,0
-87.939915,43.250685,0
-87.939052,43.250675,0
-87.938234,43.250656,0
-87.937339,43.250642,0
-87.936443,43.250642,0
-87.935612,43.250642,0
-87.934658,43.250642,0
-87.933827,43.250637,0
-87.933182,43.250621,0
-87.932226,43.250596,0
-87.931032,43.250565,0
-87.930345,43.250547,0
-87.929717,43.250531,0
-87.929032,43.250513,0
-87.928391,43.250502,0
-87.928135,43.250498,0
-87.927884,43.250494,0
-87.927637,43.250489,0
-87.926812,43.250475,0
-87.925852,43.250459,0
-87.925290,43.250449,0
-87.924832,43.250441,0
-87.924495,43.250435,0
-87.924041,43.250427,0
-87.923454,43.250421,0
-87.922247,43.250407,0
-87.921465,43.250398,0
-87.920557,43.250387,0
-87.919666,43.250385,0
-87.918886,43.250385,0
-87.918093,43.250385,0
-87.917820,43.250385,0
-87.917701,43.250668,0
-87.917749,43.251020,0
-87.917899,43.251581,0
-87.918108,43.251851,0
-87.918521,43.252396,0
-87.918736,43.252761,0
-87.918746,43.253039,0
-87.918768,43.253662,0
-87.918792,43.254350,0
-87.918810,43.254874,0
-87.918820,43.255576,0
-87.918817,43.256296,0
-87.918814,43.256997,0
-87.918810,43.257859,0
-87.918807,43.258561,0
-87.918804,43.259100,0
-87.918803,43.259456,0
-87.918802,43.259546,0
-87.918799,43.260278,0
-87.918795,43.261199,0
-87.918791,43.262015,0
-87.918788,43.262770,0
-87.918786,43.263266,0
-87.918783,43.264020,0
-87.918780,43.264623,0
-87.918779,43.264852,0
-87.918693,43.265019,0
-87.918693,43.265019,0
-87.918502,43.265062,0
-87.917720,43.265062,0
-87.916840,43.265062,0
-87.915965,43.265062,0
-87.915072,43.265062,0
-87.914576,43.265062,0
-87.914279,43.265062,0
-87.914233,43.265214,0
-87.914244,43.265729,0
-87.914257,43.266320,0
-87.914268,43.266829,0
-87.914283,43.267501,0
-87.914298,43.268173,0
-87.914316,43.269038,0
-87.914331,43.269695,0
-87.914347,43.270447,0
-87.914335,43.271371,0
-87.914324,43.272300,0
-87.914337,43.273148,0
-87.914347,43.273800,0
-87.914361,43.274745,0
-87.914371,43.275386,0
-87.914381,43.276044,0
-87.914393,43.276868,0
-87.914404,43.277613,0
-87.914418,43.278524,0
-87.914427,43.279146,0
-87.914436,43.279754,0
-87.914441,43.280051,0
-87.914444,43.280254,0
-87.914220,43.280254,0
-87.913479,43.280254,0
-87.912990,43.280254,0
-87.911627,43.280254,0
-87.910909,43.280254,0
-87.909967,43.280254,0
-87.909038,43.280254,0
-87.908214,43.280254,0
-87.907352,43.280254,0
-87.906436,43.280254,0
-87.905559,43.280254,0
-87.905331,43.280266,0
-87.904901,43.280295,0
-87.904800,43.280444,0
-87.904755,43.280535,0
-87.904745,43.281199,0
-87.904745,43.281870,0
-87.904745,43.282512,0
-87.904745,43.283039,0
-87.904745,43.283759,0
-87.904745,43.284458,0
-87.904745,43.284993,0
-87.904745,43.285613,0
-87.904745,43.286388,0
-87.904748,43.287024,0
-87.904752,43.287759,0
-87.904756,43.288579,0
-87.904760,43.289301,0
-87.904762,43.289811,0
-87.904765,43.290266,0
-87.904768,43.290838,0
-87.904771,43.291599,0
-87.904775,43.292379,0
-87.904779,43.293036,0
-87.904783,43.293859,0
-87.904786,43.294423,0
-87.904787,43.294712,0
-87.904789,43.294948,0
-87.904546,43.294893,0
-87.903896,43.294907,0
-87.902757,43.294932,0
-87.902067,43.294947,0
-87.900989,43.294970,0
-87.900490,43.295081,0
-87.900304,43.295328,0
-87.900059,43.296074,0
-87.899833,43.296797,0
-87.899602,43.297537,0
-87.899344,43.298361,0
-87.899104,43.299036,0
-87.898729,43.299897,0
-87.898398,43.300659,0
-87.898065,43.301320,0
-87.897660,43.302071,0
-87.897284,43.302310,0
-87.897058,43.302322,0
-87.895603,43.302385,0
-87.895472,43.302391,0
-87.895023,43.302476,0
-87.894961,43.302640,0
-87.894962,43.302743,0
-87.894969,43.303644,0
-87.894977,43.304716,0
-87.894982,43.305395,0
-87.894988,43.306266,0
-87.894994,43.306992,0
-87.895000,43.307805,0
-87.895002,43.308139,0
-87.894872,43.308266,0
-87.894755,43.308255,0
-87.894272,43.308309,0
-87.894164,43.308379,0
-87.894052,43.308477,0
-87.893885,43.308632,0
-87.893815,43.308914,0
-87.893752,43.309151,0
-87.893499,43.309394,0
-87.893187,43.309479,0
-87.892873,43.309479,0
-87.892772,43.309479,0
-87.892151,43.309239,0
-87.891779,43.309093,0
-87.891442,43.309127,0
-87.891334,43.309188,0
-87.891172,43.309317,0
-87.890950,43.309537,0
-87.890941,43.309834,0
-87.891237,43.309977,0
-87.891355,43.310000,0
-87.892142,43.310163,0
-87.892740,43.310383,0
-87.893018,43.310504,0
-87.893417,43.310545,0
-87.893986,43.310523,0
-87.894090,43.310538,0
-87.894397,43.310582,0
-87.894429,43.310727,0
-87.894222,43.311186,0
-87.894017,43.311642,0
-87.893788,43.312150,0
-87.893547,43.312685,0
-87.893372,43.313073,0
-87.893084,43.313690,0
-87.892713,43.314268,0
-87.892362,43.314812,0
-87.891902,43.315528,0
-87.891563,43.316055,0
-87.891163,43.316675,0
-87.890908,43.317071,0
-87.890670,43.317442,0
-87.890352,43.317936,0
-87.890147,43.318300,0
-87.889737,43.319044,0
-87.889684,43.319139,0
-87.889512,43.319519,0
-87.889510,43.320072,0
-87.889510,43.320158,0
-87.889523,43.320796,0
-87.889546,43.321389,0
-87.889568,43.321972,0
-87.889592,43.322592,0
-87.889729,43.323119,0
-87.889921,43.323727,0
-87.890144,43.324429,0
-87.890384,43.325160,0
-87.890621,43.325884,0
-87.890869,43.326640,0
-87.891069,43.327250,0
-87.891288,43.327919,0
-87.891504,43.328576,0
-87.891771,43.329391,0
-87.891948,43.330020,0
-87.892016,43.330280,0
-87.892121,43.330636,0
-87.892380,43.331477,0
-87.892636,43.332309,0
-87.892773,43.332753,0
-87.892928,43.333259,0
-87.893211,43.334117,0
-87.893448,43.334786,0
-87.893585,43.335339,0
-87.893808,43.336208,0
-87.894059,43.336981,0
-87.894264,43.337614,0
-87.894473,43.338256,0
-87.894743,43.339083,0
-87.894910,43.339584,0
-87.894872,43.339901,0
-87.894827,43.339985,0
-87.894493,43.340612,0
-87.894160,43.341236,0
-87.893778,43.341951,0
-87.893395,43.342669,0
-87.892941,43.343521,0
-87.892499,43.344351,0
-87.892150,43.345005,0
-87.891709,43.345832,0
-87.891258,43.346678,0
-87.890920,43.347310,0
-87.890492,43.348113,0
-87.890119,43.348823,0
-87.889735,43.349662,0
-87.889301,43.350760,0
-87.888962,43.351634,0
-87.888599,43.352572,0
-87.888367,43.353172,0
-87.888073,43.353929,0
-87.887763,43.354747,0
-87.887479,43.355538,0
-87.887191,43.356315,0
-87.886969,43.356819,0
-87.886772,43.357266,0
-87.886616,43.357622,0
-87.886219,43.358522,0
-87.885880,43.359352,0
-87.885525,43.360248,0
-87.885185,43.361041,0
-87.884697,43.362001,0
-87.884341,43.362701,0
-87.883805,43.363753,0
-87.883310,43.364727,0
-87.882807,43.365717,0
-87.882481,43.366433,0
-87.882174,43.367106,0
-87.881757,43.368019,0
-87.881359,43.368826,0
-87.881046,43.369453,0
-87.880721,43.370101,0
-87.880406,43.370732,0
-87.880114,43.371371,0
-87.879789,43.372123,0
-87.879545,43.372688,0
-87.879062,43.373638,0
-87.878673,43.374376,0
-87.878317,43.375115,0
-87.877957,43.375874,0
-87.877837,43.376127,0
-87.877459,43.376921,0
-87.876963,43.377966,0
-87.876490,43.378959,0
-87.876130,43.379716,0
-87.875869,43.380252,0
-87.875551,43.380907,0
-87.875451,43.381113,0
-87.875752,43.381143,0
-87.876795,43.381128,0
-87.877451,43.381118,0
-87.878082,43.381109,0
-87.878203,43.381107,0
-87.878656,43.381197,0
-87.878784,43.381440,0
-87.878792,43.381535,0
-87.878855,43.382288,0
-87.878887,43.382678,0
-87.878898,43.382800,0
-87.878910,43.382950,0
-87.879173,43.382950,0
-87.879730,43.382950,0
-87.880284,43.382942,0
-87.880638,43.382932,0
-87.881161,43.382917,0
-87.881664,43.382907,0
-87.882539,43.382923,0
-87.883072,43.383038,0
-87.884069,43.383380,0
-87.884529,43.383501,0
-87.885095,43.383595,0
-87.885621,43.383688,0
-87.885872,43.383813,0
-87.885961,43.383987,0
-87.885837,43.384141,0
-87.885682,43.384458,0
-87.885648,43.384962,0
-87.885648,43.385409,0
-87.885655,43.386123,0
-87.885674,43.386581,0
-87.885683,43.386801,0
-87.885689,43.386952,0
-87.885691,43.386984,0
-87.885691,43.387370,0
-87.885691,43.387731,0
-87.885733,43.388266,0
-87.885734,43.388665,0
-87.885734,43.389379,0
-87.885734,43.389836,0
-87.885734,43.390072,0
-87.885734,43.390539,0
-87.885734,43.390958,0
-87.885773,43.391758,0
-87.885793,43.392366,0
-87.885803,43.392694,0
-87.885822,43.393309,0
-87.885838,43.393823,0
-87.885857,43.394442,0
-87.885849,43.394925,0
-87.885822,43.395516,0
-87.885820,43.396259,0
-87.885820,43.396927,0
-87.885820,43.397076,0
-87.885719,43.397256,0
-87.885605,43.397370,0
-87.885713,43.397512,0
-87.886041,43.397941,0
-87.886289,43.398266,0
-87.886740,43.398858,0
-87.887167,43.399289,0
-87.887506,43.399561,0
-87.888108,43.399957,0
-87.888780,43.400312,0
-87.889467,43.400674,0
-87.890067,43.401017,0
-87.890571,43.401305,0
-87.891122,43.401685,0
-87.891891,43.402235,0
-87.892389,43.402592,0
-87.892976,43.403011,0
-87.893460,43.403358,0
-87.894075,43.403798,0
-87.894504,43.404105,0
-87.895247,43.404636,0
-87.895925,43.405121,0
-87.896536,43.405595,0
-87.896888,43.405869,0
-87.896938,43.405908,0
-87.897114,43.406046,0
-87.896955,43.406136,0
-87.896373,43.406512,0
-87.895454,43.406903,0
-87.894686,43.407229,0
-87.893596,43.407625,0
-87.892528,43.408008,0
-87.891796,43.408252,0
-87.890656,43.408652,0
-87.889798,43.408993,0
-87.888680,43.409437,0
-87.887273,43.409905,0
-87.886160,43.410219,0
-87.884752,43.410548,0
-87.883549,43.410715,0
-87.882186,43.410850,0
-87.880909,43.410974,0
-87.879445,43.410996,0
-87.878460,43.411027,0
-87.877102,43.411070,0
-87.876015,43.411102,0
-87.875340,43.411062,0
-87.874302,43.410934,0
-87.872858,43.410754,0
-87.872022,43.410649,0
-87.871633,43.410601,0
-87.871454,43.410578,0
-87.871280,43.410557,0
-87.871185,43.410545,0
-87.870813,43.410642,0
-87.869972,43.410877,0
-87.868947,43.411213,0
-87.867793,43.411591,0
-87.866661,43.412107,0
-87.865846,43.412528,0
-87.865163,43.412933,0
-87.864581,43.413428,0
-87.863909,43.414123,0
-87.863147,43.414913,0
-87.862319,43.415770,0
-87.861710,43.416402,0
-87.860910,43.417205,0
-87.860222,43.417874,0
-87.859508,43.418585,0
-87.858829,43.419307,0
-87.857945,43.420228,0
-87.857041,43.421142,0
-87.856187,43.422004,0
-87.855643,43.422554,0
-87.854755,43.423453,0
-87.854044,43.424174,0
-87.853354,43.424880,0
-87.852428,43.425825,0
-87.851603,43.426594,0
-87.850760,43.427373,0
-87.849849,43.428121,0
-87.849137,43.428699,0
-87.848366,43.429323,0
-87.847419,43.430040,0
-87.846582,43.430675,0
-87.845553,43.431460,0
-87.844808,43.432046,0
-87.843730,43.432987,0
-87.843059,43.433623,0
-87.842538,43.434198,0
-87.842020,43.434999,0
-87.841592,43.435745,0
-87.841361,43.436627,0
-87.841210,43.437204,0
-87.841132,43.437783,0
-87.841114,43.438270,0
-87.841103,43.438553,0
-87.841086,43.439021,0
-87.841058,43.439762,0
-87.841032,43.440450,0
-87.841013,43.440938,0
-87.840977,43.441907,0
-87.840952,43.442968,0
-87.840931,43.443957,0
-87.840906,43.445091,0
-87.840887,43.445980,0
-87.840871,43.446682,0
-87.840844,43.447941,0
-87.840822,43.448935,0
-87.840803,43.449806,0
-87.840783,43.450748,0
-87.840763,43.451690,0
-87.840740,43.452734,0
-87.840713,43.453957,0
-87.840692,43.454939,0
-87.840679,43.455545,0
-87.840674,43.455781,0
-87.840389,43.455821,0
-87.840267,43.455821,0
-87.839256,43.455821,0
-87.838445,43.455821,0
-87.837316,43.455821,0
-87.836006,43.455821,0
-87.834053,43.455821,0
-87.832265,43.455864,0
-87.830470,43.455869,0
-87.828944,43.455875,0
-87.827741,43.455879,0
-87.826231,43.455885,0
-87.824671,43.455890,0
-87.823123,43.455896,0
-87.821749,43.455901,0
-87.820708,43.455905,0
-87.820422,43.455906,0
-87.820338,43.456203,0
-87.820354,43.456794,0
-87.820367,43.457268,0
-87.820383,43.457883,0
-87.820403,43.458642,0
-87.820425,43.459456,0
-87.820448,43.460329,0
-87.820472,43.461335,0
-87.820491,43.462229,0
-87.820512,43.463222,0
-87.820532,43.464148,0
-87.820557,43.465332,0
-87.820578,43.466346,0
-87.820588,43.467450,0
-87.820588,43.468541,0
-87.820588,43.469368,0
-87.820588,43.470039,0
-87.820590,43.470771,0
-87.820595,43.471648,0
-87.820602,43.472725,0
-87.820608,43.473772,0
-87.820613,43.474725,0
-87.820619,43.475590,0
-87.820624,43.476506,0
-87.820629,43.477311,0
-87.820634,43.478170,0
-87.820639,43.479085,0
-87.820644,43.479979,0
-87.820650,43.480872,0
-87.820656,43.481894,0
-87.820660,43.482709,0
-87.820665,43.483424,0
-87.820668,43.484052,0
-87.820672,43.484620,0
-87.820674,43.484933,0
-87.820676,43.485323,0
-87.820679,43.485866,0
-87.820683,43.486530,0
-87.820687,43.487239,0
-87.820692,43.488020,0
-87.820698,43.489040,0
-87.820703,43.489995,0
-87.820709,43.490999,0
-87.820713,43.491666,0
-87.820718,43.492495,0
-87.820724,43.493454,0
-87.820728,43.494155,0
-87.820732,43.494836,0
-87.820736,43.495584,0
-87.820741,43.496304,0
-87.820744,43.496952,0
-87.820748,43.497606,0
-87.820749,43.497755,0
-87.820752,43.498164,0
-87.820752,43.498295,0
-87.820754,43.498504,0
-87.820754,43.498534,0
-87.820754,43.498584,0
-87.820755,43.498809,0
-87.820756,43.498856,0
-87.820757,43.499035,0
-87.820758,43.499242,0
-87.820759,43.499449,0
-87.820666,43.499550,0
-87.820609,43.499550,0
-87.820047,43.499543,0
-87.819545,43.499537,0
-87.819078,43.499532,0
-87.818685,43.499527,0
-87.817699,43.499516,0
-87.816864,43.499506,0
-87.816052,43.499497,0
-87.815241,43.499487,0
-87.813643,43.499469,0
-87.812483,43.499465,0
-87.811170,43.499457,0
-87.809571,43.499438,0
-87.808422,43.499425,0
-87.806963,43.499407,0
-87.805681,43.499392,0
-87.803674,43.499369,0
-87.802271,43.499352,0
-87.801510,43.499343,0
-87.801378,43.499341,0
-87.801066,43.499338,0
-87.800975,43.499509,0
-87.800974,43.499587,0
-87.800968,43.500366,0
-87.800963,43.501118,0
-87.800958,43.501734,0
-87.800953,43.502465,0
-87.800945,43.503486,0
-87.800934,43.504952,0
-87.800933,43.506143,0
-87.800933,43.507036,0
-87.800933,43.507926,0
-87.800933,43.508817,0
-87.800933,43.509616,0
-87.800933,43.510524,0
-87.800933,43.511529,0
-87.800933,43.512640,0
-87.800933,43.513682,0
-87.800943,43.514387,0
-87.800961,43.515224,0
-87.800984,43.516305,0
-87.801003,43.517225,0
-87.801004,43.518136,0
-87.800927,43.519227,0
-87.800905,43.520229,0
-87.800904,43.521213,0
-87.800930,43.521833,0
-87.800968,43.522737,0
-87.801003,43.523560,0
-87.800909,43.524404,0
-87.800904,43.525136,0
-87.800913,43.525565,0
-87.800931,43.526387,0
-87.800947,43.527123,0
-87.800961,43.527785,0
-87.800974,43.528732,0
-87.800969,43.529576,0
-87.800964,43.530195,0
-87.800960,43.530869,0
-87.800955,43.531635,0
-87.800950,43.532374,0
-87.800944,43.533204,0
-87.800939,43.533917,0
-87.800933,43.534879,0
-87.800933,43.535708,0
-87.800933,43.536666,0
-87.800933,43.537275,0
-87.800919,43.537969,0
-87.800888,43.538834,0
-87.800861,43.539594,0
-87.800833,43.540390,0
-87.800814,43.540917,0
-87.800816,43.541676,0
-87.800831,43.542349,0
-87.800847,43.543025,0
-87.800839,43.544010,0
-87.800833,43.544838,0
-87.800825,43.545884,0
-87.800820,43.546457,0
-87.800815,43.547063,0
-87.800809,43.547837,0
-87.800804,43.548473,0
-87.800778,43.549236,0
-87.800747,43.550095,0
-87.800725,43.550748,0
-87.800713,43.551704,0
-87.800708,43.552499,0
-87.800702,43.553408,0
-87.800697,43.554215,0
-87.800692,43.555051,0
-87.800688,43.555645,0
-87.800684,43.556282,0
-87.800678,43.557108,0
-87.800674,43.557640,0
-87.800664,43.558434,0
-87.800655,43.559115,0
-87.800646,43.559792,0
-87.800636,43.560508,0
-87.800625,43.561351,0
-87.800615,43.562083,0
-87.800606,43.562816,0
-87.800595,43.563580,0
-87.800541,43.564277,0
-87.800357,43.564881,0
-87.800081,43.565491,0
-87.799598,43.566256,0
-87.799223,43.566850,0
-87.798857,43.567331,0
-87.798460,43.567671,0
-87.797961,43.567962,0
-87.797331,43.568126,0
-87.796668,43.568227,0
-87.795758,43.568365,0
-87.795283,43.568519,0
-87.795167,43.568566,0
-87.794798,43.568814,0
-87.794672,43.569060,0
-87.794624,43.569203,0
-87.794781,43.569630,0
-87.794980,43.569812,0
-87.795492,43.570078,0
-87.796284,43.570409,0
-87.797156,43.570706,0
-87.797871,43.570930,0
-87.798900,43.571246,0
-87.799840,43.571540,0
-87.800123,43.571629,0
-87.800457,43.571734,0
-87.800453,43.572019,0
-87.800439,43.572557,0
-87.800423,43.573153,0
-87.800399,43.574038,0
-87.800379,43.574778,0
-87.800362,43.575414,0
-87.800346,43.576024,0
-87.800332,43.576560,0
-87.800320,43.577005,0
-87.800310,43.577386,0
-87.800296,43.577911,0
-87.800283,43.578374,0
-87.800271,43.578843,0
-87.800252,43.579538,0
-87.800227,43.580481,0
-87.800208,43.581194,0
-87.800004,43.581902,0
-87.799756,43.582526,0
-87.799413,43.583122,0
-87.798827,43.584141,0
-87.798363,43.584946,0
-87.797856,43.585828,0
-87.797394,43.586629,0
-87.797066,43.587226,0
-87.796746,43.587809,0
-87.796399,43.588440,0
-87.795920,43.589401,0
-87.795552,43.590206,0
-87.795247,43.590870,0
-87.794865,43.591705,0
-87.794527,43.592441,0
-87.794150,43.593264,0
-87.793693,43.594262,0
-87.793307,43.595103,0
-87.792998,43.595777,0
-87.792571,43.596709,0
-87.792215,43.597486,0
-87.791865,43.598250,0
-87.791504,43.599036,0
-87.791141,43.599830,0
-87.790752,43.600678,0
-87.790329,43.601586,0
-87.789912,43.602461,0
-87.789496,43.603334,0
-87.789187,43.603983,0
-87.788784,43.604827,0
-87.788362,43.605713,0
-87.787824,43.606846,0
-87.787468,43.607617,0
-87.787176,43.608248,0
-87.786876,43.608897,0
-87.786569,43.609563,0
-87.786273,43.610203,0
-87.785971,43.610855,0
-87.785918,43.610970,0
-87.785623,43.611609,0
-87.785376,43.612143,0
-87.785026,43.612900,0
-87.784621,43.613775,0
-87.784324,43.614419,0
-87.784234,43.614614,0
-87.783999,43.615121,0
-87.783745,43.615671,0
-87.783366,43.616488,0
-87.783093,43.617076,0
-87.782779,43.617753,0
-87.782458,43.618444,0
-87.782165,43.619076,0
-87.781839,43.619779,0
-87.781529,43.620447,0
-87.781276,43.620993,0
-87.780840,43.621911,0
-87.780586,43.622443,0
-87.780397,43.622840,0
-87.780327,43.622986,0
-87.780312,43.623018,0
-87.780266,43.623116,0
-87.780253,43.623143,0
-87.780184,43.623293,0
-87.780004,43.623683,0
-87.779803,43.624118,0
-87.779501,43.624773,0
-87.779227,43.625367,0
-87.778841,43.626203,0
-87.778548,43.626838,0
-87.778162,43.627673,0
-87.777857,43.628334,0
-87.777550,43.629000,0
-87.777272,43.629603,0
-87.777047,43.630091,0
-87.776984,43.630228,0
-87.776921,43.630365,0
-87.776187,43.630310,0
-87.775599,43.630306,0
-87.774932,43.630302,0
-87.773988,43.630296,0
-87.772756,43.630289,0
-87.771393,43.630281,0
-87.770036,43.630272,0
-87.769433,43.630271,0
-87.767801,43.630244,0
-87.766942,43.630230,0
-87.765875,43.630213,0
-87.764468,43.630189,0
-87.763570,43.630174,0
-87.762557,43.630158,0
-87.761232,43.630136,0
-87.760950,43.630131,0
-87.759707,43.630111,0
-87.759452,43.630106,0
-87.759124,43.630101,0
-87.759047,43.630270,0
-87.759046,43.630352,0
-87.759042,43.631055,0
-87.759039,43.631667,0
-87.759035,43.632284,0
-87.759031,43.633003,0
-87.759028,43.633544,0
-87.759024,43.634307,0
-87.759019,43.635143,0
-87.759014,43.635981,0
-87.759011,43.636563,0
-87.759006,43.637415,0
-87.759009,43.638243,0
-87.759012,43.638846,0
-87.759016,43.639453,0
-87.759020,43.640135,0
-87.759025,43.641008,0
-87.759031,43.641895,0
-87.759035,43.642588,0
-87.759039,43.643178,0
-87.759043,43.643838,0
-87.759047,43.644553,0
-87.759084,43.645243,0
-87.759129,43.645958,0
-87.759163,43.646516,0
-87.759199,43.647089,0
-87.759236,43.647685,0
-87.759273,43.648295,0
-87.759310,43.648879,0
-87.759347,43.649475,0
-87.759394,43.650235,0
-87.759425,43.650749,0
-87.759460,43.651310,0
-87.759505,43.652025,0
-87.759560,43.652930,0
-87.759612,43.653754,0
-87.759664,43.654597,0
-87.759713,43.655384,0
-87.759756,43.656086,0
-87.759804,43.656861,0
-87.759837,43.657391,0
-87.759888,43.658221,0
-87.759933,43.658944,0
-87.759937,43.659010,0
-87.759949,43.659196,0
-87.759575,43.659185,0
-87.758699,43.659157,0
-87.757625,43.659124,0
-87.756260,43.659081,0
-87.755055,43.659043,0
-87.753639,43.658999,0
-87.752044,43.658949,0
-87.750655,43.658905,0
-87.749387,43.658866,0
-87.748321,43.658832,0
-87.746868,43.658787,0
-87.745337,43.658739,0
-87.743929,43.658695,0
-87.742752,43.658658,0
-87.741652,43.658623,0
-87.740521,43.658588,0
-87.739799,43.658565,0
-87.739502,43.658556,0
-87.739450,43.658554,0
-87.739509,43.659604,0
-87.739573,43.660182,0
-87.739653,43.660895,0
-87.739732,43.661611,0
-87.739817,43.662378,0
-87.739865,43.662985,0
-87.739872,43.663072,0
-87.739939,43.663948,0
-87.740000,43.664737,0
-87.740065,43.665585,0
-87.740105,43.666400,0
-87.740133,43.667087,0
-87.740160,43.667741,0
-87.740197,43.668626,0
-87.740231,43.669448,0
-87.740262,43.670207,0
-87.740286,43.670800,0
-87.740314,43.671478,0
-87.740345,43.672211,0
-87.740362,43.672646,0
-87.740375,43.672941,0
-87.740378,43.673019,0
-87.740182,43.673054,0
-87.739764,43.673046,0
-87.739047,43.673032,0
-87.738050,43.673013,0
-87.737076,43.672994,0
-87.736039,43.672974,0
-87.735091,43.672956,0
-87.733987,43.672934,0
-87.732996,43.672915,0
-87.732130,43.672898,0
-87.731083,43.672878,0
-87.730246,43.672862,0
-87.729235,43.672842,0
-87.728132,43.672821,0
-87.726867,43.672797,0
-87.726093,43.672783,0
-87.724914,43.672761,0
-87.723822,43.672748,0
-87.722791,43.672737,0
-87.721940,43.672728,0
-87.721394,43.672723,0
-87.720908,43.672718,0
-87.720654,43.672715,0
-87.720640,43.672913,0
-87.720647,43.673540,0
-87.720653,43.674161,0
-87.720663,43.675085,0
-87.720669,43.675631,0
-87.720676,43.676368,0
-87.720686,43.677288,0
-87.720697,43.678383,0
-87.720708,43.679399,0
-87.720714,43.680005,0
-87.720723,43.680868,0
-87.720732,43.681547,0
-87.720742,43.682237,0
-87.720753,43.682963,0
-87.720760,43.683490,0
-87.720774,43.684485,0
-87.720787,43.685393,0
-87.720799,43.686226,0
-87.720810,43.686982,0
-87.720810,43.687681,0
-87.720810,43.688276,0
-87.720810,43.688727,0
-87.720810,43.689141,0
-87.720810,43.689544,0
-87.720810,43.689967,0
-87.720810,43.690585,0
-87.720806,43.691207,0
-87.720799,43.691678,0
-87.720789,43.692315,0
-87.720780,43.692872,0
-87.720771,43.693428,0
-87.720767,43.693887,0
-87.720767,43.694351,0
-87.720761,43.694958,0
-87.720751,43.695736,0
-87.720741,43.696512,0
-87.720735,43.697020,0
-87.720726,43.697683,0
-87.720707,43.698345,0
-87.720688,43.698915,0
-87.720679,43.699400,0
-87.720656,43.700062,0
-87.720630,43.700849,0
-87.720615,43.701279,0
-87.720605,43.701574,0
-87.720599,43.701765,0
-87.720357,43.701850,0
-87.720237,43.701848,0
-87.719142,43.701829,0
-87.718368,43.701815,0
-87.717791,43.701811,0
-87.717141,43.701811,0
-87.716450,43.701811,0
-87.715506,43.701811,0
-87.714460,43.701811,0
-87.713658,43.701788,0
-87.712702,43.701763,0
-87.712210,43.701754,0
-87.711464,43.701741,0
-87.710976,43.701733,0
-87.710666,43.701727,0
-87.710550,43.701974,0
-87.710541,43.702641,0
-87.710529,43.703475,0
-87.710520,43.704132,0
-87.710509,43.704885,0
-87.710465,43.705562,0
-87.710442,43.706276,0
-87.710421,43.706908,0
-87.710393,43.707726,0
-87.710374,43.708343,0
-87.710356,43.708955,0
-87.710339,43.709518,0
-87.710328,43.709899,0
-87.710298,43.710894,0
-87.710271,43.711814,0
-87.710246,43.712651,0
-87.710225,43.713377,0
-87.710210,43.713871,0
-87.710181,43.714658,0
-87.710158,43.715299,0
-87.710132,43.716019,0
-87.710165,43.716573,0
-87.710240,43.717195,0
-87.710277,43.717506,0
-87.710330,43.717950,0
-87.710376,43.718511,0
-87.710350,43.719176,0
-87.710339,43.719986,0
-87.710339,43.720636,0
-87.710339,43.721447,0
-87.710339,43.722355,0
-87.710337,43.723002,0
-87.710313,43.723570,0
-87.710315,43.724398,0
-87.710339,43.725302,0
-87.710338,43.725957,0
-87.710322,43.726699,0
-87.710308,43.727327,0
-87.710297,43.727858,0
-87.710296,43.728651,0
-87.710296,43.729300,0
-87.710308,43.730019,0
-87.710364,43.730682,0
-87.710407,43.731187,0
-87.710464,43.731857,0
-87.710528,43.732503,0
-87.710585,43.733139,0
-87.710629,43.733657,0
-87.710667,43.734119,0
-87.710811,43.734449,0
-87.710879,43.734528,0
-87.711148,43.734668,0
-87.711317,43.734960,0
-87.711317,43.734960,0
-87.711287,43.735736,0
-87.711283,43.736210,0
-87.711283,43.736604,0
-87.711283,43.736839,0
-87.711283,43.736916,0
-87.711283,43.736950,0
-87.711283,43.736950,0
-87.711283,43.737003,0
-87.711283,43.737211,0
-87.711283,43.737480,0
-87.711283,43.737665,0
-87.711292,43.738073,0
-87.711326,43.738375,0
-87.711313,43.738828,0
-87.711301,43.739287,0
-87.711291,43.739649,0
-87.711283,43.740157,0
-87.711283,43.740723,0
-87.711283,43.741302,0
-87.711283,43.741707,0
-87.711283,43.742314,0
-87.711283,43.742897,0
-87.711283,43.743092,0
-87.711283,43.743182,0
-87.711532,43.743194,0
-87.712029,43.743219,0
-87.712341,43.743324,0
-87.712460,43.743419,0
-87.712699,43.743611,0
-87.712891,43.743830,0
-87.712933,43.743879,0
-87.712956,43.744419,0
-87.712956,43.744925,0
-87.712956,43.745132,0
-87.712956,43.745328,0
-87.712747,43.745413,0
-87.712259,43.745483,0
-87.712110,43.745598,0
-87.711666,43.746387,0
-87.711624,43.746461,0
-87.711391,43.746876,0
-87.711338,43.747162,0
-87.711271,43.747763,0
-87.711256,43.747955,0
-87.711173,43.748254,0
-87.711052,43.748423,0
-87.710667,43.748621,0
-87.710569,43.748643,0
-87.710358,43.748690,0
-87.709908,43.748813,0
-87.709692,43.749004,0
-87.709662,43.749289,0
-87.709645,43.749447,0
-87.709624,43.749652,0
-87.709445,43.749791,0
-87.708919,43.749791,0
-87.708402,43.749791,0
-87.707683,43.749785,0
-87.706746,43.749759,0
-87.706489,43.749752,0
-87.705639,43.749748,0
-87.705088,43.749748,0
-87.704717,43.749748,0
-87.704611,43.749942,0
-87.704290,43.750530,0
-87.704143,43.751018,0
-87.704037,43.751597,0
-87.704030,43.752052,0
-87.704030,43.752603,0
-87.704030,43.753204,0
-87.704139,43.753600,0
-87.704426,43.754054,0
-87.704570,43.754358,0
-87.704739,43.754891,0
-87.704783,43.755397,0
-87.704713,43.755958,0
-87.704594,43.756520,0
-87.704440,43.756999,0
-87.704288,43.757473,0
-87.703857,43.757978,0
-87.703484,43.758542,0
-87.703058,43.759086,0
-87.702528,43.759764,0
-87.701998,43.760441,0
-87.701447,43.760917,0
-87.701008,43.761261,0
-87.700494,43.761574,0
-87.699729,43.761927,0
-87.698985,43.762137,0
-87.698209,43.762297,0
-87.697443,43.762454,0
-87.696801,43.762717,0
-87.696476,43.763009,0
-87.696207,43.763338,0
-87.696059,43.763777,0
-87.696030,43.764009,0
-87.696056,43.764313,0
-87.696292,43.764573,0
-87.696666,43.764708,0
-87.696956,43.764735,0
-87.697240,43.764747,0
-87.697649,43.764764,0
-87.698387,43.764795,0
-87.698806,43.764807,0
-87.699306,43.764768,0
-87.699562,43.764682,0
-87.699653,43.764859,0
-87.699653,43.764923,0
-87.699754,43.765287,0
-87.699910,43.765412,0
-87.700350,43.765541,0
-87.700462,43.765546,0
-87.701305,43.765584,0
-87.702197,43.765584,0
-87.702961,43.765584,0
-87.703832,43.765607,0
-87.704309,43.765620,0
-87.704385,43.765622,0
-87.704584,43.765626,0
-87.704545,43.765713,0
-87.704545,43.766000,0
-87.704545,43.766797,0
-87.704545,43.767395,0
-87.704545,43.767962,0
-87.704545,43.768330,0
-87.704545,43.769198,0
-87.704545,43.769793,0
-87.704545,43.770596,0
-87.704545,43.771030,0
-87.704745,43.771427,0
-87.705225,43.772047,0
-87.705544,43.772533,0
-87.705913,43.773230,0
-87.706255,43.773608,0
-87.706653,43.773771,0
-87.707100,43.773794,0
-87.707943,43.773822,0
-87.708532,43.773823,0
-87.709013,43.773823,0
-87.709709,43.773823,0
-87.710288,43.773823,0
-87.710517,43.773823,0
-87.711085,43.773823,0
-87.711765,43.773836,0
-87.712404,43.773852,0
-87.712728,43.773860,0
-87.712956,43.773866,0
-87.713364,43.773856,0
-87.714086,43.773837,0
-87.714890,43.773831,0
-87.715711,43.773852,0
-87.716360,43.773869,0
-87.717166,43.773889,0
-87.718087,43.773905,0
-87.719050,43.773881,0
-87.719903,43.773871,0
-87.720989,43.773891,0
-87.721658,43.773903,0
-87.721939,43.773908,0
-87.722210,43.773909,0
-87.722802,43.773909,0
-87.723454,43.773909,0
-87.724037,43.773909,0
-87.724344,43.773909,0
-87.724653,43.773911,0
-87.724911,43.773913,0
-87.725587,43.773920,0
-87.726222,43.773926,0
-87.727458,43.773938,0
-87.728386,43.773946,0
-87.729171,43.773952,0
-87.729956,43.773952,0
-87.730754,43.773952,0
-87.731788,43.773952,0
-87.732689,43.773952,0
-87.733779,43.773952,0
-87.734214,43.773952,0
-87.734483,43.773952,0
-87.734543,43.774100,0
-87.734543,43.774829,0
-87.734543,43.775587,0
-87.734553,43.776307,0
-87.734589,43.777234,0
-87.734609,43.777966,0
-87.734626,43.778564,0
-87.734655,43.779572,0
-87.734681,43.780385,0
-87.734726,43.781363,0
-87.734761,43.782108,0
-87.734785,43.782628,0
-87.734798,43.782921,0
-87.734854,43.783346,0
-87.735068,43.783674,0
-87.735409,43.784046,0
-87.735982,43.784667,0
-87.736512,43.785226,0
-87.736876,43.785597,0
-87.736989,43.785711,0
-87.737278,43.786258,0
-87.737341,43.786590,0
-87.737372,43.787114,0
-87.737405,43.787672,0
-87.737435,43.788190,0
-87.737473,43.788660,0
-87.737701,43.788998,0
-87.737771,43.789048,0
-87.738386,43.789400,0
-87.739149,43.789800,0
-87.739806,43.790148,0
-87.740081,43.790396,0
-87.740105,43.790480,0
-87.740165,43.791169,0
-87.740165,43.791840,0
-87.740175,43.792396,0
-87.740191,43.793060,0
-87.740205,43.793665,0
-87.740208,43.794419,0
-87.740208,43.794998,0
-87.740208,43.795754,0
-87.740208,43.796221,0
-87.740208,43.796771,0
-87.740208,43.797242,0
-87.740197,43.797363,0
-87.740077,43.797462,0
-87.739975,43.797503,0
-87.739457,43.797518,0
-87.738655,43.797527,0
-87.737572,43.797538,0
-87.736650,43.797548,0
-87.736298,43.797552,0
-87.736181,43.797553,0
-87.736055,43.797649,0
-87.736105,43.797738,0
-87.736347,43.798166,0
-87.736669,43.798734,0
-87.736832,43.799022,0
-87.737246,43.799755,0
-87.737644,43.800458,0
-87.737868,43.800855,0
-87.738275,43.801574,0
-87.738782,43.802475,0
-87.739225,43.803264,0
-87.739676,43.804066,0
-87.740181,43.804973,0
-87.740422,43.805495,0
-87.740549,43.806448,0
-87.740597,43.807251,0
-87.740602,43.808162,0
-87.740608,43.809014,0
-87.740614,43.809990,0
-87.740619,43.810884,0
-87.740624,43.811668,0
-87.740630,43.812529,0
-87.740637,43.813646,0
-87.740642,43.814419,0
-87.740648,43.815282,0
-87.740654,43.816219,0
-87.740659,43.816999,0
-87.740666,43.817993,0
-87.740673,43.819067,0
-87.740678,43.819757,0
-87.740679,43.819985,0
-87.740985,43.820041,0
-87.741832,43.820033,0
-87.742710,43.820026,0
-87.743967,43.820015,0
-87.745034,43.820006,0
-87.745874,43.819999,0
-87.747091,43.819978,0
-87.748214,43.819958,0
-87.749659,43.819933,0
-87.751099,43.819908,0
-87.752531,43.819884,0
-87.753569,43.819866,0
-87.754568,43.819848,0
-87.755877,43.819826,0
-87.756899,43.819808,0
-87.758070,43.819788,0
-87.759339,43.819766,0
-87.760168,43.819752,0
-87.760416,43.819747,0
-87.760666,43.819743,0
-87.760679,43.819969,0
-87.760681,43.820594,0
-87.760683,43.821422,0
-87.760685,43.822169,0
-87.760688,43.822916,0
-87.760689,43.823508,0
-87.760691,43.824081,0
-87.760694,43.824949,0
-87.760696,43.825768,0
-87.760698,43.826549,0
-87.760701,43.827602,0
-87.760704,43.828421,0
-87.760707,43.829385,0
-87.760709,43.830172,0
-87.760711,43.830818,0
-87.760714,43.831922,0
-87.760717,43.832856,0
-87.760719,43.833638,0
-87.760721,43.834024,0
-87.760721,43.834300,0
-87.761016,43.834289,0
-87.761815,43.834284,0
-87.762492,43.834280,0
-87.763520,43.834273,0
-87.764443,43.834267,0
-87.765613,43.834260,0
-87.766854,43.834252,0
-87.767714,43.834240,0
-87.768774,43.834209,0
-87.769684,43.834112,0
-87.770483,43.834037,0
-87.771284,43.834055,0
-87.771798,43.834067,0
-87.772603,43.834086,0
-87.773560,43.834108,0
-87.774286,43.834117,0
-87.774604,43.834113,0
-87.775241,43.834105,0
-87.776316,43.834092,0
-87.777455,43.834078,0
-87.778543,43.834064,0
-87.779728,43.834050,0
-87.780299,43.834043,0
-87.780736,43.834037,0
-87.781181,43.834032,0
-87.781774,43.834024,0
-87.782463,43.834014,0
-87.783369,43.834002,0
-87.784367,43.833988,0
-87.785249,43.833976,0
-87.786101,43.833965,0
-87.787103,43.833951,0
-87.788235,43.833936,0
-87.789276,43.833921,0
-87.790580,43.833904,0
-87.791602,43.833896,0
-87.792574,43.833888,0
-87.793474,43.833880,0
-87.794470,43.833872,0
-87.795967,43.833860,0
-87.796962,43.833851,0
-87.798121,43.833842,0
-87.799036,43.833834,0
-87.799851,43.833827,0
-87.800719,43.833820,0
-87.801465,43.833819,0
-87.802354,43.833819,0
-87.803321,43.833819,0
-87.804391,43.833819,0
-87.805393,43.833819,0
-87.806327,43.833819,0
-87.807448,43.833819,0
-87.808482,43.833819,0
-87.809753,43.833819,0
-87.810569,43.833819,0
-87.810675,43.833819,0
-87.810950,43.833819,0
-87.810977,43.833973,0
-87.810980,43.834240,0
-87.810987,43.834839,0
-87.810996,43.835566,0
-87.811005,43.836344,0
-87.811013,43.836989,0
-87.811024,43.837919,0
-87.811033,43.838664,0
-87.811043,43.839513,0
-87.811043,43.839513,0
-87.811053,43.840330,0
-87.811062,43.841204,0
-87.811067,43.842061,0
-87.811072,43.842898,0
-87.811076,43.843588,0
-87.811080,43.844243,0
-87.811084,43.844923,0
-87.811088,43.845734,0
-87.811092,43.846372,0
-87.811097,43.847155,0
-87.811101,43.847913,0
-87.811103,43.848160,0
-87.811104,43.848347,0
-87.811343,43.848367,0
-87.811982,43.848367,0
-87.812880,43.848367,0
-87.814469,43.848367,0
-87.816022,43.848367,0
-87.817327,43.848367,0
-87.818445,43.848367,0
-87.819567,43.848367,0
-87.820419,43.848367,0
-87.820911,43.848367,0
-87.821465,43.848367,0
-87.822169,43.848367,0
-87.822816,43.848367,0
-87.823570,43.848367,0
-87.824328,43.848367,0
-87.824876,43.848367,0
-87.825972,43.848367,0
-87.826754,43.848367,0
-87.827626,43.848367,0
-87.828491,43.848367,0
-87.829659,43.848367,0
-87.830761,43.848367,0
-87.831900,43.848367,0
-87.832761,43.848367,0
-87.833773,43.848367,0
-87.834861,43.848367,0
-87.836218,43.848367,0
-87.836814,43.848367,0
-87.837304,43.848265,0
-87.837531,43.848195,0
-87.837609,43.848171,0
-87.837887,43.848080,0
-87.838043,43.848028,0
-87.838422,43.847944,0
-87.838520,43.847969,0
-87.839368,43.848181,0
-87.840041,43.848328,0
-87.840772,43.848353,0
-87.841895,43.848365,0
-87.842859,43.848362,0
-87.843732,43.848359,0
-87.844837,43.848355,0
-87.845956,43.848352,0
-87.847057,43.848348,0
-87.848044,43.848345,0
-87.849080,43.848342,0
-87.849679,43.848340,0
-87.850249,43.848338,0
-87.851032,43.848335,0
-87.851889,43.848333,0
-87.852859,43.848330,0
-87.854253,43.848325,0
-87.855599,43.848321,0
-87.856668,43.848317,0
-87.857622,43.848314,0
-87.858878,43.848310,0
-87.860129,43.848306,0
-87.861479,43.848302,0
-87.862544,43.848298,0
-87.863877,43.848294,0
-87.865001,43.848290,0
-87.866339,43.848286,0
-87.867458,43.848282,0
-87.868532,43.848289,0
-87.869781,43.848301,0
-87.870905,43.848312,0
-87.871764,43.848320,0
-87.872915,43.848331,0
-87.873887,43.848341,0
-87.874798,43.848349,0
-87.875662,43.848358,0
-87.876368,43.848365,0
-87.877379,43.848375,0
-87.878385,43.848384,0
-87.879607,43.848396,0
-87.880250,43.848402,0
-87.880676,43.848406,0
-87.880802,43.848408,0
-87.881039,43.848410,0
-87.881056,43.848262,0
-87.881056,43.847802,0
-87.881056,43.847208,0
-87.881056,43.846305,0
-87.881056,43.845415,0
-87.881056,43.844796,0
-87.881056,43.844557,0
-87.881056,43.844516,0
-87.881056,43.844423,0
-87.881056,43.844371,0
-87.881056,43.844291,0
-87.881056,43.843922,0
-87.881056,43.843742,0
-87.881183,43.843659,0
-87.881238,43.843665,0
-87.881749,43.843646,0
-87.882007,43.843593,0
-87.882089,43.843441,0
-87.882096,43.843373,0
-87.882111,43.843230,0
-87.882133,43.843000,0
-87.882149,43.842849,0
-87.882172,43.842617,0
-87.881902,43.842436,0
-87.881780,43.842358,0
-87.881099,43.842163,0
-87.881099,43.842104,0
-87.881099,43.841604,0
-87.881099,43.841310,0
-87.881099,43.841022,0
-87.881652,43.840900,0
-87.881773,43.840896,0
-87.882774,43.840810,0
-87.883876,43.840650,0
-87.884497,43.840642,0
-87.884766,43.840642,0
-87.885040,43.840642,0
-87.885049,43.840760,0
-87.885056,43.841129,0
-87.885066,43.841668,0
-87.885076,43.842207,0
-87.885077,43.842282,0
-87.885084,43.842633,0
-87.885087,43.842813,0
-87.884919,43.842972,0
-87.884225,43.842924,0
-87.883400,43.842871,0
-87.882904,43.842768,0
-87.882710,43.842728,0
-87.882334,43.842650,0
-87.882157,43.842768,0
-87.882140,43.842938,0
-87.882095,43.843387,0
-87.882017,43.843578,0
-87.881877,43.843624,0
-87.881394,43.843680,0
-87.881154,43.843656,0
-87.881059,43.843567,0
-87.881071,43.843190,0
-87.881086,43.842715,0
-87.881099,43.841773,0
-87.881098,43.840879,0
-87.881084,43.840131,0
-87.881062,43.839005,0
-87.881056,43.838356,0
-87.881056,43.837446,0
-87.881056,43.836536,0
-87.881056,43.835407,0
-87.881056,43.834550,0
-87.881056,43.834147,0
-87.881056,43.833932,0
-87.881056,43.833885,0
-87.881056,43.833819,0
-87.881044,43.833455,0
-87.881030,43.833011,0
-87.881012,43.832429,0
-87.880993,43.831834,0
-87.880967,43.831028,0
-87.880938,43.830107,0
-87.880911,43.829278,0
-87.880888,43.828539,0
-87.880864,43.827792,0
-87.880846,43.827239,0
-87.880841,43.826303,0
-87.880841,43.825569,0
-87.880841,43.824825,0
-87.880841,43.824172,0
-87.880841,43.823539,0
-87.880841,43.822894,0
-87.880841,43.822026,0
-87.880841,43.821138,0
-87.880841,43.820456,0
-87.880841,43.819737,0
-87.880841,43.819503,0
-87.880841,43.819323,0
-87.881216,43.819314,0
-87.882191,43.819314,0
-87.883010,43.819314,0
-87.884283,43.819314,0
-87.885323,43.819314,0
-87.886505,43.819315,0
-87.887717,43.819318,0
-87.889148,43.819322,0
-87.890186,43.819325,0
-87.891268,43.819328,0
-87.892470,43.819332,0
-87.893512,43.819335,0
-87.894447,43.819338,0
-87.895642,43.819341,0
-87.896760,43.819344,0
-87.898085,43.819348,0
-87.899295,43.819352,0
-87.900047,43.819354,0
-87.900616,43.819355,0
-87.900971,43.819356,0
-87.901338,43.819358,0
-87.901893,43.819360,0
-87.902647,43.819364,0
-87.903885,43.819369,0
-87.904872,43.819373,0
-87.906120,43.819378,0
-87.907570,43.819385,0
-87.908960,43.819391,0
-87.909998,43.819395,0
-87.910478,43.819397,0
-87.910895,43.819399,0
-87.911012,43.819230,0
-87.911012,43.819230,0
-87.911016,43.818417,0
-87.911019,43.817900,0
-87.911022,43.817327,0
-87.911026,43.816561,0
-87.911030,43.815764,0
-87.911034,43.814971,0
-87.911038,43.814271,0
-87.911042,43.813478,0
-87.911047,43.812567,0
-87.911051,43.811737,0
-87.911054,43.810792,0
-87.911054,43.809852,0
-87.911054,43.808815,0
-87.911054,43.807872,0
-87.911054,43.807212,0
-87.911054,43.806405,0
-87.911054,43.805500,0
-87.911054,43.805183,0
-87.911054,43.804894,0
-87.910762,43.804893,0
-87.909839,43.804889,0
-87.908969,43.804885,0
-87.908100,43.804881,0
-87.907324,43.804878,0
-87.906312,43.804873,0
-87.905345,43.804869,0
-87.903932,43.804863,0
-87.902782,43.804858,0
-87.901874,43.804854,0
-87.901287,43.804852,0
-87.900840,43.804850,0
-87.900258,43.804847,0
-87.899467,43.804844,0
-87.899110,43.804842,0
-87.898270,43.804839,0
-87.897345,43.804835,0
-87.896358,43.804831,0
-87.895387,43.804827,0
-87.894448,43.804823,0
-87.893338,43.804818,0
-87.892355,43.804814,0
-87.891412,43.804810,0
-87.890115,43.804804,0
-87.889456,43.804801,0
-87.888008,43.804795,0
-87.886876,43.804790,0
-87.885736,43.804785,0
-87.884431,43.804780,0
-87.883059,43.804774,0
-87.881834,43.804769,0
-87.881093,43.804766,0
-87.880263,43.804765,0
-87.879548,43.804765,0
-87.878955,43.804765,0
-87.877860,43.804765,0
-87.876726,43.804765,0
-87.875682,43.804765,0
-87.874805,43.804765,0
-87.873838,43.804765,0
-87.872856,43.804765,0
-87.871969,43.804765,0
-87.871249,43.804765,0
-87.870475,43.804765,0
-87.869613,43.804765,0
-87.868639,43.804765,0
-87.867651,43.804765,0
-87.866280,43.804765,0
-87.865079,43.804765,0
-87.863882,43.804765,0
-87.863048,43.804765,0
-87.862242,43.804765,0
-87.861079,43.804765,0
-87.860317,43.804764,0
-87.859590,43.804763,0
-87.858754,43.804761,0
-87.857952,43.804759,0
-87.856897,43.804757,0
-87.856002,43.804755,0
-87.855133,43.804753,0
-87.854146,43.804751,0
-87.853190,43.804749,0
-87.852114,43.804747,0
-87.851130,43.804745,0
-87.850273,43.804743,0
-87.849250,43.804741,0
-87.848179,43.804738,0
-87.846979,43.804736,0
-87.846180,43.804734,0
-87.845218,43.804732,0
-87.844037,43.804729,0
-87.843218,43.804728,0
-87.842371,43.804726,0
-87.841566,43.804724,0
-87.840515,43.804724,0
-87.839177,43.804731,0
-87.838222,43.804736,0
-87.837365,43.804740,0
-87.837267,43.804741,0
-87.836661,43.804744,0
-87.835772,43.804748,0
-87.834731,43.804754,0
-87.833788,43.804758,0
-87.832775,43.804764,0
-87.831970,43.804768,0
-87.831274,43.804771,0
-87.830489,43.804775,0
-87.829820,43.804779,0
-87.828910,43.804784,0
-87.828694,43.804785,0
-87.827718,43.804790,0
-87.826509,43.804796,0
-87.825554,43.804801,0
-87.824514,43.804806,0
-87.823701,43.804803,0
-87.822896,43.804793,0
-87.822046,43.804782,0
-87.821295,43.804773,0
-87.820885,43.804768,0
-87.820763,43.804766,0
-87.820638,43.804765,0
-87.820387,43.804765,0
-87.820209,43.804765,0
-87.819562,43.804765,0
-87.818768,43.804765,0
-87.817986,43.804765,0
-87.817114,43.804765,0
-87.816428,43.804765,0
-87.815350,43.804765,0
-87.814187,43.804765,0
-87.814050,43.804765,0
-87.813185,43.804765,0
-87.811756,43.804765,0
-87.810700,43.804765,0
-87.809593,43.804768,0
-87.808606,43.804776,0
-87.807454,43.804786,0
-87.806593,43.804794,0
-87.805935,43.804800,0
-87.804759,43.804801,0
-87.804041,43.804777,0
-87.803232,43.804765,0
-87.802658,43.804765,0
-87.802057,43.804765,0
-87.801211,43.804765,0
-87.801110,43.804765,0
-87.800855,43.804765,0
-87.800793,43.804603,0
-87.800764,43.804166,0
-87.800750,43.803667,0
-87.800735,43.803001,0
-87.800715,43.802192,0
-87.800695,43.801350,0
-87.800680,43.800724,0
-87.800570,43.800177,0
-87.800391,43.799601,0
-87.800266,43.799021,0
-87.800274,43.798348,0
-87.800322,43.797556,0
-87.800446,43.796947,0
-87.800606,43.796284,0
-87.800619,43.795494,0
-87.800601,43.794677,0
-87.800586,43.794012,0
-87.800571,43.793345,0
-87.800553,43.792501,0
-87.800535,43.791713,0
-87.800520,43.791021,0
-87.800509,43.790553,0
-87.800506,43.790408,0
-87.800505,43.790344,0
-87.800447,43.790302,0
-87.800320,43.790300,0
-87.799682,43.790291,0
-87.799371,43.790286,0
-87.798677,43.790276,0
-87.797861,43.790264,0
-87.796927,43.790260,0
-87.795776,43.790260,0
-87.795124,43.790260,0
-87.794275,43.790260,0
-87.793426,43.790260,0
-87.792552,43.790260,0
-87.791342,43.790237,0
-87.790304,43.790213,0
-87.789352,43.790191,0
-87.788676,43.790175,0
-87.788012,43.790174,0
-87.786966,43.790174,0
-87.786040,43.790163,0
-87.785219,43.790152,0
-87.784430,43.790142,0
-87.783628,43.790132,0
-87.782899,43.790131,0
-87.782048,43.790131,0
-87.781300,43.790131,0
-87.780578,43.790131,0
-87.780249,43.790131,0
-87.779983,43.790127,0
-87.779529,43.790113,0
-87.778842,43.790092,0
-87.777749,43.790088,0
-87.776800,43.790088,0
-87.775480,43.790079,0
-87.774231,43.790064,0
-87.773211,43.790052,0
-87.772249,43.790040,0
-87.770939,43.790024,0
-87.769937,43.790011,0
-87.768708,43.790002,0
-87.767570,43.789984,0
-87.766157,43.789954,0
-87.765284,43.789938,0
-87.764397,43.789922,0
-87.763777,43.789928,0
-87.762918,43.789958,0
-87.762217,43.790062,0
-87.761675,43.790182,0
-87.761171,43.790433,0
-87.760775,43.790667,0
-87.760593,43.790775,0
-87.760241,43.791135,0
-87.760114,43.791390,0
-87.760093,43.791891,0
-87.760119,43.792624,0
-87.760139,43.793156,0
-87.760162,43.793791,0
-87.760187,43.794501,0
-87.760190,43.794581,0
-87.760220,43.795293,0
-87.760249,43.795961,0
-87.760249,43.796579,0
-87.760249,43.797153,0
-87.760284,43.797903,0
-87.760341,43.798743,0
-87.760394,43.799521,0
-87.760454,43.800344,0
-87.760514,43.801105,0
-87.760585,43.802005,0
-87.760593,43.802885,0
-87.760593,43.803496,0
-87.760593,43.804128,0
-87.760593,43.804827,0
-87.760593,43.804965,0
-87.760593,43.805213,0
-87.760252,43.805284,0
-87.759115,43.805295,0
-87.758074,43.805306,0
-87.757228,43.805315,0
-87.756056,43.805327,0
-87.754994,43.805337,0
-87.754008,43.805347,0
-87.752767,43.805360,0
-87.751695,43.805371,0
-87.750415,43.805384,0
-87.749110,43.805397,0
-87.747946,43.805409,0
-87.746595,43.805423,0
-87.745171,43.805438,0
-87.743947,43.805450,0
-87.743135,43.805460,0
-87.742046,43.805474,0
-87.741268,43.805484,0
-87.740669,43.805492,0
-87.740510,43.805494,0
-87.740468,43.805494,0
-87.740431,43.805562,0
-87.740465,43.805814,0
-87.740526,43.806269,0
-87.740526,43.806269,0
-87.740594,43.806864,0
-87.740598,43.807495,0
-87.740603,43.808204,0
-87.740606,43.808801,0
-87.740610,43.809383,0
-87.740614,43.810024,0
-87.740619,43.810843,0
-87.740624,43.811591,0
-87.740628,43.812331,0
-87.740634,43.813305,0
-87.740639,43.814019,0
-87.740644,43.814749,0
-87.740649,43.815442,0
-87.740653,43.816048,0
-87.740656,43.816500,0
-87.740661,43.817223,0
-87.740664,43.817700,0
-87.740667,43.818103,0
-87.740670,43.818556,0
-87.740674,43.819227,0
-87.740679,43.820006,0
-87.740685,43.820692,0
-87.740693,43.821499,0
-87.740700,43.822281,0
-87.740707,43.823167,0
-87.740715,43.823981,0
-87.740723,43.824949,0
-87.740731,43.825843,0
-87.740738,43.826655,0
-87.740746,43.827490,0
-87.740751,43.828082,0
-87.740755,43.828506,0
-87.740759,43.829011,0
-87.740766,43.829791,0
-87.740774,43.830742,0
-87.740783,43.831698,0
-87.740788,43.832293,0
-87.740795,43.833068,0
-87.740803,43.833991,0
-87.740809,43.834761,0
-87.740812,43.835457,0
-87.740817,43.836408,0
-87.740820,43.837162,0
-87.740825,43.838088,0
-87.740828,43.838839,0
-87.740831,43.839517,0
-87.740835,43.840349,0
-87.740839,43.841193,0
-87.740842,43.841959,0
-87.740845,43.842455,0
-87.740848,43.843197,0
-87.740851,43.843779,0
-87.740856,43.844431,0
-87.740864,43.845398,0
-87.740872,43.846379,0
-87.740878,43.847119,0
-87.740885,43.847963,0
-87.740892,43.848886,0
-87.740899,43.849519,0
-87.740905,43.850053,0
-87.740915,43.850879,0
-87.740925,43.851722,0
-87.740934,43.852502,0
-87.740941,43.853069,0
-87.740948,43.853682,0
-87.740958,43.854502,0
-87.740962,43.854821,0
-87.740968,43.855345,0
-87.740975,43.855980,0
-87.740985,43.856604,0
-87.741003,43.857376,0
-87.741021,43.858178,0
-87.741023,43.858831,0
-87.741023,43.859251,0
-87.741023,43.860027,0
-87.741023,43.860722,0
-87.741023,43.861509,0
-87.741023,43.862209,0
-87.740984,43.862594,0
-87.740686,43.862983,0
-87.740379,43.863259,0
-87.739876,43.863523,0
-87.739351,43.863607,0
-87.738356,43.863635,0
-87.737670,43.863654,0
-87.736934,43.863675,0
-87.736150,43.863726,0
-87.735579,43.863833,0
-87.735138,43.863992,0
-87.734750,43.864251,0
-87.734442,43.864619,0
-87.734244,43.865041,0
-87.734278,43.865407,0
-87.734382,43.865940,0
-87.734564,43.866781,0
-87.734721,43.867511,0
-87.734908,43.868143,0
-87.735117,43.868782,0
-87.735322,43.869411,0
-87.735583,43.870213,0
-87.735803,43.870887,0
-87.736091,43.871840,0
-87.736248,43.872441,0
-87.736314,43.873146,0
-87.736398,43.874177,0
-87.736455,43.874865,0
-87.736538,43.875725,0
-87.736672,43.876405,0
-87.736898,43.877558,0
-87.737122,43.878711,0
-87.737256,43.879503,0
-87.737368,43.880285,0
-87.737314,43.880889,0
-87.737211,43.881663,0
-87.737055,43.882262,0
-87.736779,43.882983,0
-87.736504,43.883699,0
-87.736173,43.884563,0
-87.735939,43.885174,0
-87.735673,43.885867,0
-87.735430,43.886501,0
-87.735069,43.887443,0
-87.734814,43.888108,0
-87.734537,43.888831,0
-87.734290,43.889475,0
-87.734098,43.889977,0
-87.733893,43.890513,0
-87.733652,43.891141,0
-87.733439,43.891697,0
-87.733170,43.892398,0
-87.732860,43.893195,0
-87.732612,43.893832,0
-87.732323,43.894575,0
-87.732037,43.895312,0
-87.731849,43.895796,0
-87.731536,43.896600,0
-87.731331,43.897172,0
-87.731201,43.897672,0
-87.731104,43.898152,0
-87.731078,43.898785,0
-87.731083,43.899660,0
-87.731105,43.900480,0
-87.731121,43.901062,0
-87.731143,43.901878,0
-87.731165,43.902718,0
-87.731191,43.903678,0
-87.731214,43.904542,0
-87.731236,43.905342,0
-87.731255,43.906058,0
-87.731267,43.906512,0
-87.731273,43.906708,0
-87.731279,43.906932,0
-87.731503,43.907029,0
-87.731592,43.907028,0
-87.732345,43.907018,0
-87.733356,43.907003,0
-87.734616,43.906986,0
-87.735566,43.906972,0
-87.736554,43.906959,0
-87.738024,43.906938,0
-87.739127,43.906922,0
-87.740351,43.906905,0
-87.740819,43.906982,0
-87.741113,43.907118,0
-87.741283,43.907342,0
-87.741284,43.907426,0
-87.741298,43.908491,0
-87.741309,43.909370,0
-87.741316,43.909974,0
-87.741322,43.910476,0
-87.741324,43.911076,0
-87.741324,43.911851,0
-87.741333,43.912634,0
-87.741351,43.913450,0
-87.741360,43.913877,0
-87.741362,43.913937,0
-87.741365,43.914101,0
-87.741162,43.914159,0
-87.740460,43.914170,0
-87.739575,43.914182,0
-87.738860,43.914193,0
-87.737875,43.914206,0
-87.736916,43.914217,0
-87.735941,43.914228,0
-87.734718,43.914242,0
-87.733566,43.914242,0
-87.732278,43.914242,0
-87.731450,43.914242,0
-87.730496,43.914242,0
-87.729174,43.914242,0
-87.728092,43.914242,0
-87.727239,43.914242,0
-87.726281,43.914257,0
-87.725784,43.914276,0
-87.725323,43.914368,0
-87.725268,43.914429,0
-87.725128,43.914596,0
-87.724994,43.915196,0
-87.724941,43.915542,0
-87.724952,43.916063,0
-87.724965,43.916316,0
-87.724973,43.916471,0
-87.724973,43.916563,0
-87.724973,43.916640,0
-87.724973,43.916855,0
-87.724973,43.917115,0
-87.724973,43.917280,0
-87.724973,43.917675,0
-87.724973,43.918040,0
-87.724899,43.918572,0
-87.724817,43.919083,0
-87.724703,43.919803,0
-87.724585,43.920541,0
-87.724493,43.921122,0
-87.724385,43.921799,0
-87.724279,43.922391,0
-87.724111,43.923308,0
-87.723979,43.924028,0
-87.723853,43.924718,0
-87.723720,43.925477,0
-87.723594,43.926217,0
-87.723457,43.926876,0
-87.723214,43.927544,0
-87.723040,43.927980,0
-87.722927,43.928263,0
-87.722705,43.928817,0
-87.722490,43.929354,0
-87.722260,43.929929,0
-87.721992,43.930599,0
-87.721724,43.931268,0
-87.721487,43.931941,0
-87.721457,43.932485,0
-87.721469,43.933127,0
-87.721483,43.933848,0
-87.721497,43.934797,0
-87.721497,43.935411,0
-87.721501,43.936003,0
-87.721508,43.936794,0
-87.721513,43.937353,0
-87.721519,43.937895,0
-87.721525,43.938568,0
-87.721531,43.939192,0
-87.721536,43.939698,0
-87.721540,43.940077,0
-87.721540,43.940505,0
-87.721540,43.941090,0
-87.721540,43.941749,0
-87.721485,43.942212,0
-87.721279,43.942657,0
-87.720891,43.943080,0
-87.720194,43.943587,0
-87.719660,43.943966,0
-87.718984,43.944442,0
-87.718145,43.945001,0
-87.717326,43.945547,0
-87.716698,43.945966,0
-87.715963,43.946468,0
-87.715232,43.947010,0
-87.714728,43.947473,0
-87.714260,43.947992,0
-87.713736,43.948572,0
-87.713265,43.949103,0
-87.712724,43.949738,0
-87.712255,43.950349,0
-87.711957,43.950858,0
-87.711820,43.951406,0
-87.711755,43.951960,0
-87.711755,43.952541,0
-87.711755,43.953180,0
-87.711755,43.953598,0
-87.711755,43.954313,0
-87.711755,43.955055,0
-87.711754,43.955684,0
-87.711736,43.956440,0
-87.711717,43.957236,0
-87.711629,43.957874,0
-87.711372,43.958511,0
-87.711276,43.958686,0
-87.710742,43.959464,0
-87.710238,43.960174,0
-87.709798,43.960810,0
-87.709390,43.961398,0
-87.708883,43.962116,0
-87.708511,43.962638,0
-87.708139,43.963159,0
-87.707877,43.963527,0
-87.707363,43.964248,0
-87.706955,43.964820,0
-87.706605,43.965312,0
-87.706106,43.966024,0
-87.705673,43.966642,0
-87.705181,43.967345,0
-87.704822,43.967857,0
-87.704442,43.968400,0
-87.704082,43.968913,0
-87.703685,43.969480,0
-87.703221,43.970141,0
-87.702757,43.970804,0
-87.702309,43.971443,0
-87.701872,43.972068,0
-87.701466,43.972675,0
-87.701210,43.973164,0
-87.701070,43.973691,0
-87.700983,43.974394,0
-87.700983,43.975156,0
-87.700983,43.975782,0
-87.700983,43.976622,0
-87.700983,43.977289,0
-87.700983,43.978317,0
-87.700983,43.979028,0
-87.700991,43.979646,0
-87.701030,43.980466,0
-87.701071,43.981326,0
-87.701121,43.982365,0
-87.701156,43.983180,0
-87.701166,43.983966,0
-87.701179,43.984993,0
-87.701191,43.985966,0
-87.701208,43.987251,0
-87.701220,43.988191,0
-87.701226,43.988671,0
-87.701234,43.989326,0
-87.701240,43.989839,0
-87.701196,43.990620,0
-87.701159,43.991294,0
-87.701093,43.991860,0
-87.700969,43.992630,0
-87.700866,43.993226,0
-87.700727,43.993676,0
-87.700666,43.993859,0
-87.700599,43.994058,0
-87.700315,43.994544,0
-87.699936,43.994981,0
-87.699427,43.995431,0
-87.698836,43.995899,0
-87.698159,43.996403,0
-87.697626,43.996801,0
-87.696987,43.997277,0
-87.696477,43.997804,0
-87.696108,43.998210,0
-87.695771,43.998750,0
-87.695501,43.999252,0
-87.695263,43.999696,0
-87.695035,44.000131,0
-87.694845,44.000548,0
-87.694653,44.000970,0
-87.694404,44.001518,0
-87.694123,44.002137,0
-87.693821,44.002801,0
-87.693602,44.003565,0
-87.693461,44.004103,0
-87.693293,44.004749,0
-87.693130,44.005374,0
-87.692934,44.006125,0
-87.692746,44.006844,0
-87.692522,44.007701,0
-87.692340,44.008399,0
-87.692228,44.008828,0
-87.692018,44.009651,0
-87.691832,44.010377,0
-87.691619,44.011209,0
-87.691431,44.011945,0
-87.691261,44.012611,0
-87.691117,44.013172,0
-87.690911,44.013977,0
-87.690723,44.014712,0
-87.690560,44.015352,0
-87.690327,44.016247,0
-87.690061,44.016997,0
-87.689747,44.017881,0
-87.689490,44.018604,0
-87.689217,44.019372,0
-87.689024,44.019915,0
-87.688769,44.020634,0
-87.688523,44.021328,0
-87.688303,44.021946,0
-87.688061,44.022538,0
-87.687747,44.023264,0
-87.687384,44.023981,0
-87.687058,44.024599,0
-87.686610,44.025311,0
-87.686153,44.025876,0
-87.685683,44.026405,0
-87.685330,44.026797,0
-87.684756,44.027270,0
-87.684329,44.027616,0
-87.683661,44.028088,0
-87.683060,44.028448,0
-87.682134,44.029003,0
-87.681330,44.029547,0
-87.680750,44.029988,0
-87.680277,44.030467,0
-87.679861,44.030919,0
-87.679526,44.031290,0
-87.679266,44.031588,0
-87.678976,44.031919,0
-87.678635,44.032309,0
-87.678242,44.032758,0
-87.677816,44.033247,0
-87.677389,44.033758,0
-87.676957,44.034275,0
-87.676585,44.034722,0
-87.676097,44.035305,0
-87.675540,44.035973,0
-87.675089,44.036514,0
-87.674582,44.037121,0
-87.674049,44.037760,0
-87.673597,44.038249,0
-87.673032,44.038707,0
-87.672402,44.039174,0
-87.671610,44.039762,0
-87.671158,44.040097,0
-87.670786,44.040373,0
-87.670320,44.040737,0
-87.670007,44.041061,0
-87.669630,44.041452,0
-87.669130,44.041969,0
-87.668546,44.042573,0
-87.667882,44.043260,0
-87.667352,44.043808,0
-87.666651,44.044533,0
-87.665977,44.045270,0
-87.665443,44.045854,0
-87.664892,44.046456,0
-87.664136,44.047282,0
-87.663382,44.048123,0
-87.662857,44.048863,0
-87.662492,44.049378,0
-87.661949,44.050144,0
-87.661307,44.051108,0
-87.660948,44.051740,0
-87.660819,44.052318,0
-87.660771,44.053121,0
-87.660771,44.053937,0
-87.660771,44.054895,0
-87.660771,44.055851,0
-87.660771,44.056721,0
-87.660771,44.057423,0
-87.660771,44.058351,0
-87.660764,44.059073,0
-87.660746,44.059903,0
-87.660741,44.060111,0
-87.660729,44.060830,0
-87.660729,44.061747,0
-87.660729,44.062421,0
-87.660729,44.063038,0
-87.660729,44.063545,0
-87.660729,44.063775,0
-87.660729,44.064192,0
-87.660741,44.064412,0
-87.660729,44.064189,0
-87.660729,44.064189,0
-87.660732,44.064251,0
-87.660659,44.064189,0
-87.660485,44.064189,0
-87.660003,44.064189,0
-87.659518,44.064189,0
-87.658902,44.064306,0
-87.657978,44.064499,0
-87.657766,44.064524,0
-87.657558,44.064549,0
-87.657202,44.064625,0
-87.657158,44.064669,0
-87.656753,44.064834,0
-87.656613,44.064830,0
		</coordinates>
	  </LineString>
	</Placemark>
  </Document>
</kml>