<?xml version="1.0" encoding="UTF-8"?>
<kml xmlns="http://www.opengis.net/kml/2.2">
  <Document>
	<name>Rock Lake IMBA</name>
	<description></description>
	<Style id="style1">
	  <LineStyle>
		<color>BF0000FF</color>
		<width>3</width>
	  </LineStyle>
	</Style>
	<Style id="yellowLineGreenPoly">
	  <LineStyle>
		<color>7f0000ff</color>
		<width>4</width>
	  </LineStyle>
	  <PolyStyle>
		<color>7f00ff00</color>
	  </PolyStyle>
	</Style>
	<Placemark>
	  <name>Rock Lake IMBA</name>
	  <description></description>
	  <styleUrl>#style1</styleUrl>
	  <LineString>
		<tessellate>1</tessellate>
		<coordinates>
		  -91.135406,46.197603,0
-91.135388,46.197727,0
-91.135253,46.197771,0
-91.135092,46.197410,0
-91.135191,46.196683,0
-91.135352,46.196739,0
-91.135694,46.196571,0
-91.136062,46.195750,0
-91.135954,46.195533,0
-91.136134,46.195147,0
-91.136089,46.194861,0
-91.135891,46.194587,0
-91.135918,46.194432,0
-91.135873,46.193897,0
-91.136484,46.193313,0
-91.136861,46.193138,0
-91.136781,46.192939,0
-91.137140,46.192380,0
-91.137248,46.191578,0
-91.137553,46.191117,0
-91.137454,46.190881,0
-91.137616,46.190682,0
-91.137589,46.190471,0
-91.138784,46.190023,0
-91.139170,46.189619,0
-91.139583,46.189469,0
-91.139718,46.189289,0
-91.139691,46.188941,0
-91.139278,46.188431,0
-91.139161,46.188039,0
-91.139538,46.187330,0
-91.139538,46.186951,0
-91.139422,46.186839,0
-91.139071,46.186820,0
-91.138748,46.186590,0
-91.139026,46.186043,0
-91.138936,46.185371,0
-91.138469,46.184979,0
-91.138326,46.184743,0
-91.138281,46.184158,0
-91.138532,46.183518,0
-91.138856,46.183387,0
-91.138972,46.183182,0
-91.138820,46.183058,0
-91.138362,46.182952,0
-91.138568,46.182293,0
-91.138838,46.181913,0
-91.138676,46.180993,0
-91.138020,46.179742,0
-91.138029,46.179487,0
-91.137769,46.179102,0
-91.137832,46.178729,0
-91.138083,46.178673,0
-91.138380,46.178330,0
-91.138631,46.178231,0
-91.139134,46.178281,0
-91.139511,46.178150,0
-91.139422,46.177889,0
-91.139601,46.177590,0
-91.139979,46.177310,0
-91.140356,46.177211,0
-91.141048,46.177279,0
-91.141209,46.177422,0
-91.141739,46.177541,0
-91.142422,46.177348,0
-91.142862,46.177360,0
-91.143024,46.177279,0
-91.142889,46.176589,0
-91.142530,46.176259,0
-91.142072,46.176048,0
-91.141883,46.175768,0
-91.141227,46.175388,0
-91.140050,46.175071,0
-91.139601,46.174779,0
-91.138990,46.174710,0
-91.138667,46.174480,0
-91.138353,46.174101,0
-91.138380,46.173920,0
-91.138757,46.173609,0
-91.138829,46.173311,0
-91.139089,46.173049,0
-91.139323,46.173037,0
-91.140248,46.172751,0
-91.140877,46.172881,0
-91.141030,46.172769,0
-91.141012,46.172558,0
-91.141407,46.172253,0
-91.142152,46.172378,0
-91.142934,46.172098,0
-91.144102,46.171762,0
-91.144443,46.171587,0
-91.145081,46.171550,0
-91.145467,46.171401,0
-91.146267,46.171451,0
-91.146186,46.171127,0
-91.146958,46.170262,0
-91.147273,46.170107,0
-91.148027,46.169541,0
-91.148683,46.169329,0
-91.148872,46.169143,0
-91.149114,46.169112,0
-91.149519,46.168850,0
-91.150192,46.168688,0
-91.151621,46.168141,0
-91.152133,46.168110,0
-91.152142,46.167892,0
-91.151782,46.167538,0
-91.151522,46.166741,0
-91.151944,46.166231,0
-91.152241,46.166020,0
-91.152591,46.166020,0
-91.153319,46.165572,0
-91.153759,46.165472,0
-91.153947,46.165628,0
-91.153866,46.165852,0
-91.154154,46.165727,0
-91.154423,46.165858,0
-91.154370,46.166872,0
-91.154630,46.166940,0
-91.154307,46.167102,0
-91.154298,46.167469,0
-91.154504,46.167550,0
-91.155241,46.167419,0
-91.155609,46.167239,0
-91.156130,46.167233,0
-91.156400,46.167438,0
-91.157073,46.167538,0
-91.157496,46.167743,0
-91.158457,46.167432,0
-91.159310,46.166760,0
-91.159661,46.166648,0
-91.159903,46.166810,0
-91.161062,46.166741,0
-91.162131,46.167538,0
-91.162841,46.167662,0
-91.163218,46.167500,0
-91.163317,46.167258,0
-91.163119,46.167052,0
-91.163721,46.166611,0
-91.163757,46.166188,0
-91.163982,46.165740,0
-91.163793,46.165572,0
-91.164583,46.165061,0
-91.164161,46.165708,0
-91.164251,46.165833,0
-91.164592,46.165883,0
-91.165796,46.165130,0
-91.166308,46.165049,0
-91.166650,46.165111,0
-91.167153,46.165061,0
-91.167638,46.164632,0
-91.167647,46.164408,0
-91.167431,46.164371,0
-91.167566,46.163742,0
-91.168051,46.163500,0
-91.169147,46.162747,0
-91.169273,46.161851,0
-91.169030,46.161652,0
-91.168949,46.161453,0
-91.167799,46.161148,0
-91.167674,46.160967,0
-91.167000,46.160880,0
-91.166937,46.160750,0
-91.167063,46.160588,0
-91.167422,46.160650,0
-91.167584,46.160538,0
-91.166452,46.160059,0
-91.166407,46.159748,0
-91.165733,46.159163,0
-91.165760,46.158920,0
-91.165212,46.158279,0
-91.164152,46.157863,0
-91.163380,46.157178,0
-91.162661,46.157489,0
-91.162050,46.157408,0
-91.161520,46.157172,0
-91.160792,46.157141,0
-91.160487,46.157203,0
-91.160137,46.157402,0
-91.159777,46.157869,0
-91.159759,46.158298,0
-91.159481,46.158329,0
-91.159274,46.158180,0
-91.159158,46.157950,0
-91.158807,46.157937,0
-91.158762,46.158217,0
-91.158619,46.158323,0
-91.158187,46.158373,0
-91.157864,46.158727,0
-91.156606,46.159312,0
-91.156283,46.159350,0
-91.155717,46.159711,0
-91.153992,46.160159,0
-91.153381,46.160040,0
-91.153031,46.160059,0
-91.152357,46.160862,0
-91.152411,46.161111,0
-91.152250,46.161279,0
-91.152034,46.161801,0
-91.151711,46.161938,0
-91.151243,46.161857,0
-91.150767,46.161372,0
-91.150668,46.161552,0
-91.150489,46.161627,0
-91.150794,46.161969,0
-91.150839,46.162100,0
-91.149923,46.162318,0
-91.149357,46.162343,0
-91.148899,46.162280,0
-91.149123,46.161951,0
-91.149653,46.161621,0
-91.149582,46.161552,0
-91.149474,46.161608,0
-91.149231,46.161527,0
-91.148566,46.161807,0
-91.148099,46.161870,0
-91.147542,46.162243,0
-91.146536,46.163108,0
-91.146249,46.163158,0
-91.145800,46.163089,0
-91.145674,46.163282,0
-91.145306,46.163363,0
-91.145207,46.163910,0
-91.145871,46.164178,0
-91.146446,46.164271,0
-91.146752,46.164533,0
-91.147506,46.164638,0
-91.147596,46.164881,0
-91.147479,46.165049,0
-91.146994,46.165217,0
-91.146464,46.165217,0
-91.146410,46.165540,0
-91.146132,46.165740,0
-91.145458,46.165777,0
-91.145261,46.165603,0
-91.145234,46.165397,0
-91.144758,46.165198,0
-91.144434,46.165497,0
-91.143796,46.165578,0
-91.142790,46.165229,0
-91.142386,46.165391,0
-91.142054,46.165298,0
-91.141398,46.165441,0
-91.140778,46.166443,0
-91.140697,46.166710,0
-91.140482,46.166760,0
-91.140284,46.166579,0
-91.139799,46.166548,0
-91.139664,46.166287,0
-91.139359,46.166262,0
-91.139197,46.166380,0
-91.138874,46.166461,0
-91.138856,46.166772,0
-91.138299,46.166878,0
-91.137930,46.167282,0
-91.137050,46.167768,0
-91.136861,46.168079,0
-91.136259,46.168122,0
-91.135676,46.168670,0
-91.135262,46.168707,0
-91.134562,46.168321,0
-91.132900,46.168209,0
-91.132612,46.168110,0
-91.132442,46.168278,0
-91.131894,46.168097,0
-91.131660,46.168097,0
-91.131328,46.168427,0
-91.131319,46.168639,0
-91.131166,46.168751,0
-91.129962,46.169242,0
-91.129908,46.169522,0
-91.129531,46.169902,0
-91.128534,46.170418,0
-91.128426,46.170399,0
-91.126989,46.171046,0
-91.126737,46.171301,0
-91.127169,46.171401,0
-91.127142,46.171656,0
-91.126019,46.171836,0
-91.123962,46.172346,0
-91.122767,46.172850,0
-91.121779,46.172931,0
-91.121374,46.173385,0
-91.121141,46.174020,0
-91.119668,46.174605,0
-91.119317,46.174275,0
-91.119030,46.173311,0
-91.118401,46.172496,0
-91.116263,46.172091,0
-91.115616,46.172079,0
-91.115886,46.171855,0
-91.115832,46.171438,0
-91.115068,46.171133,0
-91.115571,46.170567,0
-91.116155,46.169597,0
-91.116389,46.168713,0
-91.116218,46.167898,0
-91.116236,46.166984,0
-91.116515,46.165534,0
-91.116847,46.164694,0
-91.116263,46.164060,0
-91.115095,46.163655,0
-91.114996,46.162996,0
-91.115329,46.162025,0
-91.115194,46.160986,0
-91.114871,46.160302,0
-91.115607,46.160252,0
-91.115805,46.159891,0
-91.116137,46.159711,0
-91.116029,46.159499,0
-91.116056,46.158970,0
-91.116182,46.158721,0
-91.116002,46.158379,0
-91.116101,46.158180,0
-91.116488,46.157887,0
-91.116604,46.157539,0
-91.116227,46.157309,0
-91.116371,46.157047,0
-91.117458,46.156761,0
-91.117736,46.156363,0
-91.117862,46.154969,0
-91.118311,46.154857,0
-91.119587,46.153930,0
-91.119578,46.153550,0
-91.118886,46.152928,0
-91.117619,46.152611,0
-91.115481,46.152001,0
-91.115311,46.151652,0
-91.115347,46.151378,0
-91.114071,46.150028,0
-91.113658,46.150028,0
-91.113191,46.149848,0
-91.113308,46.149729,0
-91.114359,46.149269,0
-91.115203,46.148373,0
-91.115068,46.147900,0
-91.115652,46.146923,0
-91.116838,46.145852,0
-91.117098,46.145298,0
-91.117359,46.145118,0
-91.117664,46.144501,0
-91.118221,46.144203,0
-91.118832,46.143643,0
-91.119964,46.143823,0
-91.120521,46.143767,0
-91.120773,46.143369,0
-91.121779,46.142298,0
-91.120808,46.141551,0
-91.120647,46.141327,0
-91.120719,46.141178,0
-91.121527,46.140611,0
-91.121958,46.140798,0
-91.122291,46.140842,0
-91.123063,46.140643,0
-91.123180,46.139622,0
-91.122641,46.139622,0
-91.121509,46.139261,0
-91.119811,46.139248,0
-91.119048,46.139329,0
-91.118697,46.139497,0
-91.118644,46.139889,0
-91.118239,46.140213,0
-91.117350,46.140437,0
-91.117332,46.140580,0
-91.117224,46.140661,0
-91.116461,46.140692,0
-91.115958,46.140562,0
-91.115401,46.141309,0
-91.114942,46.141340,0
-91.115248,46.141732,0
-91.115338,46.141962,0
-91.115266,46.142161,0
-91.114628,46.142591,0
-91.114538,46.142759,0
-91.114233,46.142983,0
-91.114547,46.143157,0
-91.114727,46.143412,0
-91.114511,46.143630,0
-91.114341,46.143580,0
-91.114089,46.143331,0
-91.113856,46.143263,0
-91.113757,46.143499,0
-91.114026,46.143680,0
-91.114080,46.143848,0
-91.114556,46.144159,0
-91.114574,46.144389,0
-91.113730,46.145528,0
-91.113981,46.145678,0
-91.114368,46.145603,0
-91.114664,46.145659,0
-91.114727,46.145759,0
-91.114547,46.146219,0
-91.114134,46.146238,0
-91.113730,46.146369,0
-91.113299,46.146711,0
-91.112616,46.146947,0
-91.112688,46.147178,0
-91.113038,46.147520,0
-91.112733,46.148329,0
-91.112373,46.148727,0
-91.110918,46.148933,0
-91.110640,46.149101,0
-91.110846,46.149337,0
-91.111143,46.149512,0
-91.111574,46.149592,0
-91.112346,46.149549,0
-91.112607,46.149723,0
-91.112948,46.149599,0
-91.113146,46.149723,0
-91.112778,46.150302,0
-91.112813,46.150582,0
-91.112427,46.150850,0
-91.112050,46.150619,0
-91.111214,46.150308,0
-91.110352,46.150408,0
-91.109526,46.150613,0
-91.109202,46.150831,0
-91.109157,46.151161,0
-91.108987,46.151298,0
-91.108241,46.151347,0
-91.107163,46.151571,0
-91.105627,46.151509,0
-91.105663,46.151702,0
-91.105483,46.151889,0
-91.105097,46.152113,0
-91.105528,46.152909,0
-91.104783,46.153090,0
-91.104226,46.153501,0
-91.103687,46.153737,0
-91.103480,46.153942,0
-91.103606,46.154229,0
-91.103651,46.154882,0
-91.103516,46.155150,0
-91.103669,46.155859,0
-91.103408,46.156450,0
-91.103561,46.156743,0
-91.103408,46.157023,0
-91.103112,46.157271,0
-91.102573,46.157502,0
-91.102222,46.157483,0
-91.101746,46.157060,0
-91.101638,46.156581,0
-91.101450,46.156363,0
-91.100938,46.156469,0
-91.100533,46.156693,0
-91.099851,46.156550,0
-91.099743,46.156282,0
-91.099393,46.156058,0
-91.098827,46.155952,0
-91.098413,46.155728,0
-91.098512,46.155430,0
-91.098342,46.154341,0
-91.098171,46.154173,0
-91.097910,46.154278,0
-91.096392,46.155722,0
-91.095961,46.155853,0
-91.095656,46.155678,0
-91.095593,46.155822,0
-91.095314,46.155772,0
-91.094964,46.155853,0
-91.093814,46.156382,0
-91.093868,46.156587,0
-91.093356,46.156811,0
-91.093077,46.156848,0
-91.093051,46.156960,0
-91.093203,46.157159,0
-91.093077,46.157359,0
-91.092799,46.157583,0
-91.092368,46.157769,0
-91.092152,46.158199,0
-91.092089,46.158541,0
-91.092287,46.159082,0
-91.092116,46.159132,0
-91.092062,46.159082,0
-91.091613,46.158970,0
-91.091353,46.158690,0
-91.090796,46.158653,0
-91.090697,46.158423,0
-91.090140,46.158510,0
-91.089888,46.158740,0
-91.088963,46.159057,0
-91.088110,46.159729,0
-91.087930,46.159748,0
-91.087616,46.159978,0
-91.087490,46.160239,0
-91.087589,46.160687,0
-91.087337,46.161111,0
-91.087068,46.161173,0
-91.086708,46.161011,0
-91.086511,46.161198,0
-91.085981,46.162392,0
-91.085639,46.162660,0
-91.085460,46.163008,0
-91.085406,46.163842,0
-91.085657,46.164172,0
-91.085918,46.164340,0
-91.085819,46.164607,0
-91.085864,46.164912,0
-91.085100,46.164912,0
-91.084903,46.165099,0
-91.084427,46.165093,0
-91.084031,46.165279,0
-91.083789,46.165061,0
-91.083232,46.165030,0
-91.083169,46.165180,0
-91.084121,46.165671,0
-91.083879,46.165789,0
-91.083663,46.166063,0
-91.083699,46.166368,0
-91.083618,46.166760,0
-91.083340,46.166990,0
-91.083492,46.167438,0
-91.083762,46.167749,0
-91.083654,46.168010,0
-91.084247,46.168191,0
-91.084409,46.168303,0
-91.084256,46.168440,0
-91.084319,46.168632,0
-91.083888,46.168832,0
-91.083726,46.169242,0
-91.084121,46.169902,0
-91.083942,46.170163,0
-91.083609,46.170182,0
-91.083412,46.170461,0
-91.083528,46.170611,0
-91.084283,46.170872,0
-91.084166,46.170922,0
-91.083924,46.170891,0
-91.083322,46.171171,0
-91.082953,46.171140,0
-91.081687,46.171258,0
-91.081337,46.171612,0
-91.081283,46.171899,0
-91.080780,46.172091,0
-91.080753,46.172228,0
-91.080591,46.172222,0
-91.080456,46.172409,0
-91.080241,46.172452,0
-91.080420,46.173000,0
-91.080851,46.173280,0
-91.081229,46.173671,0
-91.081732,46.173541,0
-91.082163,46.173622,0
-91.082819,46.174169,0
-91.082810,46.174312,0
-91.081902,46.174847,0
-91.082010,46.175121,0
-91.081777,46.175320,0
-91.081642,46.175339,0
-91.081462,46.175562,0
-91.081507,46.175668,0
-91.082028,46.175780,0
-91.082423,46.176041,0
-91.082657,46.176502,0
-91.082918,46.176688,0
-91.083403,46.176719,0
-91.083897,46.177211,0
-91.084166,46.177758,0
-91.084157,46.177988,0
-91.083987,46.178200,0
-91.083744,46.178287,0
-91.083789,46.178411,0
-91.083349,46.179201,0
-91.083591,46.179338,0
-91.083609,46.179562,0
-91.082540,46.179991,0
-91.082046,46.180072,0
-91.081947,46.180340,0
-91.081669,46.180383,0
-91.081453,46.180277,0
-91.081184,46.180259,0
-91.081543,46.180607,0
-91.081462,46.180812,0
-91.081148,46.181042,0
-91.080932,46.181011,0
-91.079989,46.181409,0
-91.079423,46.181428,0
-91.079109,46.181627,0
-91.079594,46.182019,0
-91.080052,46.182778,0
-91.079773,46.182858,0
-91.080043,46.183319,0
-91.078318,46.183990,0
-91.078031,46.184339,0
-91.078031,46.184979,0
-91.077932,46.185191,0
-91.077644,46.185340,0
-91.077671,46.185937,0
-91.077411,46.186279,0
-91.076396,46.186217,0
-91.076261,46.186889,0
-91.076486,46.187660,0
-91.076450,46.187977,0
-91.077114,46.188331,0
-91.076728,46.188518,0
-91.075911,46.188313,0
-91.075560,46.188300,0
-91.075740,46.188580,0
-91.075614,46.188680,0
-91.075210,46.188779,0
-91.075048,46.189177,0
-91.075156,46.189501,0
-91.075462,46.189681,0
-91.075551,46.189880,0
-91.075938,46.190160,0
-91.075776,46.190440,0
-91.074779,46.190769,0
-91.074608,46.191030,0
-91.073863,46.191323,0
-91.073872,46.192063,0
-91.073629,46.192417,0
-91.073728,46.192939,0
-91.073449,46.194090,0
-91.073521,46.194127,0
-91.073656,46.193611,0
-91.074078,46.193468,0
-91.074842,46.193661,0
-91.075264,46.193543,0
-91.075722,46.193667,0
-91.076162,46.193568,0
-91.076171,46.193337,0
-91.075596,46.192728,0
-91.075623,46.192622,0
-91.075857,46.192461,0
-91.076297,46.192597,0
-91.076791,46.192610,0
-91.077330,46.192529,0
-91.077734,46.191932,0
-91.078363,46.191702,0
-91.078911,46.191752,0
-91.079046,46.191621,0
-91.079800,46.191491,0
-91.080842,46.191590,0
-91.080250,46.191161,0
-91.080169,46.190931,0
-91.080276,46.190831,0
-91.080366,46.190427,0
-91.080573,46.190259,0
-91.081669,46.190172,0
-91.081956,46.190098,0
-91.082352,46.190272,0
-91.082639,46.190241,0
-91.083906,46.190402,0
-91.083924,46.190290,0
-91.083726,46.190073,0
-91.083978,46.189892,0
-91.084031,46.189637,0
-91.084373,46.189631,0
-91.084508,46.189762,0
-91.084499,46.189899,0
-91.084966,46.190110,0
-91.085478,46.190079,0
-91.086044,46.189861,0
-91.086169,46.189519,0
-91.086430,46.189389,0
-91.086331,46.189190,0
-91.085990,46.189152,0
-91.086071,46.188618,0
-91.086223,46.188518,0
-91.086484,46.188499,0
-91.086592,46.188611,0
-91.086870,46.188530,0
-91.086960,46.188263,0
-91.087499,46.188157,0
-91.087741,46.188002,0
-91.087948,46.187399,0
-91.087741,46.186758,0
-91.088002,46.186652,0
-91.088182,46.186671,0
-91.088298,46.186820,0
-91.088532,46.186882,0
-91.089296,46.186727,0
-91.089448,46.186578,0
-91.089538,46.186310,0
-91.089808,46.186292,0
-91.090634,46.185900,0
-91.091434,46.185738,0
-91.091937,46.185862,0
-91.092278,46.185862,0
-91.092538,46.185707,0
-91.092431,46.185272,0
-91.092538,46.185010,0
-91.093374,46.184917,0
-91.093697,46.184731,0
-91.093697,46.184432,0
-91.093509,46.184308,0
-91.093563,46.184189,0
-91.093320,46.183742,0
-91.093356,46.183648,0
-91.094137,46.183381,0
-91.094290,46.183157,0
-91.094030,46.183033,0
-91.094191,46.182610,0
-91.094497,46.182348,0
-91.094614,46.181440,0
-91.094497,46.181291,0
-91.094084,46.181279,0
-91.093563,46.181378,0
-91.093320,46.181179,0
-91.092637,46.180831,0
-91.092538,46.180682,0
-91.092574,46.180470,0
-91.092844,46.180340,0
-91.093194,46.180371,0
-91.093518,46.180178,0
-91.093599,46.179997,0
-91.093536,46.179767,0
-91.092961,46.179537,0
-91.092503,46.179319,0
-91.091874,46.179338,0
-91.091622,46.179512,0
-91.091326,46.179531,0
-91.091218,46.179369,0
-91.091398,46.178138,0
-91.091766,46.177659,0
-91.093006,46.177111,0
-91.093176,46.176869,0
-91.093329,46.176303,0
-91.094030,46.176290,0
-91.094739,46.176172,0
-91.095458,46.175948,0
-91.096078,46.175961,0
-91.096464,46.175817,0
-91.096734,46.175357,0
-91.097452,46.175090,0
-91.098458,46.174287,0
-91.098728,46.173852,0
-91.099168,46.173653,0
-91.100668,46.173460,0
-91.100830,46.173267,0
-91.100614,46.173248,0
-91.100471,46.173130,0
-91.100471,46.172832,0
-91.100057,46.172521,0
-91.100021,46.172160,0
-91.099563,46.171612,0
-91.099384,46.170760,0
-91.099671,46.170337,0
-91.099689,46.169771,0
-91.100498,46.168950,0
-91.101108,46.168657,0
-91.101450,46.168751,0
-91.101863,46.168670,0
-91.102070,46.168440,0
-91.102384,46.168290,0
-91.102689,46.168228,0
-91.103381,46.168471,0
-91.103848,46.168458,0
-91.104091,46.168539,0
-91.104136,46.168688,0
-91.104513,46.168819,0
-91.104899,46.169080,0
-91.106247,46.169373,0
-91.106480,46.169348,0
-91.106921,46.169528,0
-91.107280,46.169883,0
-91.107603,46.169933,0
-91.108457,46.169752,0
-91.108771,46.169572,0
-91.109121,46.169479,0
-91.109193,46.169622,0
-91.109121,46.169690,0
-91.109328,46.169839,0
-91.109939,46.169908,0
-91.110361,46.169790,0
-91.111008,46.169870,0
-91.111259,46.170020,0
-91.111502,46.170673,0
-91.111987,46.170648,0
-91.113263,46.170250,0
-91.113927,46.169721,0
-91.115194,46.169248,0
-91.115428,46.169261,0
-91.116128,46.169591,0
-91.115239,46.170922,0
-91.115023,46.171152,0
-91.115778,46.171451,0
-91.115841,46.171867,0
-91.115302,46.172290,0
-91.113847,46.173062,0
-91.113577,46.173348,0
-91.113586,46.173858,0
-91.113352,46.173883,0
-91.113200,46.174611,0
-91.112670,46.174642,0
-91.112382,46.174723,0
-91.112643,46.174922,0
-91.112616,46.175183,0
-91.112778,46.175301,0
-91.112894,46.175569,0
-91.113748,46.176160,0
-91.113856,46.176502,0
-91.114053,46.176688,0
-91.114421,46.176788,0
-91.114547,46.176918,0
-91.114574,46.177248,0
-91.114709,46.177341,0
-91.114996,46.178150,0
-91.115221,46.178119,0
-91.115589,46.177758,0
-91.115859,46.177752,0
-91.116272,46.177883,0
-91.117152,46.177771,0
-91.117916,46.177932,0
-91.118158,46.178237,0
-91.118114,46.178952,0
-91.118051,46.179083,0
-91.118428,46.179351,0
-91.118778,46.179463,0
-91.119407,46.180203,0
-91.119434,46.180930,0
-91.119713,46.181098,0
-91.120261,46.181042,0
-91.120503,46.181297,0
-91.121123,46.181409,0
-91.121258,46.181577,0
-91.121222,46.181851,0
-91.121347,46.182081,0
-91.120862,46.182280,0
-91.120584,46.182299,0
-91.120377,46.182448,0
-91.120467,46.182659,0
-91.120710,46.182610,0
-91.121213,46.182709,0
-91.121249,46.183151,0
-91.121401,46.183480,0
-91.122021,46.183543,0
-91.122138,46.183648,0
-91.121842,46.184158,0
-91.122093,46.184451,0
-91.122111,46.184743,0
-91.122398,46.185010,0
-91.122282,46.185259,0
-91.122488,46.185520,0
-91.123189,46.185831,0
-91.123378,46.186217,0
-91.123602,46.186372,0
-91.123692,46.186360,0
-91.123818,46.186180,0
-91.124240,46.186043,0
-91.124519,46.186130,0
-91.125183,46.186018,0
-91.125713,46.186273,0
-91.126037,46.186920,0
-91.126396,46.187181,0
-91.127070,46.188412,0
-91.127708,46.188263,0
-91.127923,46.187989,0
-91.128121,46.187977,0
-91.128399,46.188263,0
-91.128426,46.188437,0
-91.128821,46.188530,0
-91.128507,46.189208,0
-91.128570,46.189320,0
-91.129109,46.189382,0
-91.129792,46.189849,0
-91.129944,46.189861,0
-91.130322,46.189588,0
-91.130744,46.189799,0
-91.131013,46.190079,0
-91.131364,46.190881,0
-91.131597,46.190993,0
-91.132549,46.190639,0
-91.133493,46.190670,0
-91.134104,46.191229,0
-91.134139,46.191397,0
-91.133924,46.191789,0
-91.133430,46.192050,0
-91.133268,46.192231,0
-91.132990,46.192311,0
-91.132846,46.192492,0
-91.132846,46.192722,0
-91.133133,46.193151,0
-91.133124,46.193362,0
-91.133367,46.193281,0
-91.133744,46.192902,0
-91.134544,46.192573,0
-91.134831,46.192262,0
-91.135676,46.192249,0
-91.135783,46.192299,0
-91.135909,46.192927,0
-91.136143,46.193058,0
-91.136008,46.193480,0
-91.136619,46.194140,0
-91.137364,46.194388,0
-91.137266,46.195029,0
-91.136987,46.195271,0
-91.137023,46.195700,0
-91.137257,46.195837,0
-91.137050,46.196571,0
-91.136781,46.196751,0
-91.136897,46.196857,0
-91.136843,46.197168,0
-91.136637,46.197242,0
-91.136574,46.197149,0
-91.136134,46.197012,0
-91.136026,46.197031,0
-91.135694,46.197628,0
-91.135406,46.197603,0
		</coordinates>
	  </LineString>
	</Placemark>
  </Document>
</kml>