<?xml version="1.0" encoding="UTF-8"?>
<kml xmlns="http://www.opengis.net/kml/2.2">
  <Document>
	<name>South</name>
	<description></description>
	<Style id="style1">
	  <LineStyle>
		<color>BF0000FF</color>
		<width>3</width>
	  </LineStyle>
	</Style>
	<Style id="yellowLineGreenPoly">
	  <LineStyle>
		<color>7f0000ff</color>
		<width>4</width>
	  </LineStyle>
	  <PolyStyle>
		<color>7f00ff00</color>
	  </PolyStyle>
	</Style>
	<Placemark>
	  <name>South</name>
	  <description></description>
	  <styleUrl>#style1</styleUrl>
	  <LineString>
		<tessellate>1</tessellate>
		<coordinates>
		  -88.009252,43.052911,0
-88.009216,43.052651,0
-88.009148,43.052400,0
-88.009005,43.052055,0
-88.008918,43.051538,0
-88.008911,43.051481,0
-88.008869,43.051053,0
-88.008857,43.050960,0
-88.008805,43.050768,0
-88.008770,43.050542,0
-88.008713,43.050119,0
-88.008677,43.049922,0
-88.008697,43.049790,0
-88.008602,43.049699,0
-88.008566,43.049599,0
-88.008563,43.049592,0
-88.008325,43.049366,0
-88.008492,43.049262,0
-88.008681,43.049144,0
-88.008865,43.049029,0
-88.009168,43.048873,0
-88.009507,43.048684,0
-88.010001,43.048441,0
-88.010228,43.048347,0
-88.010346,43.048297,0
-88.010431,43.048251,0
-88.010437,43.048248,0
-88.010659,43.048144,0
-88.010931,43.048046,0
-88.011396,43.047855,0
-88.011944,43.047620,0
-88.012470,43.047402,0
-88.013120,43.047136,0
-88.013866,43.046822,0
-88.014512,43.046552,0
-88.015296,43.046229,0
-88.015882,43.046030,0
-88.016562,43.045995,0
-88.017661,43.045970,0
-88.018191,43.045980,0
-88.018988,43.045961,0
-88.019688,43.045935,0
-88.020296,43.045916,0
-88.021322,43.045866,0
-88.022288,43.045773,0
-88.023367,43.045609,0
-88.024376,43.045413,0
-88.025146,43.045267,0
-88.025500,43.045224,0
-88.025739,43.045208,0
-88.025917,43.045199,0
-88.026090,43.045191,0
-88.026360,43.045172,0
-88.027055,43.045142,0
-88.027694,43.045108,0
-88.028621,43.045053,0
-88.029447,43.045019,0
-88.030022,43.044986,0
-88.030917,43.044957,0
-88.031723,43.044970,0
-88.032359,43.045007,0
-88.033143,43.045080,0
-88.033998,43.045199,0
-88.034618,43.045292,0
-88.035170,43.045368,0
-88.035324,43.045379,0
-88.035547,43.045405,0
-88.035860,43.045457,0
-88.036535,43.045561,0
-88.037229,43.045662,0
-88.037559,43.045688,0
-88.037717,43.045692,0
-88.037751,43.045694,0
-88.037834,43.045691,0
-88.038042,43.045689,0
-88.038450,43.045688,0
-88.039148,43.045708,0
-88.040311,43.045710,0
-88.041371,43.045703,0
-88.042673,43.045688,0
-88.043928,43.045679,0
-88.044959,43.045676,0
-88.045805,43.045668,0
-88.046655,43.045663,0
-88.046966,43.045662,0
-88.047092,43.045662,0
-88.047094,43.045663,0
-88.047342,43.045669,0
-88.047623,43.045671,0
-88.048171,43.045695,0
-88.048945,43.045734,0
-88.049710,43.045755,0
-88.050478,43.045706,0
-88.051138,43.045637,0
-88.051776,43.045624,0
-88.052605,43.045618,0
-88.053084,43.045610,0
-88.053729,43.045602,0
-88.054671,43.045574,0
-88.055350,43.045534,0
-88.056010,43.045508,0
-88.056304,43.045390,0
-88.056359,43.045186,0
-88.056356,43.045109,0
-88.056319,43.044361,0
-88.056309,43.043922,0
-88.056290,43.043320,0
-88.056277,43.042801,0
-88.056267,43.042678,0
-88.056362,43.042511,0
-88.056443,43.042480,0
-88.057034,43.042279,0
-88.057638,43.042085,0
-88.058341,43.041837,0
-88.058984,43.041600,0
-88.059889,43.041273,0
-88.060854,43.040924,0
-88.061634,43.040634,0
-88.062181,43.040401,0
-88.062880,43.040150,0
-88.063773,43.039867,0
-88.064273,43.039623,0
-88.064623,43.039350,0
-88.064949,43.038942,0
-88.065090,43.038590,0
-88.065217,43.037923,0
-88.065427,43.037429,0
-88.065699,43.037084,0
-88.065927,43.036818,0
-88.066017,43.036674,0
-88.066102,43.036575,0
-88.066158,43.036451,0
-88.066196,43.036274,0
-88.066399,43.036172,0
-88.066777,43.035948,0
-88.067224,43.035671,0
-88.067789,43.035418,0
-88.067870,43.035383,0
-88.068111,43.035182,0
-88.068174,43.034905,0
-88.068174,43.034448,0
-88.068126,43.033918,0
-88.068082,43.033593,0
-88.068082,43.033179,0
-88.068073,43.032570,0
-88.068115,43.031993,0
-88.068147,43.031655,0
-88.068163,43.031509,0
-88.068292,43.031385,0
-88.068400,43.031372,0
-88.068673,43.031382,0
-88.068686,43.031252,0
-88.068540,43.030979,0
-88.068214,43.030650,0
-88.067903,43.030372,0
-88.067566,43.030103,0
-88.067293,43.029866,0
-88.067113,43.029570,0
-88.067063,43.029422,0
-88.067094,43.029086,0
-88.067160,43.028703,0
-88.067305,43.028313,0
-88.067309,43.027970,0
-88.067231,43.027692,0
-88.067001,43.027384,0
-88.066788,43.027252,0
-88.066612,43.027009,0
-88.066600,43.026937,0
-88.066498,43.026429,0
-88.066357,43.026084,0
-88.066162,43.025725,0
-88.066126,43.025663,0
-88.065906,43.025446,0
-88.065669,43.025171,0
-88.065664,43.024961,0
-88.065897,43.024625,0
-88.066256,43.024367,0
-88.066643,43.024030,0
-88.066846,43.023872,0
-88.067065,43.023678,0
-88.067187,43.023541,0
-88.067244,43.022960,0
-88.067248,43.022440,0
-88.067229,43.021831,0
-88.067220,43.021274,0
-88.067230,43.020908,0
-88.067235,43.020399,0
-88.067243,43.019852,0
-88.067262,43.019132,0
-88.067269,43.018307,0
-88.067279,43.017752,0
-88.067286,43.017241,0
-88.067312,43.016851,0
-88.067340,43.016634,0
-88.067344,43.016586,0
-88.067350,43.016497,0
-88.067353,43.016275,0
-88.067333,43.015944,0
-88.067332,43.015550,0
-88.067342,43.015105,0
-88.067371,43.014401,0
-88.067384,43.013821,0
-88.067408,43.013055,0
-88.067432,43.012416,0
-88.067453,43.011769,0
-88.067466,43.011308,0
-88.067492,43.010736,0
-88.067517,43.010125,0
-88.067540,43.009542,0
-88.067560,43.009018,0
-88.067583,43.008310,0
-88.067597,43.007729,0
-88.067608,43.007097,0
-88.067623,43.006552,0
-88.067649,43.005920,0
-88.067676,43.005269,0
-88.067707,43.004535,0
-88.067745,43.003621,0
-88.067760,43.003132,0
-88.067760,43.002953,0
-88.067608,43.002772,0
-88.067269,43.002723,0
-88.066841,43.002729,0
-88.066669,43.002647,0
-88.066732,43.002484,0
-88.066941,43.002037,0
-88.067075,43.001466,0
-88.067113,43.001022,0
-88.067099,43.000657,0
-88.067062,43.000209,0
-88.066903,42.999883,0
-88.066732,42.999634,0
-88.066691,42.999582,0
-88.066321,42.999272,0
-88.065767,42.998843,0
-88.065055,42.998384,0
-88.064487,42.998039,0
-88.063981,42.997539,0
-88.063466,42.996952,0
-88.062968,42.996463,0
-88.062477,42.995997,0
-88.062251,42.995725,0
-88.062159,42.995577,0
-88.062093,42.995454,0
-88.061991,42.995213,0
-88.061825,42.994772,0
-88.061658,42.994438,0
-88.061465,42.994162,0
-88.061354,42.994048,0
-88.060989,42.993741,0
-88.060452,42.993446,0
-88.059984,42.993292,0
-88.059484,42.993194,0
-88.058893,42.993043,0
-88.058450,42.992814,0
-88.058100,42.992510,0
-88.057990,42.992373,0
-88.057715,42.991849,0
-88.057592,42.991467,0
-88.057516,42.990971,0
-88.057548,42.990383,0
-88.057666,42.989660,0
-88.057779,42.989034,0
-88.057893,42.988648,0
-88.057959,42.988435,0
-88.057987,42.988349,0
-88.057988,42.988344,0
-88.057988,42.988343,0
-88.057986,42.988302,0
-88.058017,42.988132,0
-88.058048,42.987796,0
-88.058103,42.987401,0
-88.058287,42.986993,0
-88.058649,42.986548,0
-88.059203,42.985908,0
-88.059465,42.985465,0
-88.059562,42.985065,0
-88.059548,42.984601,0
-88.059383,42.984172,0
-88.059104,42.983783,0
-88.058640,42.983373,0
-88.058067,42.982859,0
-88.057711,42.982461,0
-88.057413,42.981962,0
-88.057282,42.981509,0
-88.057248,42.981010,0
-88.057259,42.980697,0
-88.057271,42.980329,0
-88.057296,42.979781,0
-88.057304,42.979168,0
-88.057325,42.978589,0
-88.057342,42.978030,0
-88.057363,42.977477,0
-88.057386,42.976981,0
-88.057400,42.976470,0
-88.057410,42.975900,0
-88.057430,42.975404,0
-88.057452,42.974892,0
-88.057449,42.974393,0
-88.057445,42.974038,0
-88.057440,42.973874,0
-88.057458,42.973714,0
-88.057459,42.973709,0
-88.057460,42.973710,0
-88.057459,42.973636,0
-88.057317,42.973567,0
-88.057182,42.973565,0
-88.056640,42.973588,0
-88.055835,42.973577,0
-88.055351,42.973443,0
-88.055199,42.973338,0
-88.054614,42.972852,0
-88.054102,42.972465,0
-88.053951,42.972354,0
-88.053874,42.972284,0
-88.053871,42.972276,0
-88.053733,42.972123,0
-88.053671,42.972062,0
-88.053538,42.971866,0
-88.053398,42.971422,0
-88.053294,42.970969,0
-88.053222,42.970651,0
-88.053190,42.970532,0
-88.053124,42.970210,0
-88.053041,42.969804,0
-88.052970,42.969462,0
-88.052887,42.969061,0
-88.052861,42.968599,0
-88.052842,42.968121,0
-88.052803,42.967474,0
-88.052776,42.966920,0
-88.052765,42.966593,0
-88.052772,42.966282,0
-88.052760,42.965916,0
-88.052759,42.965870,0
-88.052761,42.965623,0
-88.052779,42.965166,0
-88.052784,42.964695,0
-88.052788,42.964260,0
-88.052809,42.963787,0
-88.052819,42.963278,0
-88.052830,42.962728,0
-88.052850,42.961987,0
-88.052858,42.961710,0
-88.052860,42.961305,0
-88.052860,42.961014,0
-88.052882,42.960866,0
-88.052885,42.960860,0
-88.052876,42.960919,0
-88.052875,42.960927,0
-88.052885,42.960883,0
-88.052856,42.960898,0
-88.052836,42.960884,0
-88.052846,42.960877,0
-88.052846,42.960875,0
-88.052826,42.960826,0
-88.052831,42.960718,0
-88.052843,42.960665,0
-88.052841,42.960642,0
-88.052853,42.960589,0
-88.052843,42.960428,0
-88.052845,42.960343,0
-88.052849,42.960267,0
-88.052860,42.960149,0
-88.052871,42.959894,0
-88.052864,42.959630,0
-88.052876,42.959407,0
-88.052882,42.959270,0
-88.052876,42.959137,0
-88.052765,42.959038,0
-88.052714,42.959026,0
-88.052262,42.959017,0
-88.051667,42.959017,0
-88.050945,42.959019,0
-88.050154,42.959016,0
-88.049057,42.959015,0
-88.048233,42.959019,0
-88.047217,42.959024,0
-88.046168,42.959029,0
-88.045041,42.959031,0
-88.044123,42.959038,0
-88.043170,42.959070,0
-88.041846,42.959113,0
-88.041354,42.959112,0
-88.040280,42.959106,0
-88.039553,42.959092,0
-88.039341,42.958992,0
-88.039336,42.958847,0
-88.039387,42.958460,0
-88.039257,42.958078,0
-88.039206,42.958012,0
-88.038790,42.957666,0
-88.038347,42.957441,0
-88.037547,42.957054,0
-88.036917,42.956762,0
-88.036110,42.956376,0
-88.035130,42.955857,0
-88.034490,42.955427,0
-88.033956,42.955035,0
-88.033397,42.954620,0
-88.032773,42.954194,0
-88.032024,42.953737,0
-88.031290,42.953316,0
-88.030450,42.952895,0
-88.029858,42.952610,0
-88.029009,42.952242,0
-88.028922,42.952212,0
-88.028664,42.952157,0
-88.028295,42.952148,0
-88.028075,42.952083,0
-88.028007,42.951994,0
-88.027843,42.951699,0
-88.027687,42.951523,0
-88.027546,42.951398,0
-88.027514,42.951360,0
-88.027395,42.951266,0
-88.027231,42.951172,0
-88.026977,42.951011,0
-88.026459,42.950697,0
-88.025912,42.950394,0
-88.025398,42.950167,0
-88.024765,42.949959,0
-88.024026,42.949819,0
-88.023355,42.949766,0
-88.022373,42.949768,0
-88.021475,42.949752,0
-88.020824,42.949665,0
-88.020108,42.949495,0
-88.019436,42.949248,0
-88.018861,42.948955,0
-88.018571,42.948766,0
-88.018455,42.948685,0
-88.018427,42.948664,0
-88.018346,42.948602,0
-88.018166,42.948472,0
-88.017898,42.948317,0
-88.017466,42.948115,0
-88.016861,42.947885,0
-88.016066,42.947653,0
-88.015543,42.947430,0
-88.015130,42.947148,0
-88.014680,42.946729,0
-88.014220,42.946378,0
-88.013769,42.946070,0
-88.013400,42.945659,0
-88.013215,42.945294,0
-88.013155,42.945068,0
-88.013123,42.944941,0
-88.013108,42.944845,0
-88.013071,42.944494,0
-88.013080,42.944192,0
-88.013105,42.944030,0
-88.013184,42.943712,0
-88.013402,42.943294,0
-88.013709,42.942886,0
-88.014031,42.942411,0
-88.014235,42.941991,0
-88.014390,42.941494,0
-88.014463,42.941005,0
-88.014536,42.940571,0
-88.014712,42.940049,0
-88.015028,42.939494,0
-88.015447,42.939012,0
-88.015994,42.938559,0
-88.016510,42.938175,0
-88.016868,42.937792,0
-88.017156,42.937287,0
-88.017457,42.936696,0
-88.017792,42.936108,0
-88.018085,42.935644,0
-88.018265,42.935233,0
-88.018352,42.934709,0
-88.018324,42.934197,0
-88.018317,42.933510,0
-88.018403,42.932984,0
-88.018528,42.932564,0
-88.018797,42.932034,0
-88.019136,42.931562,0
-88.019196,42.931497,0
-88.019602,42.931239,0
-88.020113,42.931076,0
-88.020650,42.931043,0
-88.021245,42.931127,0
-88.021896,42.931210,0
-88.022570,42.931211,0
-88.023342,42.931110,0
-88.023954,42.930933,0
-88.024957,42.930653,0
-88.025460,42.930563,0
-88.026372,42.930483,0
-88.027247,42.930498,0
-88.028019,42.930524,0
-88.028354,42.930536,0
-88.028464,42.930536,0
-88.028634,42.930543,0
-88.028949,42.930539,0
-88.029388,42.930452,0
-88.029628,42.930483,0
-88.029650,42.930530,0
-88.029774,42.930895,0
-88.029915,42.931137,0
-88.029913,42.931401,0
-88.029785,42.931758,0
-88.029848,42.932180,0
-88.029866,42.932612,0
-88.029780,42.932985,0
-88.029642,42.933316,0
-88.029443,42.933689,0
-88.029393,42.933851,0
-88.029438,42.934240,0
-88.029473,42.934307,0
-88.029825,42.934714,0
-88.030147,42.935054,0
-88.030294,42.935431,0
-88.030292,42.935584,0
-88.030261,42.935947,0
-88.030251,42.936125,0
-88.030302,42.936462,0
-88.030420,42.936592,0
-88.030555,42.936622,0
-88.030651,42.936667,0
-88.030871,42.936716,0
-88.031490,42.936699,0
-88.031629,42.936691,0
-88.031913,42.936760,0
-88.032130,42.936935,0
-88.032385,42.936928,0
-88.033244,42.936727,0
-88.033879,42.936656,0
-88.034468,42.936669,0
-88.035153,42.936704,0
-88.036231,42.936716,0
-88.036899,42.936613,0
-88.037458,42.936494,0
-88.037887,42.936467,0
-88.038311,42.936527,0
-88.038758,42.936712,0
-88.039187,42.936833,0
-88.039841,42.936854,0
-88.040440,42.936836,0
-88.040891,42.936900,0
-88.041584,42.937081,0
-88.041997,42.937159,0
-88.042134,42.937181,0
-88.042462,42.937167,0
-88.042815,42.937098,0
-88.043044,42.937022,0
-88.043447,42.936767,0
-88.043743,42.936480,0
-88.044075,42.936206,0
-88.044548,42.935917,0
-88.044957,42.935703,0
-88.045217,42.935526,0
-88.045423,42.935252,0
-88.045455,42.934937,0
-88.045382,42.934728,0
-88.045260,42.934546,0
-88.044994,42.934355,0
-88.044827,42.934277,0
-88.044350,42.934113,0
-88.043828,42.934038,0
-88.043344,42.934028,0
-88.042663,42.934059,0
-88.042158,42.934010,0
-88.041805,42.933926,0
-88.041120,42.933601,0
-88.040519,42.933261,0
-88.040341,42.933158,0
-88.040055,42.933074,0
-88.039730,42.933156,0
-88.039286,42.933290,0
-88.038731,42.933358,0
-88.038425,42.933334,0
-88.037889,42.933228,0
-88.037258,42.932946,0
-88.036821,42.932703,0
-88.036210,42.932494,0
-88.035538,42.932402,0
-88.034605,42.932371,0
-88.033897,42.932436,0
-88.033153,42.932544,0
-88.032603,42.932583,0
-88.032140,42.932531,0
-88.031637,42.932366,0
-88.030847,42.931985,0
-88.030326,42.931598,0
-88.029992,42.931247,0
-88.029722,42.930800,0
-88.029612,42.930530,0
-88.029442,42.930403,0
-88.029224,42.930425,0
-88.028788,42.930501,0
-88.028635,42.930510,0
-88.028436,42.930505,0
-88.027899,42.930486,0
-88.027358,42.930475,0
-88.026619,42.930451,0
-88.026062,42.930485,0
-88.025309,42.930585,0
-88.024666,42.930713,0
-88.023949,42.930908,0
-88.023204,42.931113,0
-88.022617,42.931201,0
-88.021913,42.931214,0
-88.021241,42.931148,0
-88.020616,42.931064,0
-88.020121,42.931076,0
-88.019708,42.931164,0
-88.019386,42.931290,0
-88.019043,42.931546,0
-88.018940,42.931653,0
-88.018631,42.932116,0
-88.018602,42.932177,0
-88.018372,42.932637,0
-88.018243,42.933131,0
-88.018169,42.933906,0
-88.018210,42.934499,0
-88.018181,42.935118,0
-88.018003,42.935625,0
-88.017707,42.936107,0
-88.017372,42.936681,0
-88.016981,42.937425,0
-88.016682,42.937920,0
-88.016305,42.938283,0
-88.015617,42.938802,0
-88.015168,42.939226,0
-88.014823,42.939701,0
-88.014565,42.940213,0
-88.014434,42.940645,0
-88.014328,42.941383,0
-88.014156,42.942020,0
-88.013869,42.942607,0
-88.013528,42.943067,0
-88.013205,42.943624,0
-88.013056,42.944167,0
-88.013036,42.944462,0
-88.013032,42.944510,0
-88.013053,42.944720,0
-88.013069,42.944806,0
-88.013084,42.944936,0
-88.013159,42.945217,0
-88.013296,42.945572,0
-88.013568,42.945949,0
-88.013967,42.946287,0
-88.014616,42.946741,0
-88.015053,42.947161,0
-88.015573,42.947524,0
-88.016126,42.947760,0
-88.017010,42.948007,0
-88.017783,42.948296,0
-88.018164,42.948507,0
-88.018398,42.948671,0
-88.018705,42.948876,0
-88.019206,42.949191,0
-88.019921,42.949487,0
-88.020704,42.949699,0
-88.021682,42.949829,0
-88.022646,42.949841,0
-88.023698,42.949853,0
-88.024313,42.949932,0
-88.025164,42.950140,0
-88.025845,42.950404,0
-88.026317,42.950656,0
-88.026808,42.950949,0
-88.027120,42.951146,0
-88.027241,42.951241,0
-88.027365,42.951345,0
-88.027577,42.951497,0
-88.027886,42.951764,0
-88.028059,42.952039,0
-88.028287,42.952210,0
-88.028467,42.952233,0
-88.028660,42.952242,0
-88.029141,42.952361,0
-88.029919,42.952721,0
-88.030563,42.953031,0
-88.031289,42.953397,0
-88.031973,42.953782,0
-88.032727,42.954238,0
-88.033548,42.954790,0
-88.034280,42.955328,0
-88.035029,42.955858,0
-88.035847,42.956315,0
-88.037128,42.956949,0
-88.037997,42.957358,0
-88.038698,42.957707,0
-88.039184,42.958073,0
-88.039247,42.958144,0
-88.039387,42.958444,0
-88.039393,42.958794,0
-88.039375,42.959044,0
-88.039372,42.959176,0
-88.039357,42.959219,0
-88.039348,42.959229,0
-88.039344,42.959231,0
-88.039436,42.959390,0
-88.039657,42.959441,0
-88.040047,42.959571,0
-88.040104,42.959635,0
-88.040173,42.959722,0
-88.040256,42.959893,0
-88.040245,42.959943,0
-88.040211,42.960274,0
-88.040214,42.960373,0
-88.040193,42.960539,0
-88.040228,42.960740,0
-88.040448,42.961154,0
-88.040575,42.961338,0
-88.040762,42.961782,0
-88.041028,42.962199,0
-88.041306,42.962679,0
-88.041570,42.963276,0
-88.041781,42.963884,0
-88.041981,42.964511,0
-88.042226,42.965229,0
-88.042417,42.965629,0
-88.042491,42.966000,0
-88.042506,42.966277,0
-88.042516,42.966368,0
-88.042516,42.966378,0
-88.042513,42.966380,0
-88.042514,42.966512,0
-88.042520,42.966546,0
-88.042533,42.966737,0
-88.042687,42.967171,0
-88.042912,42.967656,0
-88.043141,42.968140,0
-88.043354,42.968538,0
-88.043748,42.969203,0
-88.044244,42.969965,0
-88.044548,42.970192,0
-88.044652,42.970227,0
-88.045269,42.970433,0
-88.045931,42.970624,0
-88.046141,42.970687,0
-88.046593,42.970749,0
-88.047193,42.970748,0
-88.047423,42.970740,0
-88.047500,42.970741,0
-88.047505,42.970741,0
-88.047605,42.970728,0
-88.047785,42.970723,0
-88.047983,42.970738,0
-88.048078,42.970835,0
-88.048078,42.970884,0
-88.048073,42.971165,0
-88.048177,42.971406,0
-88.048303,42.971489,0
-88.048881,42.971726,0
-88.049054,42.971786,0
-88.049681,42.971954,0
-88.050132,42.972177,0
-88.050661,42.972502,0
-88.051254,42.972913,0
-88.051387,42.973014,0
-88.051629,42.973098,0
-88.051745,42.973125,0
-88.051870,42.973178,0
-88.052044,42.973125,0
-88.052519,42.972851,0
-88.053124,42.972549,0
-88.053545,42.972343,0
-88.053842,42.972337,0
-88.053959,42.972426,0
-88.054444,42.972833,0
-88.055016,42.973302,0
-88.055224,42.973462,0
-88.055680,42.973639,0
-88.056310,42.973672,0
-88.056970,42.973679,0
-88.057287,42.973681,0
-88.057426,42.973773,0
-88.057432,42.973903,0
-88.057415,42.974519,0
-88.057395,42.975097,0
-88.057385,42.975460,0
-88.057363,42.976142,0
-88.057348,42.976647,0
-88.057339,42.977052,0
-88.057307,42.977880,0
-88.057280,42.978616,0
-88.057259,42.979545,0
-88.057241,42.980312,0
-88.057230,42.980616,0
-88.057226,42.980748,0
-88.057217,42.980890,0
-88.057201,42.981055,0
-88.057188,42.981485,0
-88.057300,42.981962,0
-88.057502,42.982403,0
-88.057852,42.982859,0
-88.058342,42.983315,0
-88.059108,42.984031,0
-88.059382,42.984495,0
-88.059473,42.985007,0
-88.059329,42.985610,0
-88.059028,42.986059,0
-88.058374,42.986801,0
-88.058095,42.987204,0
-88.057959,42.987582,0
-88.057932,42.987829,0
-88.057927,42.987991,0
-88.057927,42.988059,0
-88.057927,42.988061,0
-88.057927,42.988060,0
-88.057902,42.988222,0
-88.057854,42.988513,0
-88.057730,42.988966,0
-88.057613,42.989451,0
-88.057517,42.990036,0
-88.057451,42.990527,0
-88.057444,42.991057,0
-88.057548,42.991606,0
-88.057794,42.992214,0
-88.058070,42.992601,0
-88.058432,42.992907,0
-88.058895,42.993133,0
-88.059415,42.993280,0
-88.060140,42.993436,0
-88.060695,42.993662,0
-88.061171,42.993975,0
-88.061471,42.994304,0
-88.061695,42.994676,0
-88.061902,42.995185,0
-88.061970,42.995388,0
-88.061985,42.995440,0
-88.062028,42.995520,0
-88.062138,42.995667,0
-88.062365,42.995955,0
-88.062633,42.996222,0
-88.063122,42.996678,0
-88.063480,42.997059,0
-88.063821,42.997428,0
-88.064284,42.997955,0
-88.064652,42.998244,0
-88.065428,42.998700,0
-88.065978,42.999111,0
-88.066529,42.999527,0
-88.066681,42.999691,0
-88.066836,42.999942,0
-88.066923,43.000068,0
-88.067023,43.000294,0
-88.067068,43.000860,0
-88.067008,43.001506,0
-88.066849,43.002129,0
-88.066728,43.002446,0
-88.066635,43.002651,0
-88.066581,43.002757,0
-88.066514,43.002876,0
-88.066381,43.003049,0
-88.066110,43.003291,0
-88.065716,43.003491,0
-88.065327,43.003586,0
-88.064920,43.003591,0
-88.064347,43.003476,0
-88.063721,43.003329,0
-88.063258,43.003255,0
-88.062815,43.003234,0
-88.062214,43.003180,0
-88.061482,43.003183,0
-88.061074,43.003253,0
-88.060524,43.003436,0
-88.060340,43.003528,0
-88.060026,43.003846,0
-88.059905,43.003990,0
-88.059683,43.004182,0
-88.059296,43.004397,0
-88.059099,43.004504,0
-88.058744,43.004839,0
-88.058681,43.005133,0
-88.058660,43.005669,0
-88.058657,43.005833,0
-88.058762,43.006155,0
-88.059015,43.006677,0
-88.059067,43.006824,0
-88.059112,43.007113,0
-88.059139,43.007233,0
-88.059035,43.007538,0
-88.058953,43.007676,0
-88.058550,43.008076,0
-88.058267,43.008227,0
-88.057681,43.008389,0
-88.057447,43.008412,0
-88.057181,43.008411,0
-88.057172,43.008411,0
-88.057085,43.008421,0
-88.056948,43.008488,0
-88.056838,43.008679,0
-88.056828,43.008745,0
-88.056819,43.009416,0
-88.056820,43.010161,0
-88.056821,43.010808,0
-88.056822,43.011486,0
-88.056820,43.012250,0
-88.056820,43.013305,0
-88.056815,43.014055,0
-88.056816,43.014911,0
-88.056839,43.015641,0
-88.056870,43.016008,0
-88.056880,43.016198,0
-88.056886,43.016279,0
-88.056886,43.016279,0
-88.056884,43.016449,0
-88.056912,43.016657,0
-88.056973,43.017091,0
-88.057043,43.017812,0
-88.057044,43.018406,0
-88.057043,43.019060,0
-88.057050,43.019636,0
-88.057055,43.019986,0
-88.057057,43.020198,0
-88.057062,43.020645,0
-88.057061,43.021093,0
-88.057065,43.021631,0
-88.057059,43.021878,0
-88.057040,43.022017,0
-88.057034,43.022027,0
-88.057023,43.022031,0
-88.057023,43.022031,0
-88.057028,43.021974,0
-88.057044,43.021973,0
-88.057057,43.021992,0
-88.057068,43.022145,0
-88.057069,43.022168,0
-88.057074,43.022375,0
-88.057068,43.022550,0
-88.057067,43.022806,0
-88.057068,43.023267,0
-88.057064,43.023594,0
-88.057067,43.023834,0
-88.057075,43.024275,0
-88.057191,43.024643,0
-88.057346,43.024904,0
-88.057659,43.025217,0
-88.058374,43.025755,0
-88.059078,43.026280,0
-88.059850,43.026868,0
-88.060635,43.027488,0
-88.061382,43.028072,0
-88.061940,43.028597,0
-88.062167,43.029039,0
-88.062406,43.029858,0
-88.062632,43.030595,0
-88.062771,43.031098,0
-88.062829,43.031760,0
-88.062841,43.032623,0
-88.062840,43.033427,0
-88.062798,43.034304,0
-88.062768,43.034834,0
-88.062733,43.035279,0
-88.062712,43.035643,0
-88.062694,43.035999,0
-88.062684,43.036193,0
-88.062684,43.036213,0
-88.062683,43.036276,0
-88.062691,43.036412,0
-88.062680,43.036611,0
-88.062692,43.037006,0
-88.062696,43.037413,0
-88.062690,43.037775,0
-88.062710,43.038053,0
-88.062816,43.038381,0
-88.062908,43.038508,0
-88.062868,43.038619,0
-88.062811,43.038646,0
-88.062306,43.038916,0
-88.061738,43.039228,0
-88.061144,43.039552,0
-88.061068,43.039584,0
-88.060666,43.039688,0
-88.060426,43.039727,0
-88.059919,43.039807,0
-88.059218,43.039921,0
-88.058672,43.040005,0
-88.058018,43.040108,0
-88.057501,43.040195,0
-88.056728,43.040315,0
-88.056338,43.040382,0
-88.056183,43.040426,0
-88.056130,43.040669,0
-88.056142,43.041109,0
-88.056150,43.041503,0
-88.056165,43.042002,0
-88.056186,43.042709,0
-88.056198,43.043045,0
-88.056205,43.043659,0
-88.056224,43.044369,0
-88.056230,43.045012,0
-88.056228,43.045372,0
-88.056216,43.045468,0
-88.056208,43.045482,0
-88.056082,43.045515,0
-88.056026,43.045513,0
-88.055576,43.045511,0
-88.054869,43.045490,0
-88.054061,43.045477,0
-88.053052,43.045489,0
-88.052585,43.045498,0
-88.051756,43.045513,0
-88.050881,43.045524,0
-88.050258,43.045532,0
-88.049792,43.045535,0
-88.049164,43.045543,0
-88.048450,43.045533,0
-88.047987,43.045525,0
-88.047764,43.045524,0
-88.047542,43.045509,0
-88.047506,43.045508,0
-88.047503,43.045509,0
-88.047193,43.045513,0
-88.046764,43.045522,0
-88.046166,43.045521,0
-88.045340,43.045522,0
-88.044655,43.045527,0
-88.043949,43.045526,0
-88.043574,43.045525,0
-88.043460,43.045526,0
-88.043156,43.045527,0
-88.042590,43.045530,0
-88.041957,43.045531,0
-88.041268,43.045533,0
-88.040519,43.045536,0
-88.039647,43.045541,0
-88.039076,43.045549,0
-88.038691,43.045556,0
-88.038386,43.045565,0
-88.038151,43.045568,0
-88.037990,43.045576,0
-88.037988,43.045575,0
-88.037878,43.045574,0
-88.037616,43.045567,0
-88.037113,43.045527,0
-88.036671,43.045455,0
-88.036457,43.045422,0
-88.036257,43.045410,0
-88.035936,43.045352,0
-88.035787,43.045325,0
-88.035701,43.045307,0
-88.035600,43.045295,0
-88.035364,43.045255,0
-88.034976,43.045187,0
-88.034562,43.045119,0
-88.033932,43.045018,0
-88.033158,43.044906,0
-88.032296,43.044821,0
-88.031231,43.044776,0
-88.030569,43.044782,0
-88.029670,43.044823,0
-88.029305,43.044845,0
-88.028234,43.044902,0
-88.027432,43.044941,0
-88.026496,43.044992,0
-88.025411,43.045053,0
-88.024646,43.045157,0
-88.023918,43.045295,0
-88.023025,43.045465,0
-88.021925,43.045617,0
-88.021041,43.045704,0
-88.020291,43.045761,0
-88.019177,43.045842,0
-88.018282,43.045905,0
-88.017400,43.045961,0
-88.016668,43.045986,0
-88.015841,43.046008,0
-88.015430,43.046112,0
-88.014731,43.046413,0
-88.014075,43.046681,0
-88.013274,43.047012,0
-88.012853,43.047190,0
-88.012718,43.047243,0
-88.012639,43.047272,0
-88.012639,43.047273,0
-88.012440,43.047362,0
-88.012097,43.047519,0
-88.011392,43.047820,0
-88.010836,43.048062,0
-88.010735,43.048108,0
-88.010563,43.048342,0
-88.010632,43.048525,0
-88.010582,43.048798,0
-88.010501,43.048871,0
-88.009719,43.049567,0
-88.009586,43.049678,0
-88.009522,43.049728,0
-88.009493,43.049746,0
-88.009415,43.049821,0
-88.009250,43.049991,0
-88.009241,43.050001,0
-88.009238,43.050004,0
-88.009073,43.050125,0
-88.008867,43.050318,0
-88.008469,43.050619,0
-88.008061,43.050793,0
-88.007995,43.050818,0
-88.007705,43.050836,0
-88.007507,43.050814,0
-88.007481,43.050795,0
-88.007527,43.050713,0
-88.007758,43.050736,0
-88.007782,43.050737,0
-88.007784,43.050739,0
-88.007774,43.050766,0
-88.007813,43.050725,0
-88.007774,43.050711,0
-88.007621,43.050672,0
-88.007528,43.050661,0
-88.007374,43.050705,0
-88.007358,43.050819,0
-88.007366,43.051030,0
-88.007358,43.051563,0
-88.007349,43.052104,0
-88.007348,43.052434,0
-88.007353,43.052542,0
-88.007356,43.052642,0
-88.007361,43.052940,0
-88.007365,43.053459,0
-88.007373,43.054222,0
-88.007399,43.054760,0
-88.007421,43.055149,0
-88.007577,43.055290,0
-88.007748,43.055306,0
-88.008539,43.055270,0
-88.008764,43.055356,0
-88.008777,43.055476,0
-88.008697,43.055665,0
-88.008585,43.055675,0
-88.008487,43.055671,0
-88.008367,43.055697,0
-88.008362,43.055697,0
		</coordinates>
	  </LineString>
	</Placemark>
  </Document>
</kml>