<?xml version="1.0" encoding="UTF-8"?>
<kml xmlns="http://www.opengis.net/kml/2.2">
  <Document>
	<name>Evening roll with custard</name>
	<description>This is a lovely ride through the UW Arboretum.  It's mostly low-traffic roads or paths and you're likely to see lots of wildlife.  You may even have to ring your bike bell for the turkeys crossing the road!  Take a break along the way for custard at Michael's Custard.  You earned it after  some of the hills in the Arboretum!</description>
	<Style id="style1">
	  <LineStyle>
		<color>BF0000FF</color>
		<width>3</width>
	  </LineStyle>
	</Style>
	<Style id="yellowLineGreenPoly">
	  <LineStyle>
		<color>7f0000ff</color>
		<width>4</width>
	  </LineStyle>
	  <PolyStyle>
		<color>7f00ff00</color>
	  </PolyStyle>
	</Style>
	<Placemark>
	  <name>Evening roll with custard</name>
	  <description>This is a lovely ride through the UW Arboretum.  It's mostly low-traffic roads or paths and you're likely to see lots of wildlife.  You may even have to ring your bike bell for the turkeys crossing the road!  Take a break along the way for custard at Michael's Custard.  You earned it after  some of the hills in the Arboretum!</description>
	  <styleUrl>#style1</styleUrl>
	  <LineString>
		<tessellate>1</tessellate>
		<coordinates>
		  -89.430599,43.040867,0
-89.432316,43.040052,0
-89.431329,43.043533,0
-89.426608,43.045603,0
-89.421115,43.045603,0
-89.421329,43.048175,0
-89.419827,43.048802,0
-89.415793,43.049367,0
-89.411330,43.049649,0
-89.409227,43.052785,0
-89.409485,43.054541,0
-89.408369,43.056046,0
-89.404678,43.056109,0
-89.403777,43.056830,0
-89.407125,43.058304,0
-89.409614,43.058022,0
-89.414163,43.058116,0
-89.417081,43.059433,0
-89.417853,43.059464,0
-89.420686,43.057363,0
-89.421930,43.056297,0
-89.423819,43.055827,0
-89.424677,43.059840,0
-89.432058,43.055043,0
-89.436650,43.051844,0
-89.437165,43.050307,0
-89.438710,43.048238,0
-89.440212,43.044129,0
-89.441328,43.041714,0
-89.443603,43.040114,0
-89.443688,43.039424,0
-89.441328,43.039268,0
-89.439268,43.039330,0
-89.436822,43.038138,0
-89.434547,43.038138,0
-89.432616,43.039299,0
-89.432359,43.039832,0
-89.430385,43.040773,0
		</coordinates>
	  </LineString>
	</Placemark>
  </Document>
</kml>