<?xml version="1.0" encoding="UTF-8"?>
<kml xmlns="http://www.opengis.net/kml/2.2">
  <Document>
	<name>Hayward Haymaker 39</name>
	<description>Also captured from the New Moon Tuesday night ride</description>
	<Style id="style1">
	  <LineStyle>
		<color>BF0000FF</color>
		<width>3</width>
	  </LineStyle>
	</Style>
	<Style id="yellowLineGreenPoly">
	  <LineStyle>
		<color>7f0000ff</color>
		<width>4</width>
	  </LineStyle>
	  <PolyStyle>
		<color>7f00ff00</color>
	  </PolyStyle>
	</Style>
	<Placemark>
	  <name>Hayward Haymaker 39</name>
	  <description>Also captured from the New Moon Tuesday night ride</description>
	  <styleUrl>#style1</styleUrl>
	  <LineString>
		<tessellate>1</tessellate>
		<coordinates>
		  -91.362871,46.119875,0
-91.362870,46.119875,0
-91.362868,46.119875,0
-91.362864,46.119877,0
-91.362851,46.119906,0
-91.362779,46.119906,0
-91.362730,46.119887,0
-91.362780,46.119827,0
-91.362711,46.119777,0
-91.362570,46.119856,0
-91.362491,46.119909,0
-91.362210,46.120145,0
-91.361795,46.120486,0
-91.361321,46.120874,0
-91.360745,46.121373,0
-91.360324,46.121793,0
-91.359865,46.122364,0
-91.359539,46.122866,0
-91.359338,46.123284,0
-91.359224,46.123556,0
-91.359095,46.123978,0
-91.358943,46.124725,0
-91.358820,46.125413,0
-91.358725,46.125907,0
-91.358624,46.126487,0
-91.358521,46.127032,0
-91.358426,46.127624,0
-91.358419,46.127741,0
-91.358569,46.127933,0
-91.358833,46.127991,0
-91.359582,46.128067,0
-91.360003,46.128115,0
-91.360890,46.128095,0
-91.361481,46.128118,0
-91.361943,46.128134,0
-91.362505,46.128140,0
-91.362993,46.128132,0
-91.363778,46.128115,0
-91.364602,46.128108,0
-91.365521,46.128120,0
-91.366193,46.128146,0
-91.367254,46.128150,0
-91.368060,46.128151,0
-91.368682,46.128151,0
-91.369553,46.128131,0
-91.370393,46.128140,0
-91.371127,46.128153,0
-91.371315,46.128151,0
-91.372019,46.128135,0
-91.372815,46.128120,0
-91.373413,46.128113,0
-91.374046,46.128116,0
-91.374630,46.128127,0
-91.374738,46.128126,0
-91.375431,46.128139,0
-91.376243,46.128152,0
-91.377141,46.128158,0
-91.378192,46.128165,0
-91.378980,46.128159,0
-91.379751,46.128138,0
-91.380494,46.128098,0
-91.381181,46.128073,0
-91.381742,46.128055,0
-91.382314,46.128022,0
-91.382849,46.128004,0
-91.383440,46.128000,0
-91.383799,46.128002,0
-91.384568,46.127964,0
-91.385044,46.127912,0
-91.385547,46.127825,0
-91.385602,46.127814,0
-91.385793,46.127697,0
-91.385833,46.127542,0
-91.385834,46.127421,0
-91.385827,46.126916,0
-91.385807,46.126416,0
-91.385797,46.125866,0
-91.385798,46.125297,0
-91.385795,46.124762,0
-91.385792,46.124315,0
-91.385788,46.123993,0
-91.385786,46.123582,0
-91.385798,46.123063,0
-91.385818,46.122590,0
-91.385883,46.122194,0
-91.385926,46.121754,0
-91.385925,46.121669,0
-91.385884,46.121097,0
-91.385877,46.120786,0
-91.385861,46.120355,0
-91.385850,46.120023,0
-91.385837,46.119519,0
-91.385830,46.119059,0
-91.385826,46.118622,0
-91.385819,46.118119,0
-91.385813,46.117619,0
-91.385816,46.117144,0
-91.385816,46.116752,0
-91.385819,46.116415,0
-91.385809,46.116007,0
-91.385793,46.115721,0
-91.385783,46.115452,0
-91.385779,46.115035,0
-91.385775,46.114592,0
-91.385777,46.114042,0
-91.385788,46.113433,0
-91.385785,46.112858,0
-91.385778,46.112296,0
-91.385770,46.111640,0
-91.385764,46.111068,0
-91.385756,46.110454,0
-91.385753,46.109834,0
-91.385744,46.109213,0
-91.385722,46.108472,0
-91.385714,46.107920,0
-91.385710,46.107345,0
-91.385710,46.106831,0
-91.385754,46.106302,0
-91.385746,46.105897,0
-91.385739,46.105629,0
-91.385731,46.105351,0
-91.385711,46.104875,0
-91.385699,46.104236,0
-91.385693,46.103623,0
-91.385684,46.103393,0
-91.385672,46.102741,0
-91.385666,46.102225,0
-91.385663,46.101648,0
-91.385649,46.101154,0
-91.385647,46.100550,0
-91.385644,46.099875,0
-91.385633,46.099460,0
-91.385621,46.099363,0
-91.385670,46.099231,0
-91.385873,46.099158,0
-91.385963,46.099152,0
-91.386685,46.099120,0
-91.387366,46.099089,0
-91.387998,46.099072,0
-91.388810,46.099093,0
-91.389617,46.099138,0
-91.390153,46.099166,0
-91.390764,46.099191,0
-91.391611,46.099225,0
-91.392424,46.099248,0
-91.393251,46.099264,0
-91.394301,46.099288,0
-91.395333,46.099303,0
-91.395710,46.099193,0
-91.395885,46.099010,0
-91.395948,46.098785,0
-91.395948,46.098019,0
-91.395938,46.097326,0
-91.395931,46.096670,0
-91.395923,46.095831,0
-91.395921,46.095353,0
-91.395920,46.094911,0
-91.395917,46.094322,0
-91.395913,46.093772,0
-91.395919,46.093122,0
-91.395924,46.092485,0
-91.395912,46.091902,0
-91.395905,46.091263,0
-91.395901,46.090535,0
-91.395902,46.090017,0
-91.395900,46.089362,0
-91.395892,46.088926,0
-91.395886,46.088488,0
-91.395889,46.088045,0
-91.395878,46.087417,0
-91.395868,46.087009,0
-91.395876,46.086887,0
-91.396005,46.086589,0
-91.396151,46.086331,0
-91.396196,46.086043,0
-91.396182,46.085952,0
-91.396064,46.085716,0
-91.395840,46.085441,0
-91.395639,46.085159,0
-91.395602,46.084890,0
-91.395783,46.084316,0
-91.395810,46.083903,0
-91.395807,46.083537,0
-91.395812,46.083028,0
-91.395862,46.082456,0
-91.396031,46.082145,0
-91.396298,46.081741,0
-91.396679,46.081184,0
-91.397052,46.080670,0
-91.397587,46.079977,0
-91.398083,46.079353,0
-91.398570,46.078733,0
-91.398955,46.078269,0
-91.399283,46.077955,0
-91.399656,46.077599,0
-91.400072,46.077238,0
-91.400497,46.076863,0
-91.400913,46.076496,0
-91.401313,46.076073,0
-91.401907,46.075378,0
-91.402390,46.074798,0
-91.403026,46.074068,0
-91.403392,46.073637,0
-91.403822,46.073141,0
-91.403912,46.073037,0
-91.404255,46.072643,0
-91.404758,46.072053,0
-91.405074,46.071680,0
-91.405525,46.071157,0
-91.405880,46.070765,0
-91.406395,46.070150,0
-91.406812,46.069639,0
-91.406856,46.069554,0
-91.406987,46.068940,0
-91.407034,46.068469,0
-91.407025,46.068112,0
-91.406873,46.067812,0
-91.406810,46.067734,0
-91.406443,46.067422,0
-91.405974,46.067054,0
-91.405579,46.066730,0
-91.405158,46.066304,0
-91.405077,46.066157,0
-91.405013,46.065686,0
-91.405055,46.065134,0
-91.405074,46.064464,0
-91.405093,46.063834,0
-91.405110,46.063226,0
-91.405129,46.062648,0
-91.405153,46.062007,0
-91.405167,46.061537,0
-91.405188,46.060941,0
-91.405195,46.060170,0
-91.405208,46.059433,0
-91.405216,46.058718,0
-91.405226,46.058167,0
-91.405241,46.057623,0
-91.405252,46.057111,0
-91.405263,46.056415,0
-91.405266,46.055524,0
-91.405272,46.054868,0
-91.405283,46.054162,0
-91.405283,46.053538,0
-91.405288,46.052866,0
-91.405292,46.052273,0
-91.405297,46.052046,0
-91.405291,46.051491,0
-91.405208,46.051111,0
-91.405026,46.050816,0
-91.404697,46.050446,0
-91.404476,46.050234,0
-91.404308,46.050053,0
-91.404100,46.049812,0
-91.403700,46.049447,0
-91.403237,46.049020,0
-91.402829,46.048711,0
-91.402766,46.048669,0
-91.402552,46.048520,0
-91.402250,46.048348,0
-91.402042,46.048233,0
-91.401555,46.048081,0
-91.401076,46.047959,0
-91.400364,46.047822,0
-91.399862,46.047696,0
-91.399182,46.047546,0
-91.398966,46.047507,0
-91.398680,46.047445,0
-91.398043,46.047261,0
-91.397350,46.047051,0
-91.396836,46.046880,0
-91.396108,46.046656,0
-91.395514,46.046487,0
-91.394898,46.046290,0
-91.394287,46.046099,0
-91.393662,46.045865,0
-91.393350,46.045774,0
-91.392643,46.045660,0
-91.392034,46.045622,0
-91.391568,46.045639,0
-91.390829,46.045690,0
-91.390320,46.045684,0
-91.389669,46.045598,0
-91.389586,46.045583,0
-91.389106,46.045473,0
-91.389033,46.045457,0
-91.388824,46.045379,0
-91.388376,46.045146,0
-91.388326,46.045115,0
-91.388066,46.044978,0
-91.387544,46.044676,0
-91.387205,46.044475,0
-91.387040,46.044365,0
-91.386850,46.044182,0
-91.386734,46.044048,0
-91.386495,46.043682,0
-91.386243,46.043193,0
-91.386067,46.042851,0
-91.385916,46.042564,0
-91.385755,46.042258,0
-91.385573,46.041931,0
-91.385547,46.041884,0
-91.385363,46.041551,0
-91.385225,46.041311,0
-91.385043,46.040998,0
-91.384956,46.040897,0
-91.384819,46.040639,0
-91.384704,46.040447,0
-91.384568,46.040228,0
-91.384534,46.040075,0
-91.384502,46.039883,0
-91.384513,46.039436,0
-91.384523,46.038929,0
-91.384524,46.038433,0
-91.384515,46.037873,0
-91.384506,46.037545,0
-91.384493,46.037303,0
-91.384470,46.036936,0
-91.384488,46.036707,0
-91.384439,46.036172,0
-91.384452,46.035744,0
-91.384459,46.035352,0
-91.384452,46.034947,0
-91.384455,46.034521,0
-91.384456,46.034190,0
-91.384460,46.033919,0
-91.384452,46.033173,0
-91.384437,46.032660,0
-91.384420,46.032224,0
-91.384412,46.031904,0
-91.384403,46.031692,0
-91.384353,46.031483,0
-91.384355,46.031240,0
-91.384346,46.031129,0
-91.384356,46.030996,0
-91.384356,46.030851,0
-91.384321,46.030537,0
-91.384323,46.030068,0
-91.384322,46.029693,0
-91.384320,46.029610,0
-91.384305,46.029041,0
-91.384302,46.028669,0
-91.384294,46.028255,0
-91.384299,46.027859,0
-91.384278,46.027411,0
-91.384278,46.027037,0
-91.384247,46.026776,0
-91.384216,46.026325,0
-91.384206,46.026141,0
-91.384201,46.025896,0
-91.384197,46.025615,0
-91.384197,46.025248,0
-91.384174,46.025001,0
-91.384181,46.024839,0
-91.384186,46.024641,0
-91.384139,46.024419,0
-91.384131,46.024394,0
-91.384096,46.024383,0
-91.384092,46.024390,0
-91.384094,46.024367,0
-91.384100,46.024347,0
-91.384091,46.024343,0
-91.384030,46.024375,0
-91.384037,46.024404,0
-91.384069,46.024613,0
-91.383995,46.024682,0
-91.383981,46.024716,0
-91.384013,46.024746,0
-91.384017,46.024735,0
-91.384096,46.024712,0
-91.384160,46.024596,0
-91.384129,46.024478,0
-91.384134,46.024395,0
-91.384132,46.024375,0
-91.384124,46.024397,0
-91.384130,46.024264,0
-91.384133,46.024012,0
-91.384124,46.023771,0
-91.384116,46.023486,0
-91.384095,46.022917,0
-91.384075,46.022374,0
-91.384083,46.021649,0
-91.384072,46.020762,0
-91.384056,46.020028,0
-91.384040,46.019224,0
-91.384032,46.018659,0
-91.384008,46.018007,0
-91.383996,46.017420,0
-91.383982,46.016864,0
-91.383967,46.016239,0
-91.383952,46.015581,0
-91.383928,46.014698,0
-91.383912,46.013950,0
-91.383893,46.013301,0
-91.383878,46.012714,0
-91.383846,46.012194,0
-91.383835,46.011842,0
-91.383693,46.011676,0
-91.383397,46.011622,0
-91.382404,46.011621,0
-91.381363,46.011626,0
-91.380231,46.011635,0
-91.379084,46.011639,0
-91.378148,46.011646,0
-91.377189,46.011644,0
-91.376307,46.011645,0
-91.375026,46.011644,0
-91.373998,46.011650,0
-91.373222,46.011650,0
-91.372292,46.011651,0
-91.371312,46.011650,0
-91.370606,46.011657,0
-91.369688,46.011659,0
-91.368539,46.011662,0
-91.367583,46.011654,0
-91.366612,46.011647,0
-91.365511,46.011651,0
-91.364440,46.011651,0
-91.364142,46.011652,0
-91.363330,46.011653,0
-91.362807,46.011651,0
-91.362106,46.011659,0
-91.361507,46.011663,0
-91.360792,46.011673,0
-91.360493,46.011674,0
-91.359367,46.011683,0
-91.358352,46.011689,0
-91.357321,46.011704,0
-91.356293,46.011708,0
-91.355305,46.011713,0
-91.354976,46.011711,0
-91.353983,46.011717,0
-91.353257,46.011735,0
-91.352880,46.011850,0
-91.352726,46.012050,0
-91.352699,46.012209,0
-91.352719,46.012891,0
-91.352730,46.013288,0
-91.352735,46.013739,0
-91.352745,46.014258,0
-91.352749,46.014726,0
-91.352725,46.015051,0
-91.352495,46.015342,0
-91.352187,46.015475,0
-91.351964,46.015489,0
-91.350732,46.015499,0
-91.349839,46.015516,0
-91.349102,46.015537,0
-91.348972,46.015544,0
-91.348295,46.015579,0
-91.348157,46.015586,0
-91.347334,46.015604,0
-91.346465,46.015644,0
-91.345464,46.015687,0
-91.344797,46.015735,0
-91.344016,46.015637,0
-91.343403,46.015362,0
-91.342979,46.015197,0
-91.342855,46.015168,0
-91.342385,46.015163,0
-91.342172,46.015216,0
-91.341524,46.015437,0
-91.341336,46.015632,0
-91.341439,46.015825,0
-91.341731,46.016053,0
-91.342241,46.016456,0
-91.342401,46.016851,0
-91.342415,46.017289,0
-91.342360,46.017733,0
-91.342298,46.017922,0
-91.342069,46.018223,0
-91.341601,46.018578,0
-91.341141,46.018792,0
-91.340505,46.019038,0
-91.340422,46.019064,0
-91.339913,46.019191,0
-91.339658,46.019259,0
-91.339039,46.019416,0
-91.338559,46.019515,0
-91.338131,46.019695,0
-91.337992,46.019884,0
-91.337962,46.019958,0
-91.337842,46.020266,0
-91.337532,46.020799,0
-91.337033,46.021189,0
-91.336787,46.021321,0
-91.336020,46.021599,0
-91.335581,46.021699,0
-91.335172,46.021788,0
-91.334800,46.021846,0
-91.334262,46.021979,0
-91.333908,46.022094,0
-91.333723,46.022161,0
-91.333353,46.022325,0
-91.333169,46.022402,0
-91.332604,46.022603,0
-91.332503,46.022635,0
-91.331944,46.022728,0
-91.331859,46.022743,0
-91.331327,46.022827,0
-91.331095,46.022975,0
-91.331040,46.023086,0
-91.331013,46.023438,0
-91.331044,46.023700,0
-91.331192,46.024119,0
-91.331219,46.024210,0
-91.331296,46.024613,0
-91.331289,46.024954,0
-91.331284,46.025270,0
-91.331283,46.025408,0
-91.331274,46.025882,0
-91.331270,46.026014,0
-91.331242,46.026316,0
-91.331140,46.026546,0
-91.330783,46.026928,0
-91.330481,46.027270,0
-91.330383,46.027399,0
-91.330017,46.027841,0
-91.329722,46.028174,0
-91.329255,46.028652,0
-91.328939,46.028983,0
-91.328446,46.029377,0
-91.328138,46.029598,0
-91.328082,46.029643,0
-91.327958,46.029804,0
-91.327920,46.030119,0
-91.328023,46.030338,0
-91.328403,46.030802,0
-91.328472,46.030891,0
-91.328545,46.030986,0
-91.328665,46.031297,0
-91.328673,46.031407,0
-91.328628,46.032021,0
-91.328532,46.032626,0
-91.328685,46.033009,0
-91.329022,46.033168,0
-91.329934,46.033537,0
-91.330623,46.033834,0
-91.330921,46.033926,0
-91.331238,46.033982,0
-91.332026,46.033992,0
-91.332750,46.033980,0
-91.333456,46.033965,0
-91.334245,46.033959,0
-91.334676,46.033966,0
-91.335044,46.034076,0
-91.335124,46.034202,0
-91.335319,46.034858,0
-91.335492,46.035466,0
-91.335655,46.035805,0
-91.336004,46.036091,0
-91.336641,46.036368,0
-91.337321,46.036646,0
-91.337806,46.036811,0
-91.338258,46.036943,0
-91.338439,46.036991,0
-91.338735,46.037046,0
-91.338976,46.037100,0
-91.339134,46.037147,0
-91.339244,46.037208,0
-91.339287,46.037231,0
-91.339279,46.037229,0
-91.339248,46.037210,0
-91.339248,46.037206,0
-91.339264,46.037215,0
-91.339280,46.037267,0
-91.339279,46.037322,0
-91.339279,46.037343,0
-91.339282,46.037348,0
-91.339185,46.037403,0
-91.338813,46.037529,0
-91.338645,46.037587,0
-91.337955,46.037820,0
-91.337182,46.038083,0
-91.336309,46.038373,0
-91.335609,46.038612,0
-91.334858,46.038869,0
-91.333989,46.039163,0
-91.333057,46.039484,0
-91.332080,46.039817,0
-91.331103,46.040148,0
-91.330318,46.040411,0
-91.329445,46.040704,0
-91.328607,46.040993,0
-91.327919,46.041249,0
-91.327777,46.041305,0
-91.327257,46.041530,0
-91.326930,46.041564,0
-91.326638,46.041493,0
-91.326282,46.041447,0
-91.325752,46.041431,0
-91.325512,46.041423,0
-91.324775,46.041409,0
-91.324527,46.041412,0
-91.324112,46.041380,0
-91.323248,46.041343,0
-91.322377,46.041314,0
-91.321517,46.041289,0
-91.320707,46.041299,0
-91.319968,46.041303,0
-91.319306,46.041305,0
-91.318562,46.041296,0
-91.317896,46.041312,0
-91.317417,46.041309,0
-91.316884,46.041314,0
-91.316796,46.041314,0
-91.316552,46.041311,0
-91.316129,46.041300,0
-91.315778,46.041305,0
-91.315408,46.041311,0
-91.314906,46.041310,0
-91.314040,46.041300,0
-91.313426,46.041293,0
-91.313036,46.041289,0
-91.312846,46.041296,0
-91.312145,46.041291,0
-91.311460,46.041290,0
-91.310861,46.041288,0
-91.310013,46.041292,0
-91.309074,46.041304,0
-91.308424,46.041301,0
-91.307559,46.041300,0
-91.306765,46.041299,0
-91.305884,46.041311,0
-91.304832,46.041322,0
-91.304448,46.041326,0
-91.303636,46.041322,0
-91.302609,46.041330,0
-91.301848,46.041344,0
-91.300945,46.041378,0
-91.299993,46.041423,0
-91.299511,46.041447,0
-91.299268,46.041464,0
-91.298324,46.041504,0
-91.298023,46.041513,0
-91.297064,46.041562,0
-91.295952,46.041620,0
-91.294878,46.041661,0
-91.293848,46.041687,0
-91.292782,46.041759,0
-91.291963,46.041819,0
-91.291558,46.041834,0
-91.290828,46.041877,0
-91.290398,46.041889,0
-91.290161,46.041883,0
-91.290077,46.041854,0
-91.290050,46.041824,0
-91.289984,46.041834,0
-91.290041,46.041856,0
-91.290058,46.041844,0
-91.290056,46.041833,0
-91.290065,46.041832,0
-91.290040,46.041769,0
-91.290025,46.041620,0
-91.290018,46.041340,0
-91.290010,46.041143,0
-91.289938,46.040587,0
-91.289870,46.040122,0
-91.289802,46.039604,0
-91.289760,46.039165,0
-91.289692,46.038695,0
-91.289596,46.038107,0
-91.289533,46.037602,0
-91.289530,46.037532,0
-91.289542,46.037189,0
-91.289439,46.036572,0
-91.289334,46.036076,0
-91.289320,46.035982,0
-91.289233,46.035417,0
-91.289158,46.034869,0
-91.289109,46.034432,0
-91.289034,46.033847,0
-91.288951,46.033273,0
-91.288889,46.032734,0
-91.288825,46.032199,0
-91.288771,46.031746,0
-91.288697,46.031363,0
-91.288530,46.031177,0
-91.288301,46.031188,0
-91.287812,46.031332,0
-91.287182,46.031523,0
-91.286643,46.031680,0
-91.285984,46.031878,0
-91.285297,46.032081,0
-91.284607,46.032279,0
-91.283726,46.032517,0
-91.283025,46.032642,0
-91.282251,46.032790,0
-91.281477,46.032923,0
-91.280802,46.033049,0
-91.280435,46.033116,0
-91.279821,46.033217,0
-91.279209,46.033320,0
-91.278600,46.033423,0
-91.278240,46.033441,0
-91.277432,46.033462,0
-91.276805,46.033462,0
-91.276645,46.033464,0
-91.276144,46.033470,0
-91.275513,46.033460,0
-91.274920,46.033446,0
-91.274141,46.033431,0
-91.273498,46.033372,0
-91.273129,46.033322,0
-91.272514,46.033191,0
-91.271614,46.032997,0
-91.270930,46.032861,0
-91.270704,46.032809,0
-91.270224,46.032593,0
-91.269950,46.032281,0
-91.269828,46.031937,0
-91.269752,46.031449,0
-91.269728,46.031328,0
-91.269547,46.030966,0
-91.269321,46.030593,0
-91.269128,46.030304,0
-91.268773,46.030029,0
-91.268672,46.029985,0
-91.268058,46.029816,0
-91.267427,46.029687,0
-91.267100,46.029520,0
-91.266931,46.029393,0
-91.266626,46.029183,0
-91.266408,46.029027,0
-91.266290,46.028896,0
-91.266225,46.028746,0
-91.266216,46.028484,0
-91.266224,46.028190,0
-91.266241,46.028058,0
-91.266075,46.027706,0
-91.265697,46.027571,0
-91.265544,46.027561,0
-91.264618,46.027496,0
-91.264148,46.027417,0
-91.263942,46.027371,0
-91.263639,46.027269,0
-91.263315,46.027033,0
-91.262915,46.026691,0
-91.262414,46.026329,0
-91.262144,46.026151,0
-91.261929,46.026018,0
-91.261718,46.025873,0
-91.261465,46.025716,0
-91.261094,46.025470,0
-91.260708,46.025196,0
-91.260563,46.025069,0
-91.260328,46.024796,0
-91.260038,46.024313,0
-91.259953,46.023985,0
-91.259866,46.023523,0
-91.259821,46.023198,0
-91.259773,46.022766,0
-91.259915,46.022354,0
-91.260243,46.021903,0
-91.260482,46.021501,0
-91.260594,46.021158,0
-91.260614,46.021042,0
-91.260627,46.020942,0
-91.260703,46.020542,0
-91.260758,46.020157,0
-91.260813,46.019767,0
-91.260858,46.019297,0
-91.260903,46.019060,0
-91.261022,46.018609,0
-91.261252,46.017819,0
-91.261302,46.017669,0
-91.261420,46.017244,0
-91.261472,46.017042,0
-91.261602,46.016460,0
-91.261718,46.015975,0
-91.261881,46.015364,0
-91.262003,46.014857,0
-91.262116,46.014400,0
-91.262275,46.013901,0
-91.262391,46.013455,0
-91.262441,46.013230,0
-91.262552,46.012730,0
-91.262577,46.012645,0
-91.262623,46.012397,0
-91.262422,46.012164,0
-91.262324,46.012155,0
-91.262145,46.012130,0
-91.261949,46.012143,0
-91.261756,46.012173,0
-91.261018,46.012187,0
-91.260504,46.012162,0
-91.259982,46.012150,0
-91.259516,46.012130,0
-91.259253,46.012122,0
-91.258912,46.012128,0
-91.258240,46.012166,0
-91.258046,46.012192,0
-91.257859,46.012231,0
-91.257334,46.012298,0
-91.256847,46.012372,0
-91.256345,46.012298,0
-91.255773,46.012151,0
-91.255175,46.012069,0
-91.254568,46.012057,0
-91.253909,46.012033,0
-91.253350,46.012015,0
-91.252708,46.012011,0
-91.252015,46.011990,0
-91.251457,46.011989,0
-91.250769,46.011993,0
-91.250114,46.012013,0
-91.249683,46.012030,0
-91.248907,46.012054,0
-91.248084,46.012052,0
-91.247176,46.012064,0
-91.246135,46.012082,0
-91.245477,46.012088,0
-91.244890,46.012079,0
-91.244198,46.012068,0
-91.243439,46.012049,0
-91.242717,46.012043,0
-91.241899,46.012041,0
-91.240829,46.012043,0
-91.240555,46.012040,0
-91.239654,46.012042,0
-91.239084,46.012048,0
-91.238785,46.012048,0
-91.238219,46.012062,0
-91.237356,46.012061,0
-91.236775,46.012059,0
-91.235910,46.012064,0
-91.234966,46.012075,0
-91.234034,46.012082,0
-91.233097,46.012082,0
-91.232435,46.012080,0
-91.231481,46.012088,0
-91.230534,46.012087,0
-91.229759,46.012094,0
-91.229004,46.012117,0
-91.228376,46.012121,0
-91.227566,46.012132,0
-91.226817,46.012149,0
-91.226135,46.012156,0
-91.225339,46.012172,0
-91.224972,46.012178,0
-91.224632,46.012176,0
-91.224556,46.012165,0
-91.224450,46.012141,0
-91.224466,46.012103,0
-91.224481,46.012110,0
-91.224508,46.012134,0
-91.224650,46.012158,0
-91.224803,46.012142,0
-91.224828,46.012138,0
-91.224917,46.012135,0
-91.224936,46.012125,0
-91.224950,46.012107,0
-91.224944,46.012105,0
-91.224925,46.012102,0
-91.224915,46.012102,0
-91.224907,46.012111,0
-91.224833,46.012177,0
-91.224918,46.012110,0
-91.224925,46.012104,0
-91.224955,46.012107,0
-91.224972,46.012118,0
-91.224963,46.012110,0
-91.224964,46.012112,0
-91.224963,46.012136,0
-91.224955,46.012146,0
-91.224937,46.012142,0
-91.224923,46.012154,0
-91.224891,46.012152,0
-91.224882,46.012146,0
-91.224883,46.012142,0
-91.224859,46.012133,0
-91.224744,46.012147,0
-91.224663,46.012158,0
-91.224561,46.012171,0
-91.224486,46.012180,0
-91.224449,46.012172,0
-91.224411,46.012165,0
-91.224146,46.012164,0
-91.223779,46.012165,0
-91.223466,46.012159,0
-91.223108,46.012160,0
-91.222480,46.012153,0
-91.221955,46.012138,0
-91.221740,46.012143,0
-91.221490,46.012143,0
-91.221006,46.012113,0
-91.220421,46.012093,0
-91.220266,46.012086,0
-91.219686,46.012041,0
-91.219278,46.012007,0
-91.218612,46.011960,0
-91.217920,46.011911,0
-91.217399,46.011884,0
-91.216739,46.011863,0
-91.216193,46.011815,0
-91.215621,46.011772,0
-91.214972,46.011715,0
-91.214508,46.011684,0
-91.213829,46.011622,0
-91.213264,46.011593,0
-91.213035,46.011581,0
-91.212318,46.011527,0
-91.211471,46.011457,0
-91.210717,46.011402,0
-91.210090,46.011382,0
-91.209630,46.011462,0
-91.209001,46.011658,0
-91.208304,46.011879,0
-91.207948,46.012017,0
-91.207710,46.012231,0
-91.207614,46.012406,0
-91.207481,46.012942,0
-91.207348,46.013464,0
-91.207156,46.014014,0
-91.207103,46.014144,0
-91.206814,46.014480,0
-91.206419,46.014684,0
-91.206230,46.014725,0
-91.205525,46.014729,0
-91.205280,46.014716,0
-91.205124,46.014709,0
-91.204741,46.014672,0
-91.204133,46.014636,0
-91.203509,46.014610,0
-91.202773,46.014561,0
-91.202104,46.014528,0
-91.202013,46.014524,0
-91.201446,46.014491,0
-91.200770,46.014443,0
-91.200051,46.014406,0
-91.199328,46.014367,0
-91.198922,46.014351,0
-91.198423,46.014320,0
-91.198362,46.014316,0
-91.198099,46.014308,0
-91.197841,46.014313,0
-91.197719,46.014405,0
-91.197487,46.014686,0
-91.197347,46.015035,0
-91.197313,46.015415,0
-91.197302,46.016050,0
-91.197288,46.016554,0
-91.197286,46.016997,0
-91.197262,46.017336,0
-91.197247,46.017770,0
-91.197214,46.018486,0
-91.197181,46.019095,0
-91.197162,46.019784,0
-91.197131,46.020498,0
-91.197115,46.021056,0
-91.197111,46.021704,0
-91.197090,46.022238,0
-91.197065,46.022776,0
-91.197024,46.023446,0
-91.197003,46.023978,0
-91.196987,46.024557,0
-91.196978,46.024894,0
-91.196987,46.025539,0
-91.197107,46.026063,0
-91.197337,46.026631,0
-91.197673,46.027191,0
-91.197964,46.027698,0
-91.198253,46.028174,0
-91.198607,46.028734,0
-91.198854,46.029153,0
-91.199096,46.029561,0
-91.199203,46.029747,0
-91.199263,46.029729,0
-91.199193,46.029659,0
-91.199073,46.029471,0
-91.199052,46.029466,0
-91.199063,46.029516,0
-91.199140,46.029579,0
-91.199172,46.029652,0
-91.199266,46.029834,0
-91.199492,46.030209,0
-91.199688,46.030600,0
-91.199735,46.030738,0
-91.199736,46.031271,0
-91.199607,46.031690,0
-91.199563,46.031771,0
-91.199517,46.031852,0
-91.199104,46.032303,0
-91.198401,46.032927,0
-91.197848,46.033434,0
-91.197794,46.033493,0
-91.197417,46.033984,0
-91.197104,46.034583,0
-91.196966,46.035053,0
-91.196951,46.035592,0
-91.196939,46.036141,0
-91.196932,46.036935,0
-91.196932,46.037381,0
-91.196951,46.037968,0
-91.196945,46.038308,0
-91.196943,46.038367,0
-91.196950,46.038533,0
-91.197142,46.038695,0
-91.197320,46.038699,0
-91.198193,46.038617,0
-91.199066,46.038541,0
-91.199973,46.038474,0
-91.200634,46.038432,0
-91.201473,46.038366,0
-91.202161,46.038304,0
-91.203018,46.038274,0
-91.203643,46.038365,0
-91.204108,46.038523,0
-91.204593,46.038800,0
-91.205390,46.039336,0
-91.206136,46.039781,0
-91.206706,46.039980,0
-91.207346,46.040076,0
-91.208101,46.040091,0
-91.209331,46.040096,0
-91.211056,46.040109,0
-91.212397,46.040119,0
-91.213391,46.040139,0
-91.214460,46.040148,0
-91.214913,46.040152,0
-91.216294,46.040176,0
-91.216866,46.040186,0
-91.217650,46.040197,0
-91.218745,46.040224,0
-91.220054,46.040258,0
-91.221251,46.040297,0
-91.222712,46.040343,0
-91.224317,46.040397,0
-91.225741,46.040447,0
-91.226555,46.040474,0
-91.227513,46.040513,0
-91.228557,46.040551,0
-91.229735,46.040594,0
-91.230823,46.040636,0
-91.232045,46.040686,0
-91.233383,46.040740,0
-91.234752,46.040783,0
-91.235406,46.040802,0
-91.235553,46.040805,0
-91.235865,46.040816,0
-91.236394,46.040832,0
-91.236773,46.040845,0
-91.237352,46.040866,0
-91.238447,46.040891,0
-91.238782,46.040893,0
-91.239548,46.040884,0
-91.240079,46.040859,0
-91.240314,46.040842,0
-91.240960,46.040782,0
-91.241158,46.040764,0
-91.241998,46.040687,0
-91.242935,46.040593,0
-91.244090,46.040461,0
-91.245048,46.040376,0
-91.245755,46.040309,0
-91.246826,46.040217,0
-91.247319,46.040166,0
-91.248173,46.040065,0
-91.248876,46.040011,0
-91.249223,46.039979,0
-91.249349,46.040062,0
-91.249301,46.040160,0
-91.249292,46.040189,0
-91.249262,46.040327,0
-91.249214,46.040500,0
-91.249176,46.040705,0
-91.249132,46.040921,0
-91.249090,46.041117,0
-91.249054,46.041285,0
-91.249024,46.041428,0
-91.248976,46.041582,0
-91.248884,46.041740,0
-91.248829,46.041863,0
-91.248734,46.042024,0
-91.248726,46.042067,0
-91.248776,46.042290,0
-91.248846,46.042477,0
-91.248977,46.042624,0
-91.249083,46.042723,0
-91.249215,46.042811,0
-91.249672,46.043097,0
-91.249810,46.043185,0
-91.250115,46.043515,0
-91.250435,46.043918,0
-91.250679,46.044161,0
-91.251003,46.044362,0
-91.251732,46.044658,0
-91.252189,46.044847,0
-91.252611,46.045015,0
-91.253101,46.045203,0
-91.253265,46.045269,0
-91.253736,46.045479,0
-91.254177,46.045831,0
-91.254224,46.045941,0
-91.254444,46.046348,0
-91.254707,46.046576,0
-91.255286,46.046890,0
-91.255809,46.047287,0
-91.256001,46.047464,0
-91.256359,46.047687,0
-91.256519,46.047742,0
-91.257124,46.048134,0
-91.257105,46.048358,0
-91.257074,46.048460,0
-91.256829,46.049114,0
-91.256804,46.049225,0
-91.256925,46.049653,0
-91.257007,46.049740,0
-91.257543,46.050309,0
-91.257972,46.050627,0
-91.258406,46.050935,0
-91.258786,46.051227,0
-91.258981,46.051565,0
-91.258980,46.051656,0
-91.258983,46.052324,0
-91.258974,46.052967,0
-91.258933,46.053589,0
-91.258903,46.054033,0
-91.258863,46.054564,0
-91.258823,46.055338,0
-91.258800,46.055823,0
-91.258774,46.056506,0
-91.258739,46.057294,0
-91.258705,46.057969,0
-91.258690,46.058497,0
-91.258679,46.058647,0
-91.258674,46.059133,0
-91.258700,46.059484,0
-91.258625,46.060074,0
-91.258619,46.060166,0
-91.258619,46.060909,0
-91.258570,46.061660,0
-91.258535,46.062322,0
-91.258553,46.063003,0
-91.258553,46.063448,0
-91.258552,46.063544,0
-91.258560,46.064214,0
-91.258746,46.064627,0
-91.259057,46.064991,0
-91.259204,46.065411,0
-91.259098,46.065666,0
-91.259031,46.065745,0
-91.258808,46.065966,0
-91.258733,46.066037,0
-91.258597,46.066182,0
-91.258448,46.066591,0
-91.258474,46.067101,0
-91.258477,46.067201,0
-91.258422,46.067838,0
-91.258381,46.068502,0
-91.258385,46.068698,0
-91.258371,46.069155,0
-91.258375,46.069392,0
-91.258385,46.069848,0
-91.258328,46.070021,0
-91.258112,46.070086,0
-91.257900,46.070073,0
-91.257912,46.070143,0
-91.258052,46.070080,0
-91.258228,46.070106,0
-91.258288,46.070224,0
-91.258300,46.070279,0
-91.258312,46.070430,0
-91.258319,46.070616,0
-91.258312,46.070671,0
-91.258321,46.070767,0
-91.258346,46.070876,0
-91.258344,46.071128,0
-91.258340,46.071615,0
-91.258338,46.072033,0
-91.258345,46.072155,0
-91.258327,46.072422,0
-91.258317,46.072595,0
-91.258317,46.072633,0
-91.258303,46.072846,0
-91.258296,46.073083,0
-91.258273,46.073397,0
-91.258285,46.073693,0
-91.258292,46.074191,0
-91.258282,46.074734,0
-91.258273,46.075275,0
-91.258243,46.075764,0
-91.258229,46.076005,0
-91.258223,46.076366,0
-91.258220,46.076809,0
-91.258208,46.077252,0
-91.258192,46.077933,0
-91.258176,46.078511,0
-91.258195,46.078977,0
-91.258191,46.079277,0
-91.258180,46.079436,0
-91.258165,46.079585,0
-91.258178,46.079848,0
-91.258168,46.080234,0
-91.258179,46.080468,0
-91.258166,46.080755,0
-91.258155,46.080864,0
-91.258125,46.081389,0
-91.258126,46.081707,0
-91.258125,46.081774,0
-91.258124,46.081839,0
-91.258106,46.082234,0
-91.258125,46.082585,0
-91.258121,46.083128,0
-91.258115,46.083711,0
-91.258120,46.083884,0
-91.258137,46.084383,0
-91.258134,46.084887,0
-91.258133,46.085402,0
-91.258135,46.085490,0
-91.258139,46.085873,0
-91.258130,46.086428,0
-91.258131,46.086505,0
-91.258117,46.086650,0
-91.258095,46.086942,0
-91.258081,46.087390,0
-91.258069,46.087772,0
-91.258058,46.088319,0
-91.258053,46.088540,0
-91.258083,46.089086,0
-91.258064,46.089529,0
-91.258058,46.090263,0
-91.258038,46.091012,0
-91.258029,46.091823,0
-91.258036,46.092671,0
-91.258040,46.093335,0
-91.258032,46.094091,0
-91.258030,46.094803,0
-91.258008,46.095572,0
-91.257992,46.096129,0
-91.258003,46.096275,0
-91.258030,46.096764,0
-91.258001,46.097260,0
-91.258001,46.097746,0
-91.257989,46.098183,0
-91.257959,46.098633,0
-91.257936,46.099145,0
-91.257965,46.099582,0
-91.258184,46.099764,0
-91.258524,46.099780,0
-91.259505,46.099777,0
-91.259631,46.099778,0
-91.260571,46.099769,0
-91.261737,46.099770,0
-91.263304,46.099770,0
-91.264275,46.099771,0
-91.265229,46.099769,0
-91.266275,46.099765,0
-91.267586,46.099768,0
-91.268736,46.099766,0
-91.269913,46.099753,0
-91.270508,46.099748,0
-91.271494,46.099741,0
-91.272493,46.099745,0
-91.273133,46.099749,0
-91.273839,46.099733,0
-91.274831,46.099743,0
-91.275619,46.099762,0
-91.276487,46.099759,0
-91.276777,46.099761,0
-91.277783,46.099766,0
-91.278668,46.099767,0
-91.279383,46.099765,0
-91.279579,46.099758,0
-91.280162,46.099737,0
-91.281000,46.099715,0
-91.282091,46.099699,0
-91.282736,46.099682,0
-91.283361,46.099654,0
-91.283840,46.099653,0
-91.284553,46.099631,0
-91.285153,46.099592,0
-91.285676,46.099574,0
-91.286481,46.099554,0
-91.287129,46.099548,0
-91.288335,46.099525,0
-91.289160,46.099516,0
-91.289288,46.099517,0
-91.289640,46.099674,0
-91.289692,46.099853,0
-91.289693,46.100054,0
-91.289704,46.100458,0
-91.289697,46.101217,0
-91.289687,46.101760,0
-91.289704,46.102768,0
-91.289708,46.103317,0
-91.289722,46.104124,0
-91.289734,46.104833,0
-91.289753,46.105544,0
-91.289778,46.106153,0
-91.289791,46.106240,0
-91.289983,46.106570,0
-91.290275,46.106746,0
-91.290756,46.106847,0
-91.290885,46.106849,0
-91.291691,46.106836,0
-91.292598,46.106809,0
-91.292851,46.106814,0
-91.293434,46.106964,0
-91.293534,46.107019,0
-91.293802,46.107200,0
-91.294344,46.107636,0
-91.294727,46.107942,0
-91.295283,46.108388,0
-91.295855,46.108784,0
-91.295961,46.108841,0
-91.296465,46.108995,0
-91.297401,46.109093,0
-91.297815,46.109146,0
-91.298101,46.109195,0
-91.298715,46.109289,0
-91.299422,46.109362,0
-91.300208,46.109266,0
-91.300398,46.109210,0
-91.300996,46.109018,0
-91.301653,46.108966,0
-91.302054,46.109063,0
-91.302247,46.109138,0
-91.302919,46.109493,0
-91.303885,46.110011,0
-91.304717,46.110469,0
-91.305193,46.110743,0
-91.305879,46.111082,0
-91.306631,46.111451,0
-91.307239,46.111614,0
-91.308060,46.111674,0
-91.308775,46.111649,0
-91.308905,46.111643,0
-91.309273,46.111625,0
-91.309759,46.111592,0
-91.310805,46.111496,0
-91.311636,46.111458,0
-91.312253,46.111511,0
-91.313496,46.111744,0
-91.314413,46.111935,0
-91.315099,46.112192,0
-91.315645,46.112536,0
-91.316131,46.112952,0
-91.316288,46.113071,0
-91.316822,46.113364,0
-91.317270,46.113556,0
-91.317360,46.113585,0
-91.317632,46.113648,0
-91.317813,46.113672,0
-91.318396,46.113687,0
-91.319423,46.113673,0
-91.320385,46.113663,0
-91.321580,46.113649,0
-91.322394,46.113649,0
-91.323126,46.113700,0
-91.323725,46.113810,0
-91.324595,46.113977,0
-91.325516,46.114160,0
-91.326744,46.114410,0
-91.327580,46.114578,0
-91.328715,46.114813,0
-91.329744,46.115019,0
-91.330272,46.115127,0
-91.330583,46.115193,0
-91.330918,46.115269,0
-91.331689,46.115447,0
-91.332118,46.115537,0
-91.332336,46.115581,0
-91.332791,46.115669,0
-91.333273,46.115767,0
-91.333990,46.115915,0
-91.334846,46.116099,0
-91.335533,46.116231,0
-91.336434,46.116399,0
-91.337277,46.116576,0
-91.338139,46.116823,0
-91.338913,46.117112,0
-91.339379,46.117313,0
-91.339830,46.117536,0
-91.340573,46.117974,0
-91.340717,46.118080,0
-91.341011,46.118303,0
-91.341423,46.118659,0
-91.342181,46.119337,0
-91.342440,46.119559,0
-91.343031,46.120015,0
-91.343374,46.120235,0
-91.343759,46.120435,0
-91.344664,46.120703,0
-91.345137,46.120766,0
-91.346227,46.120789,0
-91.347191,46.120777,0
-91.348224,46.120782,0
-91.349394,46.120781,0
-91.350467,46.120785,0
-91.351312,46.120792,0
-91.352266,46.120798,0
-91.353255,46.120807,0
-91.353981,46.120803,0
-91.354224,46.120780,0
-91.354585,46.120775,0
-91.354609,46.120785,0
-91.354596,46.120798,0
-91.354584,46.120813,0
-91.354595,46.120837,0
-91.354605,46.120845,0
-91.354738,46.120864,0
-91.355134,46.120851,0
-91.355660,46.120863,0
-91.356161,46.120862,0
-91.356609,46.120871,0
-91.357139,46.120875,0
-91.357381,46.120885,0
-91.357539,46.120869,0
-91.358232,46.120853,0
-91.358872,46.120858,0
-91.359463,46.120870,0
-91.360126,46.120873,0
-91.360764,46.120880,0
-91.360978,46.120892,0
-91.361184,46.120936,0
-91.361468,46.120919,0
-91.361522,46.120888,0
-91.362026,46.120475,0
-91.362440,46.120125,0
-91.362648,46.119949,0
-91.362792,46.119927,0
-91.362892,46.119952,0
-91.362855,46.119951,0
-91.362858,46.119977,0
-91.362888,46.120044,0
-91.363059,46.120114,0
-91.363154,46.120125,0
-91.363186,46.120123,0
		</coordinates>
	  </LineString>
	</Placemark>
  </Document>
</kml>