<?xml version="1.0" encoding="UTF-8"?>
<kml xmlns="http://www.opengis.net/kml/2.2">
  <Document>
	<name>Grumpy Troll 2A Tyrol 10</name>
	<description>Ten mile road ride from the Grumpy Troll Brew Pub in New Glarus. For more rides and information about the Grumpy Troll Bike Club, visit: 
http://thegrumpytroll.com/about/bike-ride-club/</description>
	<Style id="style1">
	  <LineStyle>
		<color>BF0000FF</color>
		<width>3</width>
	  </LineStyle>
	</Style>
	<Style id="yellowLineGreenPoly">
	  <LineStyle>
		<color>7f0000ff</color>
		<width>4</width>
	  </LineStyle>
	  <PolyStyle>
		<color>7f00ff00</color>
	  </PolyStyle>
	</Style>
	<Placemark>
	  <name>Grumpy Troll 2A Tyrol 10</name>
	  <description>Ten mile road ride from the Grumpy Troll Brew Pub in New Glarus. For more rides and information about the Grumpy Troll Bike Club, visit: 
http://thegrumpytroll.com/about/bike-ride-club/</description>
	  <styleUrl>#style1</styleUrl>
	  <LineString>
		<tessellate>1</tessellate>
		<coordinates>
		  -89.738410,43.007960,0
-89.739070,43.007940,0
-89.739200,43.007940,0
-89.739690,43.007930,0
-89.740220,43.007910,0
-89.740380,43.007900,0
-89.740890,43.007840,0
-89.740970,43.007820,0
-89.741040,43.007810,0
-89.741110,43.007810,0
-89.741490,43.007780,0
-89.741590,43.007780,0
-89.741690,43.007770,0
-89.741930,43.007740,0
-89.742390,43.007680,0
-89.742990,43.007610,0
-89.743150,43.007580,0
-89.743770,43.007480,0
-89.744020,43.007440,0
-89.744160,43.007420,0
-89.744230,43.007360,0
-89.744400,43.007170,0
-89.744450,43.007120,0
-89.744550,43.007080,0
-89.744820,43.007020,0
-89.744960,43.007010,0
-89.745240,43.006990,0
-89.745240,43.006990,0
-89.745240,43.006990,0
-89.745250,43.007110,0
-89.745250,43.007630,0
-89.745250,43.007630,0
-89.745250,43.007630,0
-89.747130,43.007040,0
-89.748530,43.006570,0
-89.749180,43.006370,0
-89.749420,43.006290,0
-89.750460,43.005960,0
-89.751630,43.005610,0
-89.753630,43.005000,0
-89.755780,43.004340,0
-89.756270,43.004200,0
-89.756770,43.004060,0
-89.757280,43.003940,0
-89.757880,43.003810,0
-89.758600,43.003670,0
-89.759460,43.003520,0
-89.759830,43.003450,0
-89.760150,43.003410,0
-89.760440,43.003380,0
-89.760600,43.003360,0
-89.760720,43.003360,0
-89.760850,43.003350,0
-89.760980,43.003340,0
-89.761120,43.003340,0
-89.761350,43.003340,0
-89.761590,43.003360,0
-89.761830,43.003390,0
-89.762040,43.003430,0
-89.762270,43.003480,0
-89.762770,43.003630,0
-89.763100,43.003730,0
-89.763730,43.003950,0
-89.764030,43.004060,0
-89.764330,43.004160,0
-89.765140,43.004440,0
-89.765920,43.004720,0
-89.766640,43.004960,0
-89.766950,43.005080,0
-89.767540,43.005280,0
-89.767670,43.005320,0
-89.768590,43.005650,0
-89.768880,43.005740,0
-89.770050,43.006150,0
-89.770050,43.006150,0
-89.770050,43.006150,0
-89.770040,43.006330,0
-89.770040,43.006810,0
-89.770060,43.007040,0
-89.770070,43.007300,0
-89.770070,43.007740,0
-89.770070,43.008140,0
-89.770100,43.009130,0
-89.770130,43.009560,0
-89.770170,43.009890,0
-89.770210,43.010120,0
-89.770240,43.010240,0
-89.770270,43.010350,0
-89.770410,43.010530,0
-89.770540,43.010690,0
-89.770650,43.010870,0
-89.770800,43.011130,0
-89.770900,43.011390,0
-89.770930,43.011610,0
-89.770960,43.011760,0
-89.770970,43.011930,0
-89.770950,43.012120,0
-89.770920,43.012280,0
-89.770880,43.012480,0
-89.770810,43.012770,0
-89.770810,43.012780,0
-89.770760,43.012930,0
-89.770750,43.013130,0
-89.770670,43.013550,0
-89.770640,43.013940,0
-89.770570,43.014340,0
-89.770470,43.015020,0
-89.770390,43.015330,0
-89.770230,43.015840,0
-89.770180,43.016050,0
-89.770150,43.016200,0
-89.770120,43.016410,0
-89.770100,43.016710,0
-89.770100,43.016950,0
-89.770090,43.017200,0
-89.770070,43.018620,0
-89.770060,43.019060,0
-89.770060,43.019600,0
-89.770060,43.019800,0
-89.770050,43.020050,0
-89.770050,43.020230,0
-89.770050,43.020570,0
-89.770040,43.021280,0
-89.770030,43.021380,0
-89.770030,43.021560,0
-89.770020,43.022590,0
-89.770000,43.023020,0
-89.770000,43.024000,0
-89.770010,43.024390,0
-89.770000,43.024900,0
-89.769980,43.025470,0
-89.769970,43.026400,0
-89.769960,43.027410,0
-89.769940,43.027920,0
-89.769930,43.028480,0
-89.769920,43.029510,0
-89.769920,43.029880,0
-89.769910,43.031020,0
-89.769890,43.031730,0
-89.769890,43.031840,0
-89.769860,43.032220,0
-89.769850,43.032600,0
-89.769840,43.032760,0
-89.769800,43.032920,0
-89.769730,43.033170,0
-89.769490,43.033930,0
-89.769300,43.034510,0
-89.769180,43.034810,0
-89.769070,43.035120,0
-89.769040,43.035210,0
-89.769020,43.035310,0
-89.769020,43.035410,0
-89.769030,43.035480,0
-89.769030,43.035510,0
-89.769090,43.035860,0
-89.769230,43.036560,0
-89.769270,43.036770,0
-89.769340,43.037000,0
-89.769420,43.037180,0
-89.769460,43.037330,0
-89.769480,43.037430,0
-89.769480,43.037530,0
-89.769470,43.037640,0
-89.769450,43.037700,0
-89.769410,43.037780,0
-89.769350,43.037850,0
-89.769290,43.037920,0
-89.769100,43.038060,0
-89.768990,43.038140,0
-89.768900,43.038220,0
-89.768770,43.038360,0
-89.768740,43.038430,0
-89.768720,43.038490,0
-89.768710,43.038560,0
-89.768720,43.038810,0
-89.768750,43.039100,0
-89.768750,43.039170,0
-89.768780,43.039370,0
-89.768800,43.039450,0
-89.768840,43.039540,0
-89.768890,43.039620,0
-89.768950,43.039700,0
-89.769110,43.039830,0
-89.769400,43.040050,0
-89.769550,43.040140,0
-89.769700,43.040230,0
-89.769830,43.040280,0
-89.770010,43.040350,0
-89.770390,43.040460,0
-89.770550,43.040500,0
-89.770720,43.040520,0
-89.771010,43.040560,0
-89.771230,43.040600,0
-89.771580,43.040700,0
-89.772280,43.040910,0
-89.772620,43.041030,0
-89.773200,43.041250,0
-89.773590,43.041380,0
-89.773790,43.041440,0
-89.774330,43.041570,0
-89.774570,43.041620,0
-89.774790,43.041650,0
-89.774950,43.041660,0
-89.775110,43.041660,0
-89.775620,43.041620,0
-89.776080,43.041580,0
-89.776180,43.041580,0
-89.776300,43.041580,0
-89.776300,43.041580,0
-89.776300,43.041580,0
-89.776050,43.041300,0
-89.775980,43.041210,0
-89.775920,43.041120,0
-89.775880,43.041010,0
-89.775770,43.040810,0
-89.775680,43.040660,0
-89.775580,43.040530,0
-89.775470,43.040400,0
-89.775170,43.040100,0
-89.775170,43.040100,0
-89.775170,43.040100,0
-89.775220,43.040080,0
-89.775170,43.040100,0
-89.775170,43.040100,0
-89.775170,43.040100,0
-89.774730,43.039680,0
-89.774460,43.039400,0
-89.774370,43.039300,0
-89.774290,43.039180,0
-89.774230,43.039060,0
-89.774190,43.038970,0
-89.774170,43.038870,0
-89.774160,43.038770,0
-89.774170,43.038590,0
-89.774180,43.038460,0
-89.774240,43.038230,0
-89.774290,43.038110,0
-89.774350,43.037990,0
-89.774460,43.037760,0
-89.774790,43.037140,0
-89.775010,43.036650,0
-89.775100,43.036480,0
-89.775180,43.036390,0
-89.775280,43.036310,0
-89.775370,43.036230,0
-89.775490,43.036170,0
-89.775610,43.036110,0
-89.775710,43.036080,0
-89.775800,43.036050,0
-89.775900,43.036040,0
-89.776040,43.036030,0
-89.776100,43.036030,0
-89.776330,43.036030,0
-89.777700,43.036110,0
-89.778010,43.036120,0
-89.778220,43.036120,0
-89.778470,43.036100,0
-89.778650,43.036060,0
-89.778870,43.036000,0
-89.779060,43.035930,0
-89.779240,43.035860,0
-89.779660,43.035660,0
-89.781180,43.034930,0
-89.781490,43.034790,0
-89.781710,43.034700,0
-89.781900,43.034650,0
-89.782250,43.034510,0
-89.782620,43.034370,0
-89.782980,43.034220,0
-89.784520,43.033640,0
-89.784840,43.033520,0
-89.785040,43.033410,0
-89.785240,43.033300,0
-89.785340,43.033240,0
-89.785540,43.033090,0
-89.785700,43.032960,0
-89.786000,43.032680,0
-89.786090,43.032580,0
-89.786160,43.032470,0
-89.786230,43.032340,0
-89.786420,43.031940,0
-89.786460,43.031840,0
-89.786690,43.031370,0
-89.787120,43.030440,0
-89.787170,43.030300,0
-89.787210,43.030170,0
-89.787350,43.029340,0
-89.787420,43.028990,0
-89.787460,43.028780,0
-89.787540,43.028550,0
-89.787660,43.028240,0
-89.787780,43.027920,0
-89.787860,43.027680,0
-89.787970,43.027520,0
-89.788060,43.027430,0
-89.788180,43.027330,0
-89.788330,43.027250,0
-89.788790,43.027080,0
-89.788970,43.026990,0
-89.789080,43.026930,0
-89.789200,43.026860,0
-89.789310,43.026780,0
-89.789520,43.026590,0
-89.789630,43.026480,0
-89.789880,43.026110,0
-89.790480,43.025170,0
-89.790590,43.025010,0
-89.790690,43.024900,0
-89.790780,43.024810,0
-89.790920,43.024710,0
-89.791070,43.024620,0
-89.791210,43.024560,0
-89.791380,43.024490,0
-89.791870,43.024350,0
-89.792040,43.024300,0
-89.792380,43.024170,0
-89.792540,43.024100,0
-89.792920,43.023870,0
-89.793370,43.023590,0
-89.794990,43.022510,0
-89.795650,43.022090,0
-89.795810,43.021980,0
-89.796150,43.021750,0
-89.796450,43.021500,0
-89.796570,43.021400,0
-89.796860,43.021110,0
-89.797040,43.020900,0
-89.797110,43.020810,0
-89.797170,43.020720,0
-89.797260,43.020580,0
-89.797320,43.020460,0
-89.797520,43.020070,0
-89.797620,43.019900,0
-89.797700,43.019780,0
-89.797780,43.019690,0
-89.797880,43.019580,0
-89.797960,43.019510,0
-89.798020,43.019460,0
-89.798350,43.019210,0
-89.798610,43.019020,0
-89.799270,43.018600,0
-89.799560,43.018430,0
-89.799630,43.018390,0
-89.800510,43.017950,0
-89.801150,43.017550,0
-89.801240,43.017500,0
-89.801760,43.017130,0
-89.801940,43.016970,0
-89.802250,43.016660,0
-89.802760,43.016110,0
-89.803000,43.015740,0
-89.803030,43.015670,0
-89.803040,43.015640,0
-89.803080,43.015540,0
-89.803110,43.015440,0
-89.803110,43.015340,0
-89.803120,43.015250,0
-89.803100,43.015000,0
-89.803110,43.014910,0
-89.803110,43.014910,0
-89.803110,43.014910,0
-89.802790,43.014880,0
-89.801780,43.014760,0
-89.801120,43.014680,0
-89.800700,43.014630,0
-89.800380,43.014580,0
-89.800070,43.014510,0
-89.799800,43.014450,0
-89.799520,43.014360,0
-89.799320,43.014290,0
-89.799140,43.014230,0
-89.798920,43.014140,0
-89.798790,43.014080,0
-89.798740,43.014050,0
-89.798530,43.013950,0
-89.798350,43.013850,0
-89.798090,43.013700,0
-89.797480,43.013310,0
-89.794940,43.011730,0
-89.794730,43.011610,0
-89.794070,43.011180,0
-89.793620,43.010910,0
-89.793120,43.010590,0
-89.792620,43.010290,0
-89.792410,43.010180,0
-89.792030,43.009980,0
-89.791630,43.009810,0
-89.791250,43.009660,0
-89.791010,43.009580,0
-89.790800,43.009520,0
-89.790570,43.009460,0
-89.790360,43.009400,0
-89.789870,43.009290,0
-89.789280,43.009160,0
-89.788860,43.009080,0
-89.786630,43.008600,0
-89.784920,43.008230,0
-89.784290,43.008090,0
-89.783990,43.008030,0
-89.783370,43.007900,0
-89.782310,43.007670,0
-89.780830,43.007350,0
-89.780470,43.007280,0
-89.780220,43.007240,0
-89.779770,43.007180,0
-89.779340,43.007140,0
-89.779120,43.007130,0
-89.778410,43.007120,0
-89.777520,43.007120,0
-89.777330,43.007120,0
-89.777140,43.007120,0
-89.774450,43.007120,0
-89.773970,43.007100,0
-89.773480,43.007070,0
-89.773250,43.007040,0
-89.772990,43.007000,0
-89.772710,43.006950,0
-89.772500,43.006920,0
-89.772050,43.006810,0
-89.771800,43.006740,0
-89.771480,43.006650,0
-89.771270,43.006570,0
-89.771080,43.006500,0
-89.770050,43.006150,0
-89.768880,43.005740,0
-89.768590,43.005650,0
-89.767670,43.005320,0
-89.766950,43.005080,0
-89.766640,43.004960,0
-89.765920,43.004720,0
-89.765140,43.004440,0
-89.764330,43.004160,0
-89.764030,43.004060,0
-89.763730,43.003950,0
-89.763100,43.003730,0
-89.762770,43.003630,0
-89.762270,43.003480,0
-89.762040,43.003430,0
-89.761830,43.003390,0
-89.761590,43.003360,0
-89.761350,43.003340,0
-89.761120,43.003340,0
-89.760980,43.003340,0
-89.760850,43.003350,0
-89.760720,43.003360,0
-89.760600,43.003360,0
-89.760600,43.003360,0
-89.760600,43.003360,0
-89.760440,43.003380,0
-89.760150,43.003410,0
-89.759830,43.003450,0
-89.759460,43.003520,0
-89.758600,43.003670,0
-89.757880,43.003810,0
-89.757280,43.003940,0
-89.757230,43.003950,0
-89.756770,43.004060,0
-89.756270,43.004200,0
-89.755780,43.004340,0
-89.753630,43.005000,0
-89.750460,43.005960,0
-89.749420,43.006290,0
-89.749180,43.006370,0
-89.748530,43.006570,0
-89.747130,43.007040,0
-89.746220,43.007330,0
-89.745250,43.007630,0
-89.745250,43.007630,0
-89.745250,43.007630,0
-89.745240,43.006990,0
-89.745240,43.006990,0
-89.745240,43.006990,0
-89.744960,43.007010,0
-89.744820,43.007020,0
-89.744770,43.007030,0
-89.744550,43.007080,0
-89.744450,43.007120,0
-89.744400,43.007170,0
-89.744230,43.007360,0
-89.744160,43.007420,0
-89.744020,43.007440,0
-89.743770,43.007480,0
-89.743150,43.007580,0
-89.742990,43.007610,0
-89.741930,43.007740,0
-89.741690,43.007770,0
-89.741590,43.007780,0
-89.741490,43.007780,0
-89.741110,43.007810,0
-89.741040,43.007810,0
-89.740970,43.007820,0
-89.740890,43.007840,0
-89.740380,43.007900,0
-89.740220,43.007910,0
-89.740130,43.007910,0
-89.739690,43.007930,0
-89.739070,43.007940,0
-89.738410,43.007960,0
		</coordinates>
	  </LineString>
	</Placemark>
  </Document>
</kml>