<?xml version="1.0" encoding="UTF-8"?>
<kml xmlns="http://www.opengis.net/kml/2.2">
  <Document>
	<name>Marshfield to Montreal 2013</name>
	<description>Second attempt on this father-son ride on modest mountain bikes from Marshfield to Montreal WI.  Planned smarter.  Traveled lighter.  But still just a grueling as the 2012 trip.  This time the trip began much like the last one, but we did it in 2-days instead of 3-days.  First stop in Park Falls.  Hottest weekend in August...not good timing.  The challenge to shoot straight up through Iron County from County Rd F to Hwy 77 on only gravel and dirt logging roads remains. We opted for pavement on the last 50miles.  Iron Range hills kicked out butts:  max to highest gear screaming down one and stare at the next one and downshifting to lowest gear for a slow crawl.  Took breaks in any shade we could find.  "Mind over matter," is easier said when done, but we made it!</description>
	<Style id="style1">
	  <LineStyle>
		<color>BF0000FF</color>
		<width>3</width>
	  </LineStyle>
	</Style>
	<Style id="yellowLineGreenPoly">
	  <LineStyle>
		<color>7f0000ff</color>
		<width>4</width>
	  </LineStyle>
	  <PolyStyle>
		<color>7f00ff00</color>
	  </PolyStyle>
	</Style>
	<Placemark>
	  <name>Marshfield to Montreal 2013</name>
	  <description>Second attempt on this father-son ride on modest mountain bikes from Marshfield to Montreal WI.  Planned smarter.  Traveled lighter.  But still just a grueling as the 2012 trip.  This time the trip began much like the last one, but we did it in 2-days instead of 3-days.  First stop in Park Falls.  Hottest weekend in August...not good timing.  The challenge to shoot straight up through Iron County from County Rd F to Hwy 77 on only gravel and dirt logging roads remains. We opted for pavement on the last 50miles.  Iron Range hills kicked out butts:  max to highest gear screaming down one and stare at the next one and downshifting to lowest gear for a slow crawl.  Took breaks in any shade we could find.  "Mind over matter," is easier said when done, but we made it!</description>
	  <styleUrl>#style1</styleUrl>
	  <LineString>
		<tessellate>1</tessellate>
		<coordinates>
		  -90.166063,44.663048,0
-90.292828,44.747138,0
-90.280151,44.753140,0
-90.313955,44.753140,0
-90.330858,44.920937,0
-90.349872,45.113746,0
-90.320294,45.261311,0
-90.307617,45.403894,0
-90.293884,45.408044,0
-90.292828,45.435885,0
-90.301279,45.507668,0
-90.308145,45.508779,0
-90.315012,45.546152,0
-90.317653,45.576883,0
-90.391071,45.607191,0
-90.390015,45.681819,0
-90.403748,45.694364,0
-90.414311,45.707570,0
-90.429101,45.716421,0
-90.428572,45.749971,0
-90.426988,45.756605,0
-90.420650,45.771012,0
-90.428044,45.786484,0
-90.428572,45.832137,0
-90.425932,45.868596,0
-90.421706,45.875952,0
-90.421178,45.881467,0
-90.449172,45.913374,0
-90.451813,45.923663,0
-90.450756,45.931378,0
-90.449700,45.936153,0
-90.445474,45.941296,0
-90.445474,45.949376,0
-90.447059,45.964064,0
-90.425932,45.965165,0
-90.422762,45.973018,0
-90.411142,45.978157,0
-90.404804,45.982928,0
-90.404276,46.007514,0
-90.373641,46.007880,0
-90.370472,46.028787,0
-90.362549,46.050456,0
-90.349872,46.050823,0
-90.332970,46.052656,0
-90.282792,46.069148,0
-90.278039,46.073912,0
-90.270644,46.075378,0
-90.270116,46.078675,0
-90.271700,46.083438,0
-90.266418,46.092230,0
-90.263778,46.115229,0
-90.254798,46.126212,0
-90.247932,46.127310,0
-90.247932,46.132435,0
-90.242122,46.134631,0
-90.235784,46.135363,0
-90.227333,46.139023,0
-90.218881,46.139755,0
-90.210430,46.140487,0
-90.198810,46.144147,0
-90.185606,46.150002,0
-90.178211,46.151100,0
-90.171344,46.148904,0
-90.162893,46.149636,0
-90.158668,46.151831,0
-90.151802,46.155124,0
-90.143879,46.160246,0
-90.143350,46.165734,0
-90.132259,46.167563,0
-90.125920,46.166831,0
-90.116413,46.166831,0
-90.110603,46.167929,0
-90.106377,46.168294,0
-90.102152,46.166100,0
-90.095813,46.165734,0
-90.092644,46.167929,0
-90.090003,46.170855,0
-90.090532,46.174513,0
-90.138597,46.186983,0
-90.143350,46.200146,0
-90.145463,46.245459,0
-90.154442,46.283107,0
-90.152858,46.318868,0
-90.156027,46.377495,0
-90.162893,46.382632,0
-90.194585,46.383726,0
-90.195113,46.395384,0
-90.193000,46.401576,0
-90.193000,46.408496,0
-90.195113,46.412138,0
-90.193528,46.442720,0
-90.195113,46.445995,0
-90.215184,46.437260,0
-90.227861,46.430708,0
-90.232086,46.433984,0
-90.238953,46.433256,0
		</coordinates>
	  </LineString>
	</Placemark>
  </Document>
</kml>