<?xml version="1.0" encoding="UTF-8"?>
<kml xmlns="http://www.opengis.net/kml/2.2">
  <Document>
	<name>Scenic Shore Day 2</name>
	<description>We added on to make it a double century weekend</description>
	<Style id="style1">
	  <LineStyle>
		<color>BF0000FF</color>
		<width>3</width>
	  </LineStyle>
	</Style>
	<Style id="yellowLineGreenPoly">
	  <LineStyle>
		<color>7f0000ff</color>
		<width>4</width>
	  </LineStyle>
	  <PolyStyle>
		<color>7f00ff00</color>
	  </PolyStyle>
	</Style>
	<Placemark>
	  <name>Scenic Shore Day 2</name>
	  <description>We added on to make it a double century weekend</description>
	  <styleUrl>#style1</styleUrl>
	  <LineString>
		<tessellate>1</tessellate>
		<coordinates>
		  -87.657144,44.064865,0
-87.657185,44.065198,0
-87.657206,44.065362,0
-87.657105,44.065565,0
-87.656952,44.065691,0
-87.657081,44.066073,0
-87.657081,44.066254,0
-87.657081,44.066355,0
-87.656875,44.066420,0
-87.656501,44.066420,0
-87.656428,44.066420,0
-87.655962,44.066420,0
-87.655922,44.066420,0
-87.655386,44.066487,0
-87.655012,44.066624,0
-87.654751,44.066861,0
-87.654701,44.066911,0
-87.654677,44.067076,0
-87.654677,44.067450,0
-87.654902,44.067996,0
-87.654929,44.068060,0
-87.655037,44.068571,0
-87.655317,44.069177,0
-87.655460,44.069479,0
-87.655720,44.070100,0
-87.655858,44.070445,0
-87.655988,44.071044,0
-87.656077,44.071512,0
-87.656181,44.072139,0
-87.656287,44.072770,0
-87.656403,44.073408,0
-87.656417,44.073480,0
-87.656523,44.073716,0
-87.656781,44.073802,0
-87.656882,44.073802,0
-87.657804,44.073802,0
-87.658547,44.073802,0
-87.658950,44.073802,0
-87.659032,44.073802,0
-87.659141,44.073773,0
-87.659303,44.073932,0
-87.659278,44.074464,0
-87.659269,44.075155,0
-87.659269,44.075862,0
-87.659269,44.076354,0
-87.659269,44.076907,0
-87.659269,44.077445,0
-87.659269,44.077938,0
-87.659269,44.078577,0
-87.659269,44.079152,0
-87.659269,44.079673,0
-87.659269,44.080102,0
-87.659269,44.080547,0
-87.659258,44.081174,0
-87.659235,44.081784,0
-87.659238,44.082442,0
-87.659251,44.083000,0
-87.659260,44.083347,0
-87.659263,44.083471,0
-87.659265,44.083527,0
-87.659269,44.083698,0
-87.659095,44.083715,0
-87.658752,44.083715,0
-87.658425,44.083715,0
-87.657853,44.083715,0
-87.656732,44.083674,0
-87.655916,44.083585,0
-87.655806,44.083565,0
-87.655345,44.083515,0
-87.654935,44.083629,0
-87.654525,44.083985,0
-87.654053,44.084680,0
-87.653567,44.085396,0
-87.653170,44.085980,0
-87.653062,44.086140,0
-87.653009,44.086482,0
-87.652988,44.086658,0
-87.652896,44.087007,0
-87.652563,44.087600,0
-87.652231,44.088191,0
-87.652184,44.088275,0
-87.652001,44.088600,0
-87.651796,44.088966,0
-87.651749,44.089050,0
-87.651330,44.089852,0
-87.651546,44.090986,0
-87.651520,44.091075,0
-87.651580,44.091405,0
-87.651804,44.091597,0
-87.652152,44.091696,0
-87.652284,44.091703,0
-87.652937,44.091690,0
-87.653733,44.091225,0
-87.653896,44.091231,0
-87.654583,44.091254,0
-87.655377,44.091268,0
-87.656337,44.091239,0
-87.657100,44.091209,0
-87.657467,44.091194,0
-87.657610,44.091188,0
-87.657767,44.091447,0
-87.657767,44.091857,0
-87.657780,44.092355,0
-87.657786,44.092500,0
-87.657800,44.092794,0
-87.657475,44.093028,0
-87.657237,44.093028,0
-87.656345,44.093022,0
-87.655135,44.092949,0
-87.655021,44.092942,0
-87.654358,44.093055,0
-87.654018,44.093221,0
-87.653827,44.093489,0
-87.653797,44.093556,0
-87.653616,44.094027,0
-87.653357,44.094330,0
-87.652690,44.095015,0
-87.652310,44.095506,0
-87.652126,44.095972,0
-87.651904,44.096635,0
-87.651503,44.097295,0
-87.651114,44.097966,0
-87.650812,44.098570,0
-87.650571,44.099093,0
-87.650151,44.100037,0
-87.649775,44.100706,0
-87.649291,44.101478,0
-87.648800,44.102243,0
-87.648601,44.102770,0
-87.648493,44.103309,0
-87.648274,44.103716,0
-87.648240,44.103810,0
-87.647479,44.104392,0
-87.646868,44.104910,0
-87.646141,44.105530,0
-87.645389,44.106170,0
-87.644731,44.106685,0
-87.644041,44.107198,0
-87.643820,44.107361,0
-87.642780,44.108059,0
-87.642404,44.108563,0
-87.641471,44.109437,0
-87.640947,44.109926,0
-87.640425,44.110398,0
-87.639873,44.110906,0
-87.639133,44.111598,0
-87.638501,44.112190,0
-87.637946,44.112710,0
-87.637255,44.113356,0
-87.636532,44.114095,0
-87.635896,44.114765,0
-87.635451,44.115258,0
-87.634812,44.115863,0
-87.634315,44.116384,0
-87.634085,44.116616,0
-87.632953,44.117372,0
-87.631887,44.117859,0
-87.630875,44.118258,0
-87.630213,44.118521,0
-87.628932,44.119033,0
-87.627740,44.119525,0
-87.626551,44.120020,0
-87.625640,44.120399,0
-87.624376,44.120924,0
-87.623247,44.121408,0
-87.622428,44.121858,0
-87.621694,44.122371,0
-87.621078,44.122869,0
-87.620276,44.123517,0
-87.619495,44.124025,0
-87.618618,44.124449,0
-87.617439,44.124901,0
-87.616363,44.125308,0
-87.615208,44.125745,0
-87.614047,44.126193,0
-87.612785,44.126699,0
-87.611435,44.127281,0
-87.610218,44.127826,0
-87.609049,44.128379,0
-87.607956,44.128862,0
-87.607073,44.129258,0
-87.605743,44.129857,0
-87.604414,44.130448,0
-87.603560,44.130840,0
-87.602153,44.131478,0
-87.600874,44.132062,0
-87.599654,44.132531,0
-87.598274,44.132990,0
-87.597016,44.133405,0
-87.595754,44.133826,0
-87.594492,44.134241,0
-87.593452,44.134583,0
-87.592302,44.134976,0
-87.591539,44.135269,0
-87.590087,44.135833,0
-87.588731,44.136375,0
-87.587711,44.136783,0
-87.586717,44.137181,0
-87.585523,44.137643,0
-87.584649,44.137957,0
-87.583761,44.138267,0
-87.582461,44.138601,0
-87.581318,44.138951,0
-87.580172,44.139321,0
-87.579129,44.139668,0
-87.577871,44.140088,0
-87.576846,44.140429,0
-87.576068,44.140688,0
-87.574653,44.141160,0
-87.573470,44.141535,0
-87.572707,44.141761,0
-87.571805,44.141994,0
-87.570697,44.142281,0
-87.569518,44.142588,0
-87.569023,44.142770,0
-87.568559,44.143015,0
-87.568286,44.143376,0
-87.568165,44.143779,0
-87.568164,44.144220,0
-87.568194,44.144749,0
-87.568230,44.145395,0
-87.568242,44.145614,0
-87.567954,44.145794,0
-87.567767,44.145905,0
-87.567142,44.146329,0
-87.566742,44.146601,0
-87.566615,44.146887,0
-87.566615,44.147391,0
-87.566626,44.147915,0
-87.566657,44.148630,0
-87.566658,44.149111,0
-87.566658,44.149842,0
-87.566658,44.150549,0
-87.566677,44.151064,0
-87.566701,44.152016,0
-87.566701,44.152922,0
-87.566701,44.153472,0
-87.566701,44.153671,0
-87.566529,44.153667,0
-87.565933,44.153667,0
-87.564995,44.153667,0
-87.564089,44.153667,0
-87.563335,44.153667,0
-87.562513,44.153667,0
-87.562210,44.153667,0
-87.561988,44.153667,0
-87.561980,44.153548,0
-87.561980,44.153128,0
-87.561980,44.152493,0
-87.561980,44.151674,0
-87.561980,44.150916,0
-87.561980,44.150527,0
-87.561980,44.150059,0
-87.561980,44.149268,0
-87.561980,44.148930,0
-87.561980,44.148747,0
-87.561980,44.148481,0
-87.561980,44.148002,0
-87.561980,44.147870,0
-87.561980,44.147754,0
-87.561768,44.147659,0
-87.560981,44.147659,0
-87.560264,44.147659,0
-87.559898,44.147659,0
-87.559577,44.147745,0
-87.558864,44.148304,0
-87.558483,44.148710,0
-87.557967,44.149062,0
-87.557537,44.149321,0
-87.557270,44.149580,0
-87.556716,44.149981,0
-87.556050,44.150414,0
-87.555521,44.150740,0
-87.555122,44.150984,0
-87.554711,44.151238,0
-87.554380,44.151421,0
-87.554123,44.151556,0
-87.553758,44.151746,0
-87.553390,44.151939,0
-87.552722,44.152288,0
-87.552019,44.152655,0
-87.551306,44.153028,0
-87.550787,44.153307,0
-87.550667,44.153509,0
-87.550692,44.153656,0
-87.550749,44.153666,0
-87.551343,44.153656,0
-87.552189,44.153642,0
-87.553282,44.153624,0
-87.553999,44.153624,0
-87.554571,44.153650,0
-87.554862,44.153675,0
-87.554952,44.153877,0
-87.554881,44.153912,0
-87.554632,44.154223,0
-87.554490,44.154753,0
-87.554442,44.155234,0
-87.554386,44.155797,0
-87.554151,44.156347,0
-87.553805,44.156866,0
-87.553269,44.157553,0
-87.552637,44.158301,0
-87.552027,44.159078,0
-87.551457,44.159759,0
-87.550893,44.160443,0
-87.550198,44.161305,0
-87.549831,44.161789,0
-87.549335,44.162431,0
-87.548965,44.162901,0
-87.548594,44.163373,0
-87.548163,44.163922,0
-87.547851,44.164320,0
-87.547690,44.164525,0
-87.547033,44.165227,0
-87.546419,44.165883,0
-87.545821,44.166520,0
-87.545229,44.167046,0
-87.544510,44.167684,0
-87.543913,44.168215,0
-87.543310,44.168885,0
-87.542617,44.169683,0
-87.542197,44.170234,0
-87.541661,44.170936,0
-87.541069,44.171714,0
-87.540405,44.172585,0
-87.540163,44.172902,0
-87.539730,44.173470,0
-87.539377,44.173950,0
-87.539055,44.174452,0
-87.538686,44.175025,0
-87.538225,44.175677,0
-87.537544,44.176532,0
-87.536799,44.177386,0
-87.536188,44.178086,0
-87.535753,44.178741,0
-87.535366,44.179434,0
-87.535075,44.179956,0
-87.534779,44.180486,0
-87.534290,44.181212,0
-87.533771,44.181940,0
-87.533458,44.182317,0
-87.532943,44.182936,0
-87.532348,44.183653,0
-87.531704,44.184445,0
-87.531257,44.185107,0
-87.530751,44.185854,0
-87.530418,44.186343,0
-87.529949,44.186981,0
-87.529433,44.187613,0
-87.529138,44.188034,0
-87.528728,44.188617,0
-87.528256,44.189290,0
-87.527861,44.189982,0
-87.527598,44.190516,0
-87.527140,44.191443,0
-87.526712,44.192312,0
-87.526255,44.193268,0
-87.525882,44.194070,0
-87.525549,44.194787,0
-87.525219,44.195495,0
-87.524970,44.196031,0
-87.524555,44.196923,0
-87.524215,44.197655,0
-87.523821,44.198206,0
-87.523740,44.198282,0
-87.523080,44.198588,0
-87.522377,44.198866,0
-87.521554,44.199191,0
-87.520973,44.199420,0
-87.520508,44.199604,0
-87.519949,44.199847,0
-87.519763,44.199986,0
-87.519345,44.200531,0
-87.519099,44.201080,0
-87.518976,44.201547,0
-87.518787,44.202099,0
-87.518451,44.202712,0
-87.518110,44.203307,0
-87.517846,44.204026,0
-87.517683,44.204471,0
-87.517470,44.204908,0
-87.517105,44.205611,0
-87.517025,44.205791,0
-87.516691,44.206570,0
-87.516469,44.207183,0
-87.516300,44.207730,0
-87.516131,44.208276,0
-87.515991,44.208727,0
-87.515817,44.209291,0
-87.515644,44.209848,0
-87.515532,44.210211,0
-87.515359,44.210769,0
-87.515185,44.211329,0
-87.515074,44.211689,0
-87.514914,44.212276,0
-87.514835,44.212564,0
-87.514688,44.213105,0
-87.514491,44.213871,0
-87.514348,44.214428,0
-87.514174,44.215104,0
-87.514007,44.215753,0
-87.513856,44.216342,0
-87.513760,44.216717,0
-87.513622,44.217253,0
-87.513522,44.217641,0
-87.513370,44.218233,0
-87.513221,44.218814,0
-87.513062,44.219498,0
-87.512939,44.220180,0
-87.512816,44.220866,0
-87.512737,44.221449,0
-87.512627,44.222326,0
-87.512542,44.223002,0
-87.512442,44.223788,0
-87.512353,44.224497,0
-87.512277,44.225098,0
-87.512227,44.225596,0
-87.512185,44.226193,0
-87.512131,44.226978,0
-87.512084,44.227656,0
-87.512043,44.228237,0
-87.511997,44.228903,0
-87.511941,44.229713,0
-87.511941,44.230516,0
-87.511927,44.231281,0
-87.511901,44.232030,0
-87.511871,44.232886,0
-87.511870,44.233734,0
-87.511897,44.234501,0
-87.511931,44.235250,0
-87.511963,44.236097,0
-87.511983,44.236675,0
-87.512147,44.236969,0
-87.512284,44.237052,0
-87.512284,44.237052,0
-87.514048,44.237052,0
-87.515208,44.237052,0
-87.516369,44.237052,0
-87.517663,44.237052,0
-87.518745,44.237046,0
-87.520151,44.237036,0
-87.521696,44.237024,0
-87.523063,44.237014,0
-87.524285,44.237005,0
-87.525887,44.236993,0
-87.526956,44.236985,0
-87.528047,44.236977,0
-87.529089,44.236969,0
-87.529321,44.236968,0
-87.529579,44.236966,0
-87.529537,44.237076,0
-87.529326,44.237630,0
-87.529132,44.238140,0
-87.528905,44.238737,0
-87.528651,44.239401,0
-87.528332,44.240241,0
-87.528197,44.240911,0
-87.528175,44.241770,0
-87.528111,44.242537,0
-87.527945,44.243124,0
-87.527717,44.243609,0
-87.527159,44.244458,0
-87.526695,44.245154,0
-87.526283,44.245773,0
-87.525870,44.246392,0
-87.525449,44.247020,0
-87.524935,44.247616,0
-87.524299,44.248153,0
-87.523532,44.248816,0
-87.523210,44.249212,0
-87.522972,44.249635,0
-87.522879,44.250175,0
-87.522850,44.250980,0
-87.522816,44.251937,0
-87.522786,44.252796,0
-87.522759,44.253565,0
-87.522726,44.254484,0
-87.522696,44.254957,0
-87.522594,44.255552,0
-87.522458,44.256341,0
-87.522342,44.257014,0
-87.522309,44.257629,0
-87.522411,44.258078,0
-87.522648,44.258580,0
-87.523111,44.259326,0
-87.523554,44.259981,0
-87.524192,44.260877,0
-87.524658,44.261532,0
-87.525144,44.262079,0
-87.525455,44.262368,0
-87.525725,44.262561,0
-87.526640,44.263215,0
-87.527290,44.263684,0
-87.527882,44.264215,0
-87.528496,44.264766,0
-87.529035,44.265468,0
-87.529338,44.265995,0
-87.529479,44.266651,0
-87.529627,44.267685,0
-87.529784,44.268786,0
-87.529835,44.269141,0
-87.529993,44.269351,0
-87.530240,44.269368,0
-87.530354,44.269369,0
-87.531709,44.269378,0
-87.533090,44.269387,0
-87.534090,44.269394,0
-87.535576,44.269403,0
-87.536952,44.269413,0
-87.538076,44.269420,0
-87.539662,44.269430,0
-87.540382,44.269435,0
-87.541578,44.269443,0
-87.542787,44.269451,0
-87.544137,44.269457,0
-87.545387,44.269463,0
-87.546525,44.269467,0
-87.548084,44.269474,0
-87.549651,44.269481,0
-87.551331,44.269488,0
-87.552355,44.269492,0
-87.553910,44.269496,0
-87.555359,44.269496,0
-87.556517,44.269496,0
-87.557889,44.269496,0
-87.558998,44.269496,0
-87.560110,44.269496,0
-87.561463,44.269496,0
-87.562640,44.269496,0
-87.563121,44.269496,0
-87.563566,44.269494,0
-87.564266,44.269488,0
-87.565029,44.269481,0
-87.566267,44.269471,0
-87.567654,44.269459,0
-87.568799,44.269449,0
-87.570230,44.269437,0
-87.571635,44.269424,0
-87.573062,44.269412,0
-87.574377,44.269405,0
-87.575479,44.269401,0
-87.577039,44.269394,0
-87.578169,44.269389,0
-87.579400,44.269384,0
-87.580774,44.269379,0
-87.582397,44.269372,0
-87.583169,44.269368,0
-87.583503,44.269367,0
-87.583567,44.269563,0
-87.583567,44.269826,0
-87.583567,44.270523,0
-87.583567,44.271286,0
-87.583567,44.272141,0
-87.583567,44.272904,0
-87.583567,44.274028,0
-87.583567,44.275152,0
-87.583567,44.276473,0
-87.583567,44.277596,0
-87.583567,44.278556,0
-87.583567,44.279683,0
-87.583567,44.280668,0
-87.583567,44.281189,0
-87.583567,44.282152,0
-87.583567,44.283110,0
-87.583565,44.284065,0
-87.583559,44.284663,0
-87.583551,44.285536,0
-87.583540,44.286671,0
-87.583532,44.287551,0
-87.583521,44.288689,0
-87.583511,44.289741,0
-87.583504,44.290510,0
-87.583495,44.291434,0
-87.583489,44.292024,0
-87.583479,44.293060,0
-87.583470,44.294091,0
-87.583461,44.294956,0
-87.583451,44.296069,0
-87.583444,44.296826,0
-87.583436,44.297674,0
-87.583429,44.298354,0
-87.583428,44.298527,0
-87.583418,44.299497,0
-87.583414,44.300015,0
-87.583406,44.300848,0
-87.583397,44.301741,0
-87.583395,44.302113,0
-87.583395,44.302387,0
-87.582983,44.302323,0
-87.581948,44.302318,0
-87.581124,44.302313,0
-87.580297,44.302308,0
-87.579453,44.302304,0
-87.578461,44.302298,0
-87.577459,44.302293,0
-87.576316,44.302286,0
-87.575359,44.302283,0
-87.573999,44.302283,0
-87.572746,44.302281,0
-87.571588,44.302276,0
-87.570397,44.302271,0
-87.569089,44.302266,0
-87.568287,44.302262,0
-87.567092,44.302257,0
-87.566035,44.302253,0
-87.564954,44.302248,0
-87.563808,44.302243,0
-87.563385,44.302242,0
-87.563003,44.302240,0
-87.562520,44.302238,0
-87.562200,44.302237,0
-87.561386,44.302233,0
-87.560431,44.302229,0
-87.559497,44.302225,0
-87.558345,44.302220,0
-87.557475,44.302216,0
-87.556257,44.302211,0
-87.554945,44.302206,0
-87.553699,44.302200,0
-87.552682,44.302213,0
-87.551928,44.302338,0
-87.551273,44.302544,0
-87.550335,44.302901,0
-87.549288,44.303299,0
-87.548350,44.303656,0
-87.547463,44.303993,0
-87.546718,44.304276,0
-87.546274,44.304443,0
-87.545879,44.304574,0
-87.545389,44.304738,0
-87.545056,44.304849,0
-87.545027,44.304858,0
-87.545290,44.304771,0
-87.545394,44.304736,0
-87.545634,44.304656,0
-87.545801,44.304600,0
-87.545833,44.304590,0
-87.546080,44.304507,0
-87.546338,44.304548,0
-87.546346,44.304594,0
-87.546421,44.305014,0
-87.546484,44.305364,0
-87.546605,44.306038,0
-87.546750,44.306838,0
-87.546963,44.307742,0
-87.547322,44.308644,0
-87.547548,44.309213,0
-87.547871,44.310025,0
-87.548125,44.310662,0
-87.548438,44.311448,0
-87.548585,44.312177,0
-87.548741,44.313023,0
-87.548859,44.313797,0
-87.548975,44.314589,0
-87.549107,44.315481,0
-87.549206,44.316359,0
-87.549218,44.317178,0
-87.549118,44.317919,0
-87.548984,44.318652,0
-87.548837,44.319460,0
-87.548656,44.320452,0
-87.548563,44.320960,0
-87.548426,44.321712,0
-87.548352,44.322371,0
-87.548340,44.322685,0
-87.548493,44.322942,0
-87.548486,44.323239,0
-87.547896,44.323979,0
-87.547104,44.324973,0
-87.546511,44.325716,0
-87.545835,44.326583,0
-87.545330,44.327327,0
-87.545037,44.327784,0
-87.544712,44.328401,0
-87.544370,44.329172,0
-87.544016,44.329968,0
-87.543623,44.330852,0
-87.543365,44.331588,0
-87.543155,44.332418,0
-87.543022,44.333250,0
-87.542952,44.334053,0
-87.542922,44.335008,0
-87.542917,44.335839,0
-87.542912,44.336692,0
-87.542906,44.337654,0
-87.542899,44.338809,0
-87.542893,44.339819,0
-87.542893,44.339819,0
-87.542887,44.340705,0
-87.542883,44.341674,0
-87.542873,44.342425,0
-87.542855,44.343263,0
-87.542837,44.344175,0
-87.542815,44.345328,0
-87.542798,44.346236,0
-87.542782,44.347120,0
-87.542766,44.347961,0
-87.542750,44.348816,0
-87.542732,44.349790,0
-87.542719,44.350518,0
-87.542716,44.350669,0
-87.542712,44.350863,0
-87.542401,44.350902,0
-87.541539,44.350892,0
-87.540595,44.350881,0
-87.539005,44.350864,0
-87.538428,44.350930,0
-87.537898,44.351092,0
-87.537342,44.351390,0
-87.536440,44.351934,0
-87.535418,44.352549,0
-87.534389,44.353169,0
-87.533645,44.353664,0
-87.533143,44.354165,0
-87.532847,44.354619,0
-87.532650,44.355109,0
-87.532474,44.355681,0
-87.532259,44.356120,0
-87.531886,44.356696,0
-87.531462,44.357358,0
-87.531327,44.357801,0
-87.531205,44.358534,0
-87.531051,44.359457,0
-87.530944,44.360070,0
-87.530770,44.360468,0
-87.530535,44.360810,0
-87.530130,44.361302,0
-87.529642,44.361797,0
-87.529306,44.362138,0
-87.528614,44.362840,0
-87.528018,44.363445,0
-87.527602,44.363867,0
-87.527421,44.364059,0
-87.527297,44.364496,0
-87.527277,44.365100,0
-87.527257,44.365739,0
-87.527235,44.366409,0
-87.527212,44.367118,0
-87.527192,44.367725,0
-87.527175,44.368253,0
-87.527156,44.368847,0
-87.527141,44.369308,0
-87.527121,44.369919,0
-87.527104,44.370425,0
-87.527098,44.370635,0
-87.527090,44.370866,0
-87.526878,44.370862,0
-87.526057,44.370862,0
-87.524840,44.370862,0
-87.524031,44.370862,0
-87.523515,44.370862,0
-87.523239,44.370862,0
-87.522689,44.370862,0
-87.522177,44.370872,0
-87.521958,44.370883,0
-87.521861,44.370888,0
-87.521502,44.370946,0
-87.521337,44.371082,0
-87.521290,44.371199,0
-87.521213,44.371458,0
-87.521081,44.371997,0
-87.520977,44.372421,0
-87.520813,44.373093,0
-87.520704,44.373535,0
-87.520534,44.374231,0
-87.520333,44.375053,0
-87.520218,44.375790,0
-87.520205,44.376531,0
-87.520249,44.377270,0
-87.520246,44.377897,0
-87.520182,44.378452,0
-87.520011,44.379123,0
-87.519898,44.379566,0
-87.519716,44.380284,0
-87.519464,44.381310,0
-87.519349,44.381811,0
-87.519159,44.382637,0
-87.519071,44.383022,0
-87.519144,44.383391,0
-87.519298,44.383864,0
-87.519530,44.384434,0
-87.519866,44.385259,0
-87.520134,44.385918,0
-87.520451,44.386696,0
-87.520718,44.387363,0
-87.520992,44.388154,0
-87.521194,44.388526,0
-87.520940,44.388996,0
-87.520620,44.389584,0
-87.520284,44.390198,0
-87.520047,44.390715,0
-87.519975,44.391110,0
-87.519889,44.391711,0
-87.519792,44.392403,0
-87.519722,44.392900,0
-87.519637,44.393509,0
-87.519472,44.394236,0
-87.519296,44.394976,0
-87.519100,44.395794,0
-87.518985,44.396278,0
-87.518781,44.396912,0
-87.518550,44.397547,0
-87.518316,44.398195,0
-87.518042,44.398950,0
-87.517761,44.399727,0
-87.517479,44.400508,0
-87.517195,44.401291,0
-87.517014,44.401895,0
-87.516836,44.402538,0
-87.516711,44.402992,0
-87.516648,44.403221,0
-87.516541,44.403610,0
-87.516449,44.403944,0
-87.516329,44.404376,0
-87.516121,44.405131,0
-87.515908,44.405903,0
-87.515741,44.406574,0
-87.515624,44.407486,0
-87.515585,44.408181,0
-87.515545,44.408917,0
-87.515534,44.409118,0
-87.515487,44.409973,0
-87.515463,44.410400,0
-87.515426,44.411085,0
-87.515319,44.411736,0
-87.515099,44.412408,0
-87.514822,44.413167,0
-87.514513,44.414014,0
-87.514294,44.414626,0
-87.514160,44.415208,0
-87.513976,44.416015,0
-87.513809,44.416748,0
-87.513645,44.417463,0
-87.513501,44.418094,0
-87.513358,44.418721,0
-87.513275,44.419082,0
-87.513077,44.419486,0
-87.512785,44.420030,0
-87.512310,44.420641,0
-87.511822,44.421268,0
-87.511490,44.421695,0
-87.510986,44.422242,0
-87.510425,44.422666,0
-87.509867,44.423080,0
-87.509183,44.423587,0
-87.508625,44.424001,0
-87.508191,44.424426,0
-87.507722,44.424959,0
-87.507464,44.425418,0
-87.507184,44.426019,0
-87.507068,44.426701,0
-87.507042,44.427216,0
-87.507035,44.427619,0
-87.507019,44.428489,0
-87.507009,44.429068,0
-87.507003,44.429395,0
-87.506994,44.429915,0
-87.506988,44.430307,0
-87.506976,44.431017,0
-87.506966,44.431658,0
-87.506955,44.432350,0
-87.506942,44.433092,0
-87.506930,44.433837,0
-87.506920,44.434444,0
-87.507049,44.434677,0
-87.507296,44.434900,0
-87.507273,44.434961,0
-87.507081,44.435522,0
-87.506948,44.436201,0
-87.506920,44.436894,0
-87.506920,44.437563,0
-87.506920,44.438326,0
-87.506920,44.439245,0
-87.506902,44.440010,0
-87.506752,44.440824,0
-87.506579,44.441750,0
-87.506370,44.442818,0
-87.506214,44.443614,0
-87.506024,44.444537,0
-87.505797,44.445384,0
-87.505516,44.446004,0
-87.505050,44.446731,0
-87.504447,44.447546,0
-87.504039,44.448166,0
-87.503818,44.448756,0
-87.503519,44.449590,0
-87.503230,44.450439,0
-87.503015,44.451170,0
-87.503015,44.451745,0
-87.503015,44.452419,0
-87.503015,44.453157,0
-87.503015,44.453838,0
-87.503015,44.454580,0
-87.503015,44.455420,0
-87.503015,44.456094,0
-87.503015,44.456555,0
-87.503015,44.457132,0
-87.503015,44.457927,0
-87.503015,44.458329,0
-87.503015,44.458914,0
-87.503057,44.459499,0
-87.503267,44.459974,0
-87.503557,44.460570,0
-87.503762,44.461236,0
-87.503916,44.461883,0
-87.503959,44.462326,0
-87.503841,44.462876,0
-87.503667,44.463273,0
-87.503338,44.463732,0
-87.502796,44.464405,0
-87.502416,44.464877,0
-87.502115,44.465259,0
-87.501821,44.465701,0
-87.501581,44.466154,0
-87.501451,44.466734,0
-87.501445,44.467402,0
-87.501470,44.468022,0
-87.501470,44.468755,0
-87.501489,44.469401,0
-87.501521,44.470039,0
-87.501545,44.470542,0
-87.501574,44.471162,0
-87.501593,44.471566,0
-87.501603,44.471767,0
-87.501624,44.472213,0
-87.501630,44.472335,0
-87.501640,44.472548,0
-87.501371,44.472588,0
-87.500431,44.472647,0
-87.499509,44.472704,0
-87.498601,44.472743,0
-87.497487,44.472743,0
-87.496853,44.472743,0
-87.496620,44.472743,0
-87.496618,44.472886,0
-87.496609,44.473415,0
-87.496600,44.473987,0
-87.496590,44.474596,0
-87.496577,44.475401,0
-87.496577,44.476253,0
-87.496442,44.476664,0
-87.496095,44.477374,0
-87.495777,44.478025,0
-87.495337,44.478926,0
-87.494816,44.479993,0
-87.494324,44.480993,0
-87.493826,44.482002,0
-87.493374,44.482918,0
-87.492970,44.483736,0
-87.492497,44.484695,0
-87.492073,44.485554,0
-87.491663,44.486383,0
-87.491328,44.487117,0
-87.491256,44.487619,0
-87.491256,44.488476,0
-87.491256,44.489250,0
-87.491249,44.490244,0
-87.491232,44.491013,0
-87.491210,44.491972,0
-87.491191,44.492796,0
-87.491173,44.493589,0
-87.491165,44.494704,0
-87.491159,44.495735,0
-87.491153,44.496780,0
-87.491149,44.497572,0
-87.491145,44.498321,0
-87.491141,44.499122,0
-87.491137,44.499741,0
-87.491132,44.500750,0
-87.491129,44.501219,0
-87.491128,44.501363,0
-87.491127,44.501582,0
-87.490953,44.501580,0
-87.490203,44.501571,0
-87.489323,44.501561,0
-87.488261,44.501549,0
-87.487651,44.501543,0
-87.487034,44.501851,0
-87.486980,44.502020,0
-87.486798,44.502588,0
-87.486526,44.503188,0
-87.486152,44.503805,0
-87.486057,44.503957,0
-87.485924,44.504172,0
-87.485709,44.504533,0
-87.485596,44.505178,0
-87.485514,44.506103,0
-87.485432,44.507019,0
-87.485448,44.507765,0
-87.485563,44.508475,0
-87.485678,44.509182,0
-87.485742,44.509888,0
-87.485727,44.510506,0
-87.485610,44.511190,0
-87.485506,44.511802,0
-87.485370,44.512599,0
-87.485246,44.513325,0
-87.485085,44.514168,0
-87.484850,44.514861,0
-87.484546,44.515753,0
-87.484241,44.516603,0
-87.483858,44.517639,0
-87.483585,44.518374,0
-87.483209,44.519093,0
-87.482636,44.519870,0
-87.481921,44.520823,0
-87.481218,44.521760,0
-87.480926,44.522234,0
-87.480881,44.522673,0
-87.480822,44.523572,0
-87.480806,44.524258,0
-87.480791,44.524921,0
-87.480771,44.525755,0
-87.480750,44.526655,0
-87.480738,44.527561,0
-87.480734,44.528196,0
-87.480729,44.528988,0
-87.480723,44.529872,0
-87.480718,44.530718,0
-87.480712,44.531560,0
-87.480708,44.532296,0
-87.480701,44.533277,0
-87.480697,44.533925,0
-87.480691,44.534669,0
-87.480685,44.535537,0
-87.480675,44.536869,0
-87.480668,44.537751,0
-87.480660,44.538817,0
-87.480652,44.539897,0
-87.480646,44.540705,0
-87.480638,44.541749,0
-87.480632,44.542626,0
-87.480624,44.543770,0
-87.480614,44.544987,0
-87.480613,44.545718,0
-87.480613,44.546197,0
-87.480613,44.546382,0
-87.480613,44.546514,0
-87.480342,44.546621,0
-87.479760,44.546852,0
-87.479029,44.547141,0
-87.478280,44.547438,0
-87.477169,44.547877,0
-87.476116,44.548294,0
-87.474833,44.548802,0
-87.473784,44.549217,0
-87.472577,44.549695,0
-87.471674,44.550155,0
-87.470918,44.550626,0
-87.470191,44.551238,0
-87.469677,44.551808,0
-87.469188,44.552382,0
-87.468709,44.552984,0
-87.468317,44.553488,0
-87.467805,44.554145,0
-87.467273,44.554829,0
-87.466825,44.555404,0
-87.466249,44.556144,0
-87.465733,44.556807,0
-87.465031,44.557709,0
-87.464386,44.558537,0
-87.463826,44.559258,0
-87.463323,44.559903,0
-87.462896,44.560449,0
-87.462340,44.561161,0
-87.461803,44.561849,0
-87.461329,44.562456,0
-87.460766,44.563177,0
-87.460268,44.563814,0
-87.459637,44.564621,0
-87.458991,44.565448,0
-87.458263,44.566381,0
-87.457806,44.566965,0
-87.457207,44.567719,0
-87.456501,44.568650,0
-87.456019,44.569405,0
-87.455694,44.570030,0
-87.455420,44.570614,0
-87.455001,44.571511,0
-87.454537,44.572502,0
-87.454078,44.573483,0
-87.453694,44.574301,0
-87.453266,44.575152,0
-87.452757,44.576160,0
-87.452329,44.577009,0
-87.451784,44.578091,0
-87.451417,44.578817,0
-87.451169,44.579311,0
-87.450839,44.580075,0
-87.450524,44.580804,0
-87.450231,44.581595,0
-87.449970,44.582430,0
-87.449695,44.583309,0
-87.449423,44.584179,0
-87.449062,44.584988,0
-87.448641,44.585850,0
-87.448322,44.586502,0
-87.447924,44.587318,0
-87.447475,44.588237,0
-87.447157,44.588869,0
-87.446781,44.589604,0
-87.446447,44.590257,0
-87.446091,44.590968,0
-87.445705,44.591559,0
-87.445254,44.592235,0
-87.444761,44.592902,0
-87.444293,44.593479,0
-87.443850,44.594026,0
-87.443463,44.594502,0
-87.443011,44.595060,0
-87.442489,44.595704,0
-87.441975,44.596374,0
-87.441606,44.596944,0
-87.441392,44.597432,0
-87.441210,44.598041,0
-87.441066,44.598528,0
-87.440876,44.599042,0
-87.440486,44.599981,0
-87.440404,44.600180,0
-87.440272,44.600502,0
-87.439982,44.601227,0
-87.439720,44.601832,0
-87.439505,44.602320,0
-87.439358,44.602652,0
-87.439041,44.603369,0
-87.438738,44.604001,0
-87.438399,44.604693,0
-87.437952,44.605140,0
-87.437374,44.605712,0
-87.436668,44.606381,0
-87.436449,44.606694,0
-87.436064,44.606810,0
-87.435846,44.606810,0
-87.435321,44.606821,0
-87.435146,44.606938,0
-87.434893,44.607106,0
-87.434720,44.607314,0
-87.434294,44.607777,0
-87.434067,44.608009,0
-87.433961,44.608124,0
-87.433946,44.608140,0
-87.433754,44.608347,0
-87.433933,44.608455,0
-87.434171,44.608514,0
-87.434534,44.608619,0
-87.434904,44.608727,0
-87.435064,44.608741,0
-87.435745,44.609327,0
-87.436076,44.609480,0
-87.436154,44.609493,0
-87.436155,44.609682,0
-87.435957,44.609946,0
-87.435723,44.610258,0
-87.435516,44.610534,0
-87.435418,44.610665,0
-87.435210,44.610829,0
-87.434920,44.610876,0
-87.434067,44.610832,0
-87.433449,44.610801,0
-87.432719,44.610778,0
-87.432178,44.610762,0
-87.431813,44.610802,0
-87.431305,44.610887,0
-87.430826,44.611045,0
-87.430176,44.611330,0
-87.429555,44.611681,0
-87.428978,44.612065,0
-87.428299,44.612492,0
-87.427671,44.612886,0
-87.426891,44.613375,0
-87.426104,44.613868,0
-87.425241,44.614424,0
-87.424093,44.615136,0
-87.423234,44.615679,0
-87.422266,44.616310,0
-87.421546,44.616883,0
-87.421026,44.617472,0
-87.420660,44.617968,0
-87.420079,44.618880,0
-87.419598,44.619647,0
-87.419178,44.620317,0
-87.418672,44.621120,0
-87.418228,44.621699,0
-87.417609,44.622292,0
-87.417010,44.622770,0
-87.416558,44.623089,0
-87.415801,44.623581,0
-87.414868,44.624186,0
-87.413887,44.624815,0
-87.412979,44.625384,0
-87.412030,44.625979,0
-87.410966,44.626645,0
-87.409970,44.627270,0
-87.409027,44.627861,0
-87.408203,44.628402,0
-87.407465,44.628986,0
-87.406638,44.629758,0
-87.405869,44.630528,0
-87.405138,44.631258,0
-87.404435,44.631962,0
-87.403759,44.632722,0
-87.403198,44.633436,0
-87.402619,44.634263,0
-87.402014,44.635128,0
-87.401326,44.635981,0
-87.400631,44.636831,0
-87.399989,44.637616,0
-87.399449,44.638340,0
-87.399097,44.639014,0
-87.398760,44.639761,0
-87.398426,44.640596,0
-87.398105,44.641452,0
-87.397868,44.642230,0
-87.397693,44.643012,0
-87.397653,44.643549,0
-87.397641,44.644410,0
-87.397626,44.645514,0
-87.397615,44.646393,0
-87.397615,44.647235,0
-87.397615,44.648449,0
-87.397615,44.649625,0
-87.397615,44.650771,0
-87.397615,44.651914,0
-87.397615,44.652495,0
-87.397615,44.653304,0
-87.397615,44.653440,0
-87.397615,44.653612,0
-87.397359,44.653635,0
-87.396481,44.653649,0
-87.395703,44.653662,0
-87.394792,44.653674,0
-87.393866,44.653674,0
-87.392763,44.653674,0
-87.391818,44.653674,0
-87.391369,44.653674,0
-87.390945,44.653790,0
-87.390848,44.653838,0
-87.390180,44.654369,0
-87.389736,44.654739,0
-87.389151,44.655271,0
-87.388804,44.655618,0
-87.388572,44.655920,0
-87.388386,44.656347,0
-87.388203,44.656912,0
-87.388026,44.657457,0
-87.387785,44.657914,0
-87.387475,44.658277,0
-87.387063,44.658689,0
-87.386622,44.659015,0
-87.386161,44.659354,0
-87.385569,44.659791,0
-87.384593,44.660578,0
-87.384201,44.660907,0
-87.383849,44.661389,0
-87.383423,44.662156,0
-87.383169,44.662612,0
-87.383118,44.662695,0
-87.382761,44.663047,0
-87.382315,44.663235,0
-87.381563,44.663536,0
-87.381435,44.663587,0
-87.381022,44.663888,0
-87.380720,44.664348,0
-87.380516,44.664916,0
-87.380382,44.665465,0
-87.380275,44.665999,0
-87.380162,44.666565,0
-87.380023,44.667134,0
-87.379866,44.667763,0
-87.379708,44.668395,0
-87.379575,44.668724,0
-87.379220,44.669434,0
-87.378881,44.670112,0
-87.378492,44.670871,0
-87.378130,44.671568,0
-87.377688,44.672421,0
-87.377334,44.673161,0
-87.377189,44.673665,0
-87.377064,44.674197,0
-87.377137,44.674727,0
-87.377220,44.675186,0
-87.377273,44.675475,0
-87.377410,44.676160,0
-87.377465,44.676615,0
-87.377506,44.677160,0
-87.377530,44.677644,0
-87.377476,44.678296,0
-87.377335,44.678928,0
-87.377163,44.679770,0
-87.376966,44.680668,0
-87.376791,44.681382,0
-87.376546,44.681882,0
-87.376174,44.682332,0
-87.375688,44.682781,0
-87.375358,44.683018,0
-87.375024,44.683258,0
-87.374684,44.683502,0
-87.374172,44.683870,0
-87.373762,44.684164,0
-87.373084,44.684651,0
-87.372566,44.685023,0
-87.371768,44.685589,0
-87.371209,44.685985,0
-87.370423,44.686542,0
-87.369538,44.687171,0
-87.368835,44.687669,0
-87.368076,44.688207,0
-87.367574,44.688564,0
-87.366615,44.689261,0
-87.366092,44.689642,0
-87.365387,44.690162,0
-87.364875,44.690698,0
-87.364626,44.691080,0
-87.364399,44.691669,0
-87.364196,44.692249,0
-87.363983,44.692860,0
-87.363763,44.693408,0
-87.363500,44.694058,0
-87.363241,44.694700,0
-87.362981,44.695226,0
-87.362731,44.695665,0
-87.362285,44.696253,0
-87.361852,44.696742,0
-87.361350,44.697309,0
-87.360855,44.697850,0
-87.360358,44.698390,0
-87.359802,44.698994,0
-87.359281,44.699517,0
-87.359046,44.699733,0
-87.358640,44.700030,0
-87.357942,44.700541,0
-87.357385,44.700948,0
-87.356800,44.701462,0
-87.356485,44.701740,0
-87.355911,44.702246,0
-87.354877,44.703212,0
-87.354317,44.703753,0
-87.353561,44.704468,0
-87.352935,44.705232,0
-87.352283,44.706154,0
-87.351927,44.706673,0
-87.351845,44.706836,0
-87.351837,44.707257,0
-87.351975,44.707469,0
-87.352100,44.707594,0
-87.352332,44.707818,0
-87.352178,44.707962,0
-87.351675,44.708698,0
-87.351364,44.709153,0
-87.350961,44.709742,0
-87.350585,44.710328,0
-87.350325,44.710958,0
-87.350133,44.711425,0
-87.349967,44.711698,0
-87.349624,44.711718,0
-87.348635,44.711774,0
-87.348211,44.711884,0
-87.348093,44.712120,0
-87.347937,44.712827,0
-87.347695,44.713413,0
-87.347419,44.714059,0
-87.347228,44.714383,0
-87.346936,44.714860,0
-87.346771,44.715099,0
-87.346277,44.715815,0
-87.345829,44.716463,0
-87.345366,44.717068,0
-87.344721,44.717898,0
-87.344301,44.718437,0
-87.343979,44.719030,0
-87.343725,44.719511,0
-87.343464,44.720006,0
-87.343320,44.720613,0
-87.343202,44.721130,0
-87.343066,44.721724,0
-87.343021,44.721922,0
-87.343011,44.721966,0
-87.343014,44.721951,0
-87.342991,44.722052,0
-87.342938,44.722285,0
-87.342851,44.722665,0
-87.342787,44.722947,0
-87.342588,44.723450,0
-87.342364,44.723979,0
-87.342267,44.724208,0
-87.342202,44.724510,0
-87.342357,44.724618,0
-87.343165,44.725100,0
-87.343594,44.725351,0
-87.343902,44.725532,0
-87.344040,44.725612,0
-87.344333,44.725784,0
-87.344390,44.725817,0
-87.344616,44.725950,0
-87.345032,44.726194,0
-87.345096,44.726227,0
-87.345552,44.726329,0
-87.345728,44.726329,0
-87.346030,44.726329,0
-87.346031,44.726543,0
-87.346033,44.727080,0
-87.346035,44.727725,0
-87.346038,44.728383,0
-87.346040,44.729101,0
-87.346042,44.729653,0
-87.346045,44.730351,0
-87.346047,44.730971,0
-87.346049,44.731603,0
-87.346052,44.732214,0
-87.346054,44.732779,0
-87.346054,44.732867,0
-87.346056,44.733322,0
-87.346057,44.733778,0
-87.346060,44.734385,0
-87.346063,44.735342,0
-87.346065,44.735858,0
-87.346067,44.736479,0
-87.346071,44.737481,0
-87.346072,44.738485,0
-87.346068,44.739385,0
-87.346064,44.740189,0
-87.346061,44.740987,0
-87.346057,44.741800,0
-87.346054,44.742637,0
-87.346051,44.743255,0
-87.346048,44.744056,0
-87.346045,44.744769,0
-87.346040,44.745776,0
-87.346037,44.746538,0
-87.346034,44.747200,0
-87.346032,44.747711,0
-87.346031,44.748016,0
-87.346327,44.748046,0
-87.347182,44.748049,0
-87.347827,44.748052,0
-87.348560,44.748055,0
-87.349273,44.748058,0
-87.349549,44.748059,0
-87.350379,44.748063,0
-87.351588,44.748068,0
-87.352612,44.748072,0
-87.353730,44.748077,0
-87.354940,44.748082,0
-87.355881,44.748086,0
-87.356506,44.748088,0
-87.357663,44.748091,0
-87.358405,44.748092,0
-87.359312,44.748094,0
-87.360107,44.748096,0
-87.361540,44.748099,0
-87.362447,44.748100,0
-87.363445,44.748102,0
-87.364391,44.748104,0
-87.365437,44.748107,0
-87.366392,44.748109,0
-87.367426,44.748111,0
-87.368430,44.748113,0
-87.369722,44.748115,0
-87.370795,44.748118,0
-87.371713,44.748120,0
-87.372632,44.748121,0
-87.373530,44.748123,0
-87.374670,44.748126,0
-87.376148,44.748129,0
-87.376598,44.748130,0
-87.376763,44.748130,0
-87.377065,44.748130,0
-87.377171,44.748130,0
-87.377171,44.748130,0
-87.377205,44.748129,0
-87.377411,44.748129,0
-87.377547,44.748128,0
-87.377785,44.748127,0
-87.378293,44.748125,0
-87.378775,44.748123,0
-87.379554,44.748120,0
-87.380188,44.748118,0
-87.380948,44.748115,0
-87.382151,44.748110,0
-87.383380,44.748105,0
-87.384611,44.748100,0
-87.385786,44.748096,0
-87.387233,44.748090,0
-87.388394,44.748087,0
-87.389655,44.748087,0
-87.391045,44.748087,0
-87.392868,44.748087,0
-87.394256,44.748087,0
-87.395649,44.748087,0
-87.396645,44.748087,0
-87.397064,44.748087,0
-87.397362,44.748087,0
-87.397402,44.748286,0
-87.397409,44.748890,0
-87.397419,44.749678,0
-87.397431,44.750706,0
-87.397442,44.751655,0
-87.397452,44.752487,0
-87.397464,44.753495,0
-87.397475,44.754495,0
-87.397484,44.755507,0
-87.397471,44.756627,0
-87.397458,44.757747,0
-87.397447,44.758635,0
-87.397446,44.758721,0
-87.397443,44.758961,0
-87.397128,44.758989,0
-87.396197,44.758992,0
-87.395018,44.758996,0
-87.394310,44.758998,0
-87.393222,44.759002,0
-87.392111,44.759005,0
-87.391139,44.759008,0
-87.389748,44.759013,0
-87.388602,44.759016,0
-87.387314,44.759020,0
-87.385956,44.759025,0
-87.384625,44.759029,0
-87.383519,44.759031,0
-87.382315,44.759031,0
-87.380952,44.759031,0
-87.379313,44.759031,0
-87.377965,44.759031,0
-87.377445,44.759031,0
-87.377160,44.759031,0
-87.377022,44.759031,0
-87.376971,44.759031,0
-87.377015,44.759066,0
-87.377014,44.758767,0
-87.377012,44.758351,0
-87.377011,44.758098,0
-87.377103,44.758029,0
-87.377012,44.758200,0
-87.377013,44.758452,0
-87.377014,44.758783,0
-87.377015,44.759031,0
-87.377015,44.759612,0
-87.377015,44.760242,0
-87.377015,44.760876,0
-87.377015,44.761531,0
-87.377015,44.762256,0
-87.377015,44.763087,0
-87.377015,44.763784,0
-87.377010,44.764619,0
-87.376988,44.765317,0
-87.376964,44.766094,0
-87.376945,44.766717,0
-87.376924,44.767403,0
-87.376897,44.768299,0
-87.376870,44.769169,0
-87.376844,44.770017,0
-87.376838,44.770890,0
-87.376833,44.771758,0
-87.376828,44.772664,0
-87.376822,44.773668,0
-87.376816,44.774690,0
-87.376811,44.775544,0
-87.376804,44.776696,0
-87.376802,44.777474,0
-87.376807,44.778456,0
-87.376814,44.779618,0
-87.376819,44.780478,0
-87.376824,44.781236,0
-87.376830,44.782312,0
-87.376836,44.783271,0
-87.376841,44.784077,0
-87.376842,44.784240,0
-87.376843,44.784464,0
-87.376544,44.784485,0
-87.376432,44.784487,0
-87.375594,44.784502,0
-87.374381,44.784524,0
-87.373094,44.784547,0
-87.372402,44.784560,0
-87.371994,44.784580,0
-87.371809,44.784744,0
-87.371789,44.784942,0
-87.371797,44.785927,0
-87.371818,44.786984,0
-87.371832,44.787731,0
-87.371844,44.788311,0
-87.371858,44.789036,0
-87.371871,44.789697,0
-87.371880,44.790154,0
-87.371888,44.790587,0
-87.371902,44.791303,0
-87.371913,44.792246,0
-87.371920,44.793169,0
-87.371927,44.793993,0
-87.371934,44.794952,0
-87.371942,44.795929,0
-87.371950,44.796902,0
-87.371956,44.797689,0
-87.371964,44.798706,0
-87.371970,44.799485,0
-87.371976,44.800231,0
-87.371981,44.800941,0
-87.371985,44.801427,0
-87.371986,44.801510,0
-87.371992,44.802359,0
-87.372000,44.803087,0
-87.372007,44.803639,0
-87.372014,44.804277,0
-87.372023,44.805034,0
-87.372032,44.805764,0
-87.372034,44.805932,0
-87.372037,44.806152,0
-87.371399,44.806674,0
-87.370575,44.807446,0
-87.369881,44.808096,0
-87.369364,44.808580,0
-87.368886,44.809027,0
-87.368016,44.809842,0
-87.367111,44.810690,0
-87.366297,44.811452,0
-87.365727,44.811986,0
-87.364959,44.812705,0
-87.364585,44.813055,0
-87.364351,44.813235,0
-87.364290,44.813418,0
-87.364309,44.813829,0
-87.364301,44.814502,0
-87.364288,44.815465,0
-87.364281,44.816043,0
-87.364273,44.816682,0
-87.364270,44.816901,0
-87.364512,44.816925,0
-87.365231,44.816931,0
-87.366463,44.816939,0
-87.367599,44.816948,0
-87.368604,44.816955,0
-87.370053,44.816965,0
-87.371111,44.816967,0
-87.371456,44.816967,0
-87.371737,44.816967,0
-87.372062,44.817129,0
-87.372950,44.817651,0
-87.373854,44.818237,0
-87.374746,44.818814,0
-87.375676,44.819417,0
-87.376319,44.819833,0
-87.376753,44.820114,0
-87.377163,44.820295,0
-87.377241,44.820314,0
-87.377530,44.820314,0
-87.378203,44.820375,0
-87.378590,44.820524,0
-87.379117,44.820597,0
-87.380010,44.820626,0
-87.381254,44.820645,0
-87.381684,44.820652,0
-87.382026,44.820657,0
-87.382036,44.820801,0
-87.382036,44.820958,0
-87.382067,44.821677,0
-87.382079,44.822306,0
-87.382079,44.823017,0
-87.382079,44.823851,0
-87.382116,44.824428,0
-87.382079,44.825055,0
-87.382079,44.825865,0
-87.382079,44.826746,0
-87.382079,44.827404,0
-87.382208,44.828150,0
-87.382208,44.828704,0
-87.382208,44.828854,0
-87.382208,44.828854,0
-87.380928,44.829557,0
-87.380391,44.829825,0
-87.379923,44.830057,0
-87.379033,44.830505,0
-87.378179,44.830933,0
-87.377495,44.831311,0
-87.377124,44.831499,0
-87.376905,44.831593,0
-87.376636,44.831708,0
-87.376586,44.831729,0
-87.376586,44.831729,0
-87.376025,44.831119,0
-87.375910,44.831174,0
-87.375827,44.831214,0
-87.375087,44.831572,0
-87.374487,44.831861,0
-87.374420,44.831893,0
-87.374203,44.831997,0
-87.374413,44.832189,0
-87.374681,44.832478,0
-87.374916,44.832736,0
-87.375271,44.833132,0
-87.375895,44.833805,0
-87.376120,44.834041,0
-87.376256,44.834185,0
-87.376329,44.834261,0
-87.376743,44.834797,0
-87.376949,44.835003,0
-87.377111,44.835177,0
-87.377370,44.835449,0
-87.377675,44.835769,0
-87.377857,44.835971,0
-87.378180,44.836309,0
-87.378646,44.836751,0
-87.378646,44.836751,0
-87.378820,44.836940,0
-87.379220,44.837375,0
-87.379610,44.837799,0
-87.379817,44.838213,0
-87.380113,44.839177,0
-87.380321,44.839893,0
-87.380531,44.840617,0
-87.380795,44.841530,0
-87.380902,44.841985,0
-87.381114,44.842885,0
-87.381272,44.843559,0
-87.381376,44.844006,0
-87.381411,44.844156,0
-87.381431,44.844241,0
-87.381474,44.844431,0
-87.381557,44.844801,0
-87.381676,44.845324,0
-87.381756,44.845868,0
-87.381783,44.846227,0
-87.381821,44.846743,0
-87.381870,44.847403,0
-87.381903,44.847852,0
-87.381843,44.848322,0
-87.381743,44.848960,0
-87.381607,44.849711,0
-87.381532,44.850140,0
-87.381424,44.850617,0
-87.381214,44.851333,0
-87.380993,44.852066,0
-87.380795,44.852626,0
-87.380580,44.853238,0
-87.380437,44.853795,0
-87.380349,44.854284,0
-87.380291,44.854943,0
-87.380314,44.855365,0
-87.380430,44.855879,0
-87.380568,44.856404,0
-87.380678,44.856823,0
-87.380856,44.857520,0
-87.381076,44.858369,0
-87.381307,44.859068,0
-87.381286,44.859600,0
-87.381226,44.860026,0
-87.381073,44.860443,0
-87.380869,44.861023,0
-87.380751,44.861514,0
-87.380643,44.862207,0
-87.380576,44.862643,0
-87.380539,44.863177,0
-87.380493,44.863878,0
-87.380654,44.864498,0
-87.380825,44.865392,0
-87.381058,44.866069,0
-87.381319,44.866575,0
-87.381830,44.867407,0
-87.382186,44.867984,0
-87.382478,44.868458,0
-87.382705,44.869296,0
-87.382920,44.869965,0
-87.383123,44.870468,0
-87.383202,44.870994,0
-87.383223,44.871499,0
-87.383290,44.872027,0
-87.383483,44.872661,0
-87.383538,44.873100,0
-87.383538,44.873863,0
-87.383487,44.874367,0
-87.383374,44.874788,0
-87.383218,44.875376,0
-87.383109,44.875781,0
-87.382966,44.876319,0
-87.382792,44.877243,0
-87.382719,44.877839,0
-87.382646,44.878565,0
-87.382581,44.879315,0
-87.382514,44.879854,0
-87.382366,44.880471,0
-87.382183,44.880993,0
-87.381963,44.881619,0
-87.381779,44.882145,0
-87.381531,44.882946,0
-87.381468,44.883302,0
-87.381435,44.883669,0
-87.381462,44.884126,0
-87.381596,44.884770,0
-87.381787,44.885417,0
-87.382043,44.886135,0
-87.382330,44.886944,0
-87.382707,44.887626,0
-87.383164,44.888447,0
-87.383622,44.889267,0
-87.384013,44.890081,0
-87.384300,44.890895,0
-87.384564,44.891680,0
-87.384895,44.892365,0
-87.385255,44.893034,0
-87.385624,44.893633,0
-87.386032,44.894170,0
-87.386449,44.894634,0
-87.386919,44.895092,0
-87.387468,44.895627,0
-87.387996,44.896141,0
-87.388923,44.896861,0
-87.389685,44.897445,0
-87.390033,44.897711,0
-87.390839,44.898294,0
-87.391433,44.898612,0
-87.392140,44.898965,0
-87.392740,44.899262,0
-87.393764,44.899763,0
-87.394828,44.900283,0
-87.395897,44.900806,0
-87.396883,44.901264,0
-87.397964,44.901634,0
-87.399096,44.901982,0
-87.400429,44.902392,0
-87.401669,44.902853,0
-87.402546,44.903236,0
-87.403103,44.903482,0
-87.403521,44.903838,0
-87.404288,44.904655,0
-87.405011,44.905472,0
-87.405370,44.905955,0
-87.405550,44.906610,0
-87.405777,44.907438,0
-87.405876,44.908076,0
-87.405799,44.908443,0
-87.405549,44.908863,0
-87.405087,44.909578,0
-87.404798,44.910024,0
-87.404610,44.910634,0
-87.404477,44.911095,0
-87.404240,44.911855,0
-87.404044,44.912333,0
-87.403713,44.912689,0
-87.403179,44.913233,0
-87.402612,44.913787,0
-87.401953,44.914432,0
-87.401256,44.915114,0
-87.400676,44.915680,0
-87.400142,44.916203,0
-87.399447,44.916833,0
-87.398650,44.917399,0
-87.397872,44.917952,0
-87.396907,44.918637,0
-87.396428,44.919025,0
-87.396428,44.919025,0
-87.395923,44.919538,0
-87.395323,44.920223,0
-87.394998,44.920695,0
-87.394715,44.921180,0
-87.394403,44.921753,0
-87.394199,44.922350,0
-87.394115,44.922851,0
-87.393996,44.923470,0
-87.393873,44.923969,0
-87.393722,44.924383,0
-87.393363,44.924897,0
-87.392987,44.925390,0
-87.392847,44.925705,0
-87.392789,44.926117,0
-87.392851,44.926613,0
-87.393072,44.927609,0
-87.393223,44.928288,0
-87.393280,44.928740,0
-87.393280,44.929382,0
-87.393280,44.930091,0
-87.393077,44.930570,0
-87.392671,44.931364,0
-87.392379,44.931919,0
-87.392062,44.932521,0
-87.391765,44.933081,0
-87.391387,44.933793,0
-87.390913,44.934677,0
-87.390557,44.935315,0
-87.390227,44.935905,0
-87.389788,44.936574,0
-87.389676,44.936742,0
-87.389287,44.936980,0
-87.388674,44.937133,0
-87.387551,44.937588,0
-87.386717,44.937973,0
-87.386234,44.938239,0
-87.385819,44.938673,0
-87.385210,44.939370,0
-87.384566,44.940105,0
-87.383917,44.940848,0
-87.383212,44.941653,0
-87.382514,44.942451,0
-87.381857,44.943202,0
-87.381257,44.943884,0
-87.380726,44.944472,0
-87.380259,44.944989,0
-87.380055,44.945252,0
-87.379969,44.945381,0
-87.379917,44.945458,0
-87.379895,44.945523,0
-87.379569,44.945644,0
-87.379207,44.945809,0
-87.378668,44.946020,0
-87.378057,44.946115,0
-87.377093,44.946151,0
-87.376078,44.946163,0
-87.375215,44.946173,0
-87.374303,44.946185,0
-87.373336,44.946196,0
-87.372497,44.946206,0
-87.371593,44.946217,0
-87.370711,44.946229,0
-87.370009,44.946263,0
-87.369590,44.946348,0
-87.369429,44.946396,0
-87.369220,44.946570,0
-87.369017,44.946777,0
-87.368924,44.946887,0
-87.368685,44.947170,0
-87.368513,44.947373,0
-87.368324,44.947596,0
-87.368238,44.947698,0
-87.368078,44.947821,0
-87.367655,44.948033,0
-87.367427,44.948146,0
-87.367258,44.948231,0
-87.367184,44.948264,0
-87.366857,44.948407,0
-87.366305,44.948657,0
-87.365608,44.948974,0
-87.365163,44.949175,0
-87.364764,44.949356,0
-87.364540,44.949458,0
-87.364078,44.949668,0
-87.363434,44.949960,0
-87.363026,44.950145,0
-87.362771,44.950261,0
-87.362613,44.950333,0
-87.362682,44.950302,0
-87.362935,44.950187,0
-87.363354,44.949997,0
-87.363719,44.949831,0
-87.364042,44.949684,0
-87.364165,44.949628,0
-87.364297,44.949569,0
-87.364163,44.949629,0
-87.363954,44.949724,0
-87.363637,44.949868,0
-87.363208,44.950063,0
-87.362627,44.950327,0
-87.362051,44.950588,0
-87.361540,44.950820,0
-87.360856,44.951128,0
-87.360187,44.951362,0
-87.359603,44.951490,0
-87.358762,44.951525,0
-87.357831,44.951548,0
-87.356756,44.951540,0
-87.355422,44.951529,0
-87.354204,44.951519,0
-87.353240,44.951511,0
-87.352258,44.951506,0
-87.351657,44.951506,0
-87.351030,44.951506,0
-87.349778,44.951503,0
-87.349193,44.951493,0
-87.348390,44.951480,0
-87.347458,44.951465,0
-87.346477,44.951463,0
-87.345133,44.951463,0
-87.343607,44.951469,0
-87.342438,44.951476,0
-87.341300,44.951482,0
-87.340225,44.951488,0
-87.339162,44.951494,0
-87.338190,44.951499,0
-87.337614,44.951502,0
-87.337213,44.951505,0
-87.337017,44.951506,0
-87.336934,44.951329,0
-87.336934,44.951295,0
-87.336886,44.951026,0
-87.336935,44.951115,0
-87.336933,44.951373,0
-87.336618,44.951505,0
-87.335831,44.951501,0
-87.335060,44.951497,0
-87.334362,44.951493,0
-87.333611,44.951490,0
-87.332770,44.951486,0
-87.331724,44.951480,0
-87.330694,44.951475,0
-87.329579,44.951470,0
-87.328527,44.951465,0
-87.327441,44.951463,0
-87.326404,44.951467,0
-87.325417,44.951475,0
-87.324546,44.951482,0
-87.323637,44.951490,0
-87.322572,44.951498,0
-87.321729,44.951505,0
-87.320880,44.951512,0
-87.319925,44.951520,0
-87.318813,44.951530,0
-87.317742,44.951538,0
-87.316979,44.951545,0
-87.316190,44.951551,0
-87.315426,44.951558,0
-87.314671,44.951564,0
-87.314003,44.951569,0
-87.313320,44.951575,0
-87.312690,44.951580,0
-87.311939,44.951587,0
-87.311095,44.951594,0
-87.310290,44.951600,0
-87.308920,44.951612,0
-87.307980,44.951619,0
-87.307032,44.951627,0
-87.306030,44.951635,0
-87.305276,44.951635,0
-87.303820,44.951635,0
-87.303292,44.951635,0
-87.302235,44.951635,0
-87.301301,44.951635,0
-87.300050,44.951635,0
-87.298569,44.951635,0
-87.297331,44.951635,0
-87.296272,44.951635,0
-87.295309,44.951640,0
-87.294826,44.951645,0
-87.294064,44.951653,0
-87.293896,44.951654,0
-87.293743,44.951656,0
-87.293547,44.951658,0
-87.293485,44.951658,0
-87.293556,44.951658,0
-87.293873,44.951655,0
-87.294324,44.951650,0
-87.294856,44.951644,0
-87.295399,44.951639,0
-87.295469,44.951638,0
-87.295695,44.951636,0
-87.295775,44.951521,0
-87.295774,44.951360,0
-87.295775,44.951433,0
-87.295775,44.951507,0
-87.295961,44.951635,0
-87.296026,44.951635,0
-87.296318,44.951635,0
-87.296910,44.951635,0
-87.297620,44.951635,0
-87.298277,44.951635,0
-87.298746,44.951635,0
-87.299593,44.951635,0
-87.300778,44.951635,0
-87.302059,44.951635,0
-87.303037,44.951635,0
-87.304324,44.951635,0
-87.305531,44.951635,0
-87.306561,44.951631,0
-87.307713,44.951622,0
-87.308794,44.951613,0
-87.309658,44.951606,0
-87.310613,44.951598,0
-87.311575,44.951590,0
-87.312637,44.951581,0
-87.313459,44.951574,0
-87.314306,44.951567,0
-87.315443,44.951557,0
-87.316706,44.951547,0
-87.318610,44.951531,0
-87.320239,44.951518,0
-87.321747,44.951505,0
-87.324200,44.951485,0
-87.326129,44.951469,0
-87.327866,44.951463,0
-87.329487,44.951469,0
-87.331008,44.951477,0
-87.332659,44.951485,0
-87.333814,44.951491,0
-87.334906,44.951496,0
-87.335596,44.951500,0
-87.336281,44.951503,0
-87.336605,44.951505,0
-87.336768,44.951505,0
-87.336932,44.951506,0
-87.337126,44.951505,0
-87.337194,44.951505,0
-87.337862,44.951501,0
-87.338690,44.951496,0
-87.339533,44.951492,0
-87.340844,44.951485,0
-87.342126,44.951478,0
-87.343500,44.951470,0
-87.344760,44.951463,0
-87.345717,44.951463,0
-87.346919,44.951463,0
-87.347991,44.951474,0
-87.349337,44.951496,0
-87.350670,44.951506,0
-87.351615,44.951506,0
-87.352858,44.951507,0
-87.353838,44.951516,0
-87.355015,44.951526,0
-87.356133,44.951535,0
-87.357368,44.951546,0
-87.358559,44.951530,0
-87.359772,44.951462,0
-87.359904,44.951440,0
-87.360633,44.951206,0
-87.360753,44.951164,0
-87.361713,44.950741,0
-87.362877,44.950213,0
-87.363835,44.949778,0
-87.364801,44.949340,0
-87.365947,44.948820,0
-87.366556,44.948543,0
-87.366986,44.948349,0
-87.367547,44.948086,0
-87.367890,44.947915,0
-87.368328,44.947592,0
-87.368900,44.946915,0
-87.369237,44.946555,0
-87.369733,44.946305,0
-87.370122,44.946257,0
-87.371070,44.946224,0
-87.372334,44.946208,0
-87.373221,44.946198,0
-87.374837,44.946178,0
-87.375874,44.946165,0
-87.377204,44.946149,0
-87.378115,44.946108,0
-87.378781,44.945982,0
-87.379208,44.945808,0
-87.379578,44.945640,0
-87.379891,44.945498,0
-87.380114,44.945163,0
-87.380530,44.944689,0
-87.381086,44.944074,0
-87.381652,44.943436,0
-87.382353,44.942635,0
-87.383077,44.941807,0
-87.383677,44.941121,0
-87.384347,44.940356,0
-87.384810,44.939827,0
-87.385484,44.939057,0
-87.386171,44.938279,0
-87.386264,44.938221,0
-87.386863,44.937906,0
-87.387359,44.937677,0
-87.387821,44.937464,0
-87.388391,44.937220,0
-87.389027,44.937045,0
-87.389625,44.936819,0
-87.389676,44.936743,0
-87.390103,44.936102,0
-87.390463,44.935484,0
-87.390804,44.934873,0
-87.391198,44.934149,0
-87.391508,44.933566,0
-87.391906,44.932815,0
-87.392253,44.932159,0
-87.392652,44.931402,0
-87.393053,44.930621,0
-87.393280,44.930055,0
-87.393280,44.929354,0
-87.393280,44.928695,0
-87.393181,44.928102,0
-87.393047,44.927499,0
-87.392862,44.926665,0
-87.392786,44.926098,0
-87.392838,44.925730,0
-87.393308,44.924970,0
-87.393780,44.924282,0
-87.393920,44.923797,0
-87.394067,44.923141,0
-87.394180,44.922459,0
-87.394425,44.921712,0
-87.394765,44.921090,0
-87.395253,44.920325,0
-87.395865,44.919602,0
-87.396379,44.919069,0
-87.396976,44.918588,0
-87.397523,44.918200,0
-87.398349,44.917613,0
-87.398718,44.917350,0
-87.398809,44.917286,0
-87.399080,44.917094,0
-87.399814,44.916523,0
-87.400187,44.916159,0
-87.400429,44.915923,0
-87.400864,44.915497,0
-87.401440,44.914934,0
-87.401861,44.914522,0
-87.402549,44.913849,0
-87.403163,44.913249,0
-87.403814,44.912581,0
-87.404114,44.912169,0
-87.404325,44.911627,0
-87.404561,44.910800,0
-87.404775,44.910072,0
-87.405102,44.909554,0
-87.405607,44.908773,0
-87.405850,44.908342,0
-87.405852,44.907885,0
-87.405703,44.907166,0
-87.405440,44.906210,0
-87.405373,44.905969,0
-87.405022,44.905485,0
-87.404384,44.904763,0
-87.403910,44.904226,0
-87.403352,44.903693,0
-87.402836,44.903363,0
-87.402149,44.903063,0
-87.401267,44.902678,0
-87.400533,44.902424,0
-87.399688,44.902164,0
-87.398843,44.901904,0
-87.397684,44.901548,0
-87.396822,44.901237,0
-87.395999,44.900855,0
-87.395259,44.900493,0
-87.394337,44.900043,0
-87.393453,44.899611,0
-87.392741,44.899263,0
-87.391908,44.898850,0
-87.391255,44.898523,0
-87.390708,44.898219,0
-87.390207,44.897852,0
-87.389654,44.897421,0
-87.388968,44.896895,0
-87.388108,44.896237,0
-87.387678,44.895831,0
-87.387192,44.895357,0
-87.386795,44.894971,0
-87.386423,44.894608,0
-87.386149,44.894305,0
-87.385828,44.893937,0
-87.385556,44.893523,0
-87.385295,44.893099,0
-87.385003,44.892589,0
-87.384706,44.891973,0
-87.384426,44.891322,0
-87.384200,44.890559,0
-87.383925,44.889893,0
-87.383637,44.889294,0
-87.383303,44.888694,0
-87.382857,44.887895,0
-87.382538,44.887322,0
-87.382189,44.886545,0
-87.381970,44.885929,0
-87.381720,44.885229,0
-87.381543,44.884517,0
-87.381435,44.883897,0
-87.381457,44.883366,0
-87.381572,44.882733,0
-87.381758,44.882204,0
-87.381976,44.881581,0
-87.382219,44.880890,0
-87.382376,44.880443,0
-87.382505,44.879898,0
-87.382584,44.879291,0
-87.382644,44.878589,0
-87.382714,44.877883,0
-87.382766,44.877451,0
-87.382832,44.876912,0
-87.383002,44.876183,0
-87.383164,44.875576,0
-87.383323,44.874980,0
-87.383492,44.874347,0
-87.383538,44.873803,0
-87.383538,44.873346,0
-87.383520,44.872781,0
-87.383353,44.872233,0
-87.383232,44.871702,0
-87.383217,44.871355,0
-87.383189,44.870798,0
-87.383085,44.870342,0
-87.382815,44.869723,0
-87.382698,44.869267,0
-87.382514,44.868530,0
-87.382295,44.868161,0
-87.381902,44.867522,0
-87.381525,44.866911,0
-87.381083,44.866134,0
-87.380883,44.865592,0
-87.380786,44.865124,0
-87.380650,44.864483,0
-87.380493,44.863857,0
-87.380537,44.863221,0
-87.380630,44.862290,0
-87.380730,44.861651,0
-87.380896,44.860942,0
-87.381118,44.860320,0
-87.381272,44.859804,0
-87.381301,44.859361,0
-87.381200,44.858721,0
-87.380976,44.858001,0
-87.380794,44.857273,0
-87.380630,44.856640,0
-87.380443,44.855930,0
-87.380310,44.855292,0
-87.380286,44.854641,0
-87.380416,44.853908,0
-87.380622,44.853117,0
-87.380879,44.852390,0
-87.381147,44.851573,0
-87.381404,44.850684,0
-87.381594,44.849788,0
-87.381761,44.848849,0
-87.381881,44.848082,0
-87.381883,44.847584,0
-87.381844,44.847047,0
-87.381795,44.846393,0
-87.381756,44.845867,0
-87.381751,44.845797,0
-87.381737,44.845612,0
-87.381576,44.845591,0
-87.380965,44.845591,0
-87.380276,44.845591,0
-87.379681,44.845591,0
-87.379477,44.845591,0
-87.379446,44.845477,0
-87.379383,44.844993,0
-87.379302,44.844378,0
-87.379206,44.843641,0
-87.379126,44.843038,0
-87.379062,44.842514,0
-87.378993,44.841946,0
-87.378961,44.841674,0
-87.378938,44.841508,0
-87.378891,44.841216,0
-87.378872,44.841098,0
-87.378800,44.840652,0
-87.378783,44.840542,0
-87.378757,44.840381,0
-87.378671,44.839851,0
-87.378582,44.839296,0
-87.378553,44.839122,0
-87.378533,44.838996,0
-87.378696,44.838891,0
-87.378920,44.838885,0
-87.379227,44.838876,0
-87.379297,44.838874,0
-87.379747,44.838861,0
-87.379888,44.838857,0
-87.380096,44.839120,0
-87.380210,44.839509,0
-87.380292,44.839794,0
-87.380464,44.840385,0
-87.380656,44.841046,0
-87.380818,44.841627,0
-87.380973,44.842286,0
-87.381140,44.842996,0
-87.381287,44.843625,0
-87.381386,44.844048,0
-87.381425,44.844217,0
-87.381607,44.844261,0
-87.382313,44.844261,0
-87.382485,44.844261,0
-87.382918,44.844261,0
-87.383752,44.844365,0
-87.383953,44.844454,0
-87.384379,44.844562,0
-87.384108,44.844643,0
-87.384122,44.844795,0
		</coordinates>
	  </LineString>
	</Placemark>
  </Document>
</kml>